hardware/ESP32_IMU_setup_NEW/strømforbrug_iterationC/alle/ac3q0015_advertising.csv

#Digilent WaveForms Oscilloscope Acquisition
#Device Name: Discovery2
#Serial Number: SN:210321B02ACE
#Date Time: 2026-05-13 14:17:14.961
#Sample rate: 80000Hz
#Samples: 8192
#Trigger: Source: Channel 1 Type: Edge Condition: Rising Level: 0 V Hyst.: Auto HoldOff: 100 ns
#Channel 1: Range: 5 mV/div Offset: 0 V Attenuation: 1 X

Time (s),Channel 1 (V)
-0.0511975,2.707800602884972
-0.051184999999999994,2.707800602884972
-0.051172499999999996,2.707800602884972
-0.05116,2.707800602884972
-0.0511475,2.707800602884972
-0.051135,2.707800602884972
-0.051122499999999994,2.707800602884972
-0.051109999999999996,2.707800602884972
-0.0510975,2.707800602884972
-0.051085,2.707800602884972
-0.0510725,2.707800602884972
-0.051059999999999994,2.707800602884972
-0.051047499999999996,2.707800602884972
-0.051035,2.707800602884972
-0.0510225,2.410933329728959
-0.05101,2.3626676038038164
-0.050997499999999994,2.646641977568565
-0.050984999999999996,1.9834841268439647
-0.0509725,1.7507507634788944
-0.05096,2.069436789450383
-0.0509475,1.6046312370479838
-0.050934999999999994,1.1510656482172925
-0.050922499999999996,1.3692531763719467
-0.05091,1.249911210214574
-0.0508975,0.5493970099722671
-0.050885,0.6836153985038276
-0.050872499999999994,0.7808080246816035
-0.050859999999999995,0.22971922250916632
-0.0508475,-0.011609407116545805
-0.050835,0.3160024722794552
-0.0508225,-0.16268774100551903
-0.050809999999999994,-0.5838557877767996
-0.050797499999999995,-0.2149205128971115
-0.050785,-0.45922442699766114
-0.0507725,-1.035107266460662
-0.05076,-0.7894810037046289
-0.0507475,-0.7951009854904306
-0.050734999999999995,-1.5604102698514244
-0.0507225,-1.3974307980631009
-0.05071,-1.1709785908115766
-0.0506975,-1.9306678933867636
-0.050685,-1.9743053990176944
-0.050672499999999995,-1.739257925505548
-0.05066,-2.2668750390434065
-0.0506475,-2.6490338004780956
-0.050635,-2.265552690387923
-0.0506225,-2.6017598360444127
-0.050609999999999995,-2.7082089028109757
-0.0505975,-2.7082089028109757
-0.050585,-2.7082089028109757
-0.0505725,-2.7082089028109757
-0.05056,-2.7082089028109757
-0.050547499999999995,-2.7082089028109757
-0.050535,-2.7082089028109757
-0.0505225,-2.7082089028109757
-0.05051,-2.7082089028109757
-0.0504975,-2.7082089028109757
-0.050484999999999995,-2.7082089028109757
-0.0504725,-2.7082089028109757
-0.05046,-2.7082089028109757
-0.0504475,-2.7082089028109757
-0.050435,-2.7082089028109757
-0.050422499999999995,-2.7082089028109757
-0.050409999999999996,-2.7082089028109757
-0.0503975,-2.7082089028109757
-0.050385,-2.7082089028109757
-0.0503725,-2.7082089028109757
-0.050359999999999995,-2.7082089028109757
-0.050347499999999996,-2.7082089028109757
-0.050335,-2.7082089028109757
-0.0503225,-2.7082089028109757
-0.05031,-2.7082089028109757
-0.050297499999999995,-2.7082089028109757
-0.050284999999999996,-2.7082089028109757
-0.0502725,-2.7082089028109757
-0.05026,-2.7082089028109757
-0.0502475,-2.7082089028109757
-0.050234999999999995,-2.7082089028109757
-0.050222499999999996,-2.7082089028109757
-0.05021,-2.7082089028109757
-0.0501975,-2.7082089028109757
-0.050185,-2.7082089028109757
-0.050172499999999995,-2.7082089028109757
-0.050159999999999996,-2.7082089028109757
-0.0501475,-2.7082089028109757
-0.050135,-2.7082089028109757
-0.0501225,-2.7082089028109757
-0.050109999999999995,-2.7082089028109757
-0.050097499999999996,-2.7082089028109757
-0.050085,-2.7082089028109757
-0.0500725,-2.7082089028109757
-0.05006,-2.7082089028109757
-0.050047499999999995,-2.7082089028109757
-0.050034999999999996,-2.7082089028109757
-0.0500225,-2.7082089028109757
-0.05001,-2.7082089028109757
-0.0499975,-2.7082089028109757
-0.049984999999999995,-2.7082089028109757
-0.049972499999999996,-2.7082089028109757
-0.04996,-2.7082089028109757
-0.0499475,-2.7082089028109757
-0.049935,-2.7082089028109757
-0.049922499999999995,-2.7082089028109757
-0.049909999999999996,-2.7082089028109757
-0.0498975,-2.7082089028109757
-0.049885,-2.7082089028109757
-0.0498725,-2.7082089028109757
-0.049859999999999995,-2.7082089028109757
-0.049847499999999996,-2.7082089028109757
-0.049835,-2.7082089028109757
-0.0498225,-2.7082089028109757
-0.04981,-2.7082089028109757
-0.049797499999999995,-2.7082089028109757
-0.049784999999999996,-2.7082089028109757
-0.0497725,-2.7082089028109757
-0.04976,-2.7082089028109757
-0.0497475,-2.7082089028109757
-0.049734999999999994,-2.7082089028109757
-0.049722499999999996,-2.7082089028109757
-0.04971,-2.7082089028109757
-0.0496975,-2.7082089028109757
-0.049685,-2.7082089028109757
-0.049672499999999994,-2.7082089028109757
-0.049659999999999996,-2.7082089028109757
-0.0496475,-2.7082089028109757
-0.049635,-2.7082089028109757
-0.0496225,-2.7082089028109757
-0.049609999999999994,-2.7082089028109757
-0.049597499999999996,-2.7082089028109757
-0.049585,-2.7082089028109757
-0.0495725,-2.7082089028109757
-0.04956,-2.7082089028109757
-0.049547499999999994,-2.7082089028109757
-0.049534999999999996,-2.7082089028109757
-0.0495225,-2.7082089028109757
-0.04951,-2.7082089028109757
-0.0494975,-2.7082089028109757
-0.049484999999999994,-2.7082089028109757
-0.049472499999999996,-2.7082089028109757
-0.04946,-2.7082089028109757
-0.0494475,-2.7082089028109757
-0.049435,-2.7082089028109757
-0.049422499999999994,-2.7082089028109757
-0.049409999999999996,-2.7082089028109757
-0.0493975,-2.7082089028109757
-0.049385,-2.7082089028109757
-0.0493725,-2.7082089028109757
-0.049359999999999994,-2.7082089028109757
-0.049347499999999996,-2.7082089028109757
-0.049335,-2.7082089028109757
-0.0493225,-2.7082089028109757
-0.04931,-2.7082089028109757
-0.049297499999999994,-2.7082089028109757
-0.049284999999999995,-2.7082089028109757
-0.0492725,-2.7082089028109757
-0.04926,-2.7082089028109757
-0.0492475,-2.7082089028109757
-0.049234999999999994,-2.7082089028109757
-0.049222499999999995,-2.7082089028109757
-0.04921,-2.7082089028109757
-0.0491975,-2.7082089028109757
-0.049185,-2.7082089028109757
-0.0491725,-2.7082089028109757
-0.049159999999999995,-2.7082089028109757
-0.0491475,-2.7082089028109757
-0.049135,-2.7082089028109757
-0.0491225,-2.7082089028109757
-0.04911,-2.7082089028109757
-0.049097499999999995,-2.7082089028109757
-0.049085,-2.7082089028109757
-0.0490725,-2.7082089028109757
-0.04906,-2.7082089028109757
-0.0490475,-2.7082089028109757
-0.049034999999999995,-2.7082089028109757
-0.0490225,-2.7082089028109757
-0.04901,-2.7082089028109757
-0.0489975,-2.7082089028109757
-0.048985,-2.7082089028109757
-0.048972499999999995,-2.7082089028109757
-0.04896,-2.7082089028109757
-0.0489475,-2.7082089028109757
-0.048935,-2.7082089028109757
-0.0489225,-2.7082089028109757
-0.048909999999999995,-2.7082089028109757
-0.048897499999999997,-2.7082089028109757
-0.048885,-2.7082089028109757
-0.0488725,-2.7082089028109757
-0.04886,-2.7082089028109757
-0.048847499999999995,-2.7082089028109757
-0.048834999999999996,-2.7082089028109757
-0.0488225,-2.7082089028109757
-0.04881,-2.7082089028109757
-0.0487975,-2.7082089028109757
-0.048784999999999995,-2.7082089028109757
-0.048772499999999996,-2.7082089028109757
-0.04876,-2.7082089028109757
-0.0487475,-2.7082089028109757
-0.048735,-2.7082089028109757
-0.048722499999999995,-2.7082089028109757
-0.048709999999999996,-2.7082089028109757
-0.0486975,-2.7082089028109757
-0.048685,-2.7082089028109757
-0.0486725,-2.7082089028109757
-0.048659999999999995,-2.7082089028109757
-0.048647499999999996,-2.7082089028109757
-0.048635,-2.7082089028109757
-0.0486225,-2.7082089028109757
-0.04861,-2.7082089028109757
-0.048597499999999995,-2.7082089028109757
-0.048584999999999996,-2.7082089028109757
-0.0485725,-2.7082089028109757
-0.04856,-2.7082089028109757
-0.0485475,-2.7082089028109757
-0.048534999999999995,-2.7082089028109757
-0.048522499999999996,-2.7082089028109757
-0.04851,-2.7082089028109757
-0.0484975,-2.7082089028109757
-0.048485,-2.7082089028109757
-0.048472499999999995,-2.7082089028109757
-0.048459999999999996,-2.7082089028109757
-0.0484475,-2.7082089028109757
-0.048435,-2.7082089028109757
-0.0484225,-2.7082089028109757
-0.048409999999999995,-2.7082089028109757
-0.048397499999999996,-2.7082089028109757
-0.048385,-2.7082089028109757
-0.0483725,-2.7082089028109757
-0.04836,-2.7082089028109757
-0.048347499999999995,-2.7082089028109757
-0.048334999999999996,-2.7082089028109757
-0.0483225,-2.7082089028109757
-0.04831,-2.7082089028109757
-0.0482975,-2.7082089028109757
-0.048284999999999995,-2.7082089028109757
-0.048272499999999996,-2.7082089028109757
-0.04826,-2.7082089028109757
-0.0482475,-2.7082089028109757
-0.048235,-2.7082089028109757
-0.048222499999999995,-2.7082089028109757
-0.048209999999999996,-2.7082089028109757
-0.0481975,-2.7082089028109757
-0.048185,-2.7082089028109757
-0.0481725,-2.7082089028109757
-0.048159999999999994,-2.7082089028109757
-0.048147499999999996,-2.7082089028109757
-0.048135,-2.7082089028109757
-0.0481225,-2.7082089028109757
-0.04811,-2.7082089028109757
-0.048097499999999994,-2.7082089028109757
-0.048084999999999996,-2.7082089028109757
-0.0480725,-2.7082089028109757
-0.04806,-2.7082089028109757
-0.0480475,-2.7082089028109757
-0.048034999999999994,-2.7082089028109757
-0.048022499999999996,-2.7082089028109757
-0.04801,-2.7082089028109757
-0.0479975,-2.7082089028109757
-0.047985,-2.7082089028109757
-0.047972499999999994,-2.7082089028109757
-0.047959999999999996,-2.7082089028109757
-0.0479475,-2.7082089028109757
-0.047935,-2.7082089028109757
-0.0479225,-2.7082089028109757
-0.047909999999999994,-2.7082089028109757
-0.047897499999999996,-2.7082089028109757
-0.047885,-2.7082089028109757
-0.0478725,-2.7082089028109757
-0.04786,-2.7082089028109757
-0.047847499999999994,-2.7082089028109757
-0.047834999999999996,-2.7082089028109757
-0.0478225,-2.7082089028109757
-0.04781,-2.7082089028109757
-0.0477975,-2.7082089028109757
-0.047784999999999994,-2.7082089028109757
-0.047772499999999996,-2.7082089028109757
-0.04776,-2.7082089028109757
-0.0477475,-2.7082089028109757
-0.047735,-2.7082089028109757
-0.047722499999999994,-2.7082089028109757
-0.047709999999999995,-2.7082089028109757
-0.0476975,-2.7082089028109757
-0.047685,-2.7082089028109757
-0.0476725,-2.7082089028109757
-0.047659999999999994,-2.7082089028109757
-0.047647499999999995,-2.7082089028109757
-0.047635,-2.7082089028109757
-0.0476225,-2.7082089028109757
-0.04761,-2.7082089028109757
-0.0475975,-2.7082089028109757
-0.047584999999999995,-2.7082089028109757
-0.0475725,-2.7082089028109757
-0.04756,-2.7082089028109757
-0.0475475,-2.7082089028109757
-0.047535,-2.7082089028109757
-0.047522499999999995,-2.7082089028109757
-0.04751,-2.7082089028109757
-0.0474975,-2.7082089028109757
-0.047485,-2.7082089028109757
-0.0474725,-2.7082089028109757
-0.047459999999999995,-2.7082089028109757
-0.0474475,-2.7082089028109757
-0.047435,-2.7082089028109757
-0.0474225,-2.7082089028109757
-0.04741,-2.7082089028109757
-0.047397499999999995,-2.7082089028109757
-0.047385,-2.7082089028109757
-0.0473725,-2.7082089028109757
-0.04736,-2.7082089028109757
-0.0473475,-2.7082089028109757
-0.047334999999999995,-2.7082089028109757
-0.047322499999999997,-2.7082089028109757
-0.04731,-2.7082089028109757
-0.0472975,-2.7082089028109757
-0.047285,-2.7082089028109757
-0.047272499999999995,-2.7082089028109757
-0.047259999999999996,-2.7082089028109757
-0.0472475,-2.7082089028109757
-0.047235,-2.7082089028109757
-0.0472225,-2.7082089028109757
-0.047209999999999995,-2.7082089028109757
-0.047197499999999996,-2.7082089028109757
-0.047185,-2.7082089028109757
-0.0471725,-2.7082089028109757
-0.04716,-2.7082089028109757
-0.047147499999999995,-2.7082089028109757
-0.047134999999999996,-2.7082089028109757
-0.0471225,-2.7082089028109757
-0.04711,-2.7082089028109757
-0.0470975,-2.7082089028109757
-0.047084999999999995,-2.7082089028109757
-0.047072499999999996,-2.7082089028109757
-0.04706,-2.7082089028109757
-0.0470475,-2.7082089028109757
-0.047035,-2.7082089028109757
-0.047022499999999995,-2.7082089028109757
-0.047009999999999996,-2.7082089028109757
-0.0469975,-2.7082089028109757
-0.046985,-2.7082089028109757
-0.0469725,-2.7082089028109757
-0.046959999999999995,-2.7082089028109757
-0.046947499999999996,-2.7082089028109757
-0.046935,-2.7082089028109757
-0.0469225,-2.7082089028109757
-0.04691,-2.7082089028109757
-0.046897499999999995,-2.7082089028109757
-0.046884999999999996,-2.7082089028109757
-0.0468725,-2.7082089028109757
-0.04686,-2.7082089028109757
-0.0468475,-2.7082089028109757
-0.046834999999999995,-2.7082089028109757
-0.046822499999999996,-2.7082089028109757
-0.04681,-2.7082089028109757
-0.0467975,-2.7082089028109757
-0.046785,-2.7082089028109757
-0.046772499999999995,-2.7082089028109757
-0.046759999999999996,-2.7082089028109757
-0.0467475,-2.7082089028109757
-0.046735,-2.7082089028109757
-0.0467225,-2.7082089028109757
-0.046709999999999995,-2.7082089028109757
-0.046697499999999996,-2.7082089028109757
-0.046685,-2.7082089028109757
-0.0466725,-2.7082089028109757
-0.04666,-2.7082089028109757
-0.046647499999999995,-2.7082089028109757
-0.046634999999999996,-2.7082089028109757
-0.0466225,-2.7082089028109757
-0.04661,-2.7082089028109757
-0.0465975,-2.7082089028109757
-0.046584999999999994,-2.7082089028109757
-0.046572499999999996,-2.7082089028109757
-0.04656,-2.7082089028109757
-0.0465475,-2.7082089028109757
-0.046535,-2.7082089028109757
-0.046522499999999994,-2.7082089028109757
-0.046509999999999996,-2.7082089028109757
-0.0464975,-2.7082089028109757
-0.046485,-2.7082089028109757
-0.0464725,-2.7082089028109757
-0.046459999999999994,-2.7082089028109757
-0.046447499999999996,-2.7082089028109757
-0.046435,-2.7082089028109757
-0.0464225,-2.7082089028109757
-0.04641,-2.7082089028109757
-0.046397499999999994,-2.7082089028109757
-0.046384999999999996,-2.7082089028109757
-0.0463725,-2.7082089028109757
-0.04636,-2.7082089028109757
-0.0463475,-2.7082089028109757
-0.046334999999999994,-2.7082089028109757
-0.046322499999999996,-2.7082089028109757
-0.04631,-2.7082089028109757
-0.0462975,-2.7082089028109757
-0.046285,-2.7082089028109757
-0.046272499999999994,-2.7082089028109757
-0.046259999999999996,-2.7082089028109757
-0.0462475,-2.7082089028109757
-0.046235,-2.7082089028109757
-0.0462225,-2.7082089028109757
-0.046209999999999994,-2.7082089028109757
-0.046197499999999996,-2.7082089028109757
-0.046185,-2.7082089028109757
-0.0461725,-2.7082089028109757
-0.04616,-2.7082089028109757
-0.046147499999999994,-2.7082089028109757
-0.046134999999999995,-2.7082089028109757
-0.0461225,-2.7082089028109757
-0.04611,-2.7082089028109757
-0.0460975,-2.7082089028109757
-0.046085,-2.7082089028109757
-0.046072499999999995,-2.7082089028109757
-0.04606,-2.7082089028109757
-0.0460475,-2.7082089028109757
-0.046035,-2.7082089028109757
-0.0460225,-2.7082089028109757
-0.046009999999999995,-2.7082089028109757
-0.0459975,-2.7082089028109757
-0.045985,-2.7082089028109757
-0.0459725,-2.7082089028109757
-0.04596,-2.7082089028109757
-0.045947499999999995,-2.7082089028109757
-0.045935,-2.7082089028109757
-0.0459225,-2.7082089028109757
-0.04591,-2.7082089028109757
-0.0458975,-2.7082089028109757
-0.045884999999999995,-2.7082089028109757
-0.0458725,-2.7082089028109757
-0.04586,-2.7082089028109757
-0.0458475,-2.7082089028109757
-0.045835,-2.7082089028109757
-0.045822499999999995,-2.7082089028109757
-0.04581,-2.7082089028109757
-0.0457975,-2.7082089028109757
-0.045785,-2.7082089028109757
-0.0457725,-2.7082089028109757
-0.045759999999999995,-2.7082089028109757
-0.045747499999999997,-2.7082089028109757
-0.045735,-2.7082089028109757
-0.0457225,-2.7082089028109757
-0.04571,-2.7082089028109757
-0.045697499999999995,-2.7082089028109757
-0.045684999999999996,-2.7082089028109757
-0.0456725,-2.7082089028109757
-0.04566,-2.7082089028109757
-0.0456475,-2.7082089028109757
-0.045634999999999995,-2.7082089028109757
-0.045622499999999996,-2.7082089028109757
-0.04561,-2.7082089028109757
-0.0455975,-2.7082089028109757
-0.045585,-2.7082089028109757
-0.045572499999999995,-2.7082089028109757
-0.045559999999999996,-2.7082089028109757
-0.0455475,-2.7082089028109757
-0.045535,-2.7082089028109757
-0.0455225,-2.7082089028109757
-0.045509999999999995,-2.7082089028109757
-0.045497499999999996,-2.7082089028109757
-0.045485,-2.7082089028109757
-0.0454725,-2.7082089028109757
-0.04546,-2.7082089028109757
-0.045447499999999995,-2.7082089028109757
-0.045434999999999996,-2.7082089028109757
-0.0454225,-2.7082089028109757
-0.04541,-2.7082089028109757
-0.0453975,-2.7082089028109757
-0.045384999999999995,-2.7082089028109757
-0.045372499999999996,-2.7082089028109757
-0.04536,-2.7082089028109757
-0.0453475,-2.7082089028109757
-0.045335,-2.7082089028109757
-0.045322499999999995,-2.7082089028109757
-0.045309999999999996,-2.7082089028109757
-0.0452975,-2.7082089028109757
-0.045285,-2.7082089028109757
-0.0452725,-2.7082089028109757
-0.045259999999999995,-2.7082089028109757
-0.045247499999999996,-2.7082089028109757
-0.045235,-2.7082089028109757
-0.0452225,-2.7082089028109757
-0.04521,-2.7082089028109757
-0.045197499999999995,-2.7082089028109757
-0.045184999999999996,-2.7082089028109757
-0.0451725,-2.7082089028109757
-0.04516,-2.7082089028109757
-0.0451475,-2.7082089028109757
-0.045134999999999995,-2.7082089028109757
-0.045122499999999996,-2.7082089028109757
-0.04511,-2.7082089028109757
-0.0450975,-2.7082089028109757
-0.045085,-2.7082089028109757
-0.045072499999999995,-2.7082089028109757
-0.045059999999999996,-2.7082089028109757
-0.0450475,-2.7082089028109757
-0.045035,-2.7082089028109757
-0.0450225,-2.7082089028109757
-0.045009999999999994,-2.7082089028109757
-0.044997499999999996,-2.7082089028109757
-0.044985,-2.7082089028109757
-0.0449725,-2.7082089028109757
-0.04496,-2.7082089028109757
-0.044947499999999994,-2.7082089028109757
-0.044934999999999996,-2.7082089028109757
-0.0449225,-2.7082089028109757
-0.04491,-2.7082089028109757
-0.0448975,-2.7082089028109757
-0.044884999999999994,-2.7082089028109757
-0.044872499999999996,-2.7082089028109757
-0.04486,-2.7082089028109757
-0.0448475,-2.7082089028109757
-0.044835,-2.7082089028109757
-0.044822499999999994,-2.7082089028109757
-0.044809999999999996,-2.7082089028109757
-0.0447975,-2.7082089028109757
-0.044785,-2.7082089028109757
-0.0447725,-2.7082089028109757
-0.044759999999999994,-2.7082089028109757
-0.044747499999999996,-2.7082089028109757
-0.044735,-2.7082089028109757
-0.0447225,-2.7082089028109757
-0.04471,-2.7082089028109757
-0.044697499999999994,-2.7082089028109757
-0.044684999999999996,-2.7082089028109757
-0.0446725,-2.7082089028109757
-0.04466,-2.7082089028109757
-0.0446475,-2.7082089028109757
-0.044634999999999994,-2.7082089028109757
-0.044622499999999996,-2.7082089028109757
-0.04461,-2.7082089028109757
-0.0445975,-2.7082089028109757
-0.044585,-2.7082089028109757
-0.044572499999999994,-2.7082089028109757
-0.044559999999999995,-2.7082089028109757
-0.0445475,-2.7082089028109757
-0.044535,-2.7082089028109757
-0.0445225,-2.7082089028109757
-0.04451,-2.7082089028109757
-0.044497499999999995,-2.7082089028109757
-0.044485,-2.7082089028109757
-0.0444725,-2.7082089028109757
-0.04446,-2.7082089028109757
-0.0444475,-2.7082089028109757
-0.044434999999999995,-2.7082089028109757
-0.0444225,-2.7082089028109757
-0.04441,-2.7082089028109757
-0.0443975,-2.7082089028109757
-0.044385,-2.7082089028109757
-0.044372499999999995,-2.7082089028109757
-0.04436,-2.7082089028109757
-0.0443475,-2.7082089028109757
-0.044335,-2.7082089028109757
-0.0443225,-2.7082089028109757
-0.044309999999999995,-2.7082089028109757
-0.0442975,-2.7082089028109757
-0.044285,-2.7082089028109757
-0.0442725,-2.7082089028109757
-0.04426,-2.7082089028109757
-0.044247499999999995,-2.7082089028109757
-0.044235,-2.7082089028109757
-0.0442225,-2.7082089028109757
-0.04421,-2.7082089028109757
-0.0441975,-2.7082089028109757
-0.044184999999999995,-2.7082089028109757
-0.044172499999999996,-2.7082089028109757
-0.04416,-2.7082089028109757
-0.0441475,-2.7082089028109757
-0.044135,-2.7082089028109757
-0.044122499999999995,-2.7082089028109757
-0.044109999999999996,-2.7082089028109757
-0.0440975,-2.7082089028109757
-0.044085,-2.7082089028109757
-0.0440725,-2.7082089028109757
