hardware/ESP32_IMU_setup_NEW/strømforbrug_iterationC/alle/acq0008.csv

#Digilent WaveForms Oscilloscope Acquisition
#Device Name: Discovery2
#Serial Number: SN:210321B02ACE
#Date Time: 2026-05-13 13:57:32.036
#Sample rate: 80000Hz
#Samples: 8192
#Trigger: Source: Channel 1 Type: Edge Condition: Rising Level: 0 V Hyst.: Auto HoldOff: 100 ns
#Channel 1: Range: 5 mV/div Offset: 0 V Attenuation: 1 X

Time (s),Channel 1 (V)
-0.05119,2.707800602884972
-0.051177499999999994,2.707800602884972
-0.051164999999999995,2.707800602884972
-0.0511525,2.707800602884972
-0.05114,2.605979756412754
-0.0511275,2.273078482394819
-0.051114999999999994,2.4694472577341102
-0.051102499999999995,2.4975471666631184
-0.051089999999999997,2.1243142586529418
-0.0510775,1.5738866308079957
-0.051065,1.734882579613094
-0.051052499999999994,1.9253007860025158
-0.051039999999999995,1.5262820792105949
-0.051027499999999996,0.9642839006301694
-0.051015,0.9751932770379071
-0.0510025,1.1490821252339682
-0.050989999999999994,0.8938688347254001
-0.050977499999999995,0.2763320126149546
-0.050964999999999996,0.3718717029736269
-0.0509525,0.5331982389425961
-0.05094,0.06872327370406796
-0.050927499999999994,-0.38649525094603143
-0.050914999999999995,-0.28698851462095426
-0.050902499999999996,-0.21293698991388646
-0.05089,-0.682701349774348
-0.0508775,-1.0030403115651907
-0.050864999999999994,-0.8043574260788301
-0.050852499999999995,-0.8337796836633212
-0.050839999999999996,-1.438093019219214
-0.0508275,-1.5329715352501447
-0.050815,-1.2956099515908828
-0.050802499999999993,-1.7104968422489644
-0.050789999999999995,-2.105217915910566
-0.050777499999999996,-2.1878647068782757
-0.050765,-2.010008812715765
-0.0507525,-2.480764934067839
-0.05074,-2.7082089028108722
-0.050727499999999995,-2.691679544617434
-0.050714999999999996,-2.628537396318104
-0.0507025,-2.7082089028109757
-0.05069,-2.7082089028109757
-0.0506775,-2.7082089028109757
-0.050664999999999995,-2.7082089028109757
-0.050652499999999996,-2.7082089028109757
-0.05064,-2.7082089028109757
-0.0506275,-2.7082089028109757
-0.050615,-2.7082089028109757
-0.050602499999999995,-2.7082089028109757
-0.050589999999999996,-2.7082089028109757
-0.0505775,-2.7082089028109757
-0.050565,-2.7082089028109757
-0.0505525,-2.7082089028109757
-0.050539999999999995,-2.7082089028109757
-0.050527499999999996,-2.7082089028109757
-0.050515,-2.7082089028109757
-0.0505025,-2.7082089028109757
-0.05049,-2.7082089028109757
-0.050477499999999995,-2.7082089028109757
-0.050464999999999996,-2.7082089028109757
-0.0504525,-2.7082089028109757
-0.05044,-2.7082089028109757
-0.0504275,-2.7082089028109757
-0.050414999999999995,-2.7082089028109757
-0.050402499999999996,-2.7082089028109757
-0.05039,-2.7082089028109757
-0.0503775,-2.7082089028109757
-0.050365,-2.7082089028109757
-0.050352499999999994,-2.7082089028109757
-0.050339999999999996,-2.7082089028109757
-0.0503275,-2.7082089028109757
-0.050315,-2.7082089028109757
-0.0503025,-2.7082089028109757
-0.050289999999999994,-2.7082089028109757
-0.050277499999999996,-2.7082089028109757
-0.050265,-2.7082089028109757
-0.0502525,-2.7082089028109757
-0.05024,-2.7082089028109757
-0.050227499999999994,-2.7082089028109757
-0.050214999999999996,-2.7082089028109757
-0.0502025,-2.7082089028109757
-0.05019,-2.7082089028109757
-0.0501775,-2.7082089028109757
-0.050164999999999994,-2.7082089028109757
-0.050152499999999996,-2.7082089028109757
-0.05014,-2.7082089028109757
-0.0501275,-2.7082089028109757
-0.050115,-2.7082089028109757
-0.050102499999999994,-2.7082089028109757
-0.050089999999999996,-2.7082089028109757
-0.0500775,-2.7082089028109757
-0.050065,-2.7082089028109757
-0.0500525,-2.7082089028109757
-0.050039999999999994,-2.7082089028109757
-0.050027499999999996,-2.7082089028109757
-0.050015,-2.7082089028109757
-0.0500025,-2.7082089028109757
-0.04999,-2.7082089028109757
-0.049977499999999994,-2.7082089028109757
-0.049964999999999996,-2.7082089028109757
-0.0499525,-2.7082089028109757
-0.04994,-2.7082089028109757
-0.0499275,-2.7082089028109757
-0.049914999999999994,-2.7082089028109757
-0.049902499999999995,-2.7082089028109757
-0.04989,-2.7082089028109757
-0.0498775,-2.7082089028109757
-0.049865,-2.7082089028109757
-0.049852499999999994,-2.7082089028109757
-0.049839999999999995,-2.7082089028109757
-0.0498275,-2.7082089028109757
-0.049815,-2.7082089028109757
-0.0498025,-2.7082089028109757
-0.049789999999999994,-2.7082089028109757
-0.049777499999999995,-2.7082089028109757
-0.049765,-2.7082089028109757
-0.0497525,-2.7082089028109757
-0.04974,-2.7082089028109757
-0.049727499999999994,-2.7082089028109757
-0.049714999999999995,-2.7082089028109757
-0.0497025,-2.7082089028109757
-0.04969,-2.7082089028109757
-0.0496775,-2.7082089028109757
-0.049664999999999994,-2.7082089028109757
-0.049652499999999995,-2.7082089028109757
-0.04964,-2.7082089028109757
-0.0496275,-2.7082089028109757
-0.049615,-2.7082089028109757
-0.049602499999999994,-2.7082089028109757
-0.049589999999999995,-2.7082089028109757
-0.0495775,-2.7082089028109757
-0.049565,-2.7082089028109757
-0.0495525,-2.7082089028109757
-0.049539999999999994,-2.7082089028109757
-0.049527499999999995,-2.7082089028109757
-0.049514999999999997,-2.7082089028109757
-0.0495025,-2.7082089028109757
-0.04949,-2.7082089028109757
-0.049477499999999994,-2.7082089028109757
-0.049464999999999995,-2.7082089028109757
-0.049452499999999996,-2.7082089028109757
-0.04944,-2.7082089028109757
-0.0494275,-2.7082089028109757
-0.049414999999999994,-2.7082089028109757
-0.049402499999999995,-2.7082089028109757
-0.049389999999999996,-2.7082089028109757
-0.0493775,-2.7082089028109757
-0.049365,-2.7082089028109757
-0.049352499999999994,-2.7082089028109757
-0.049339999999999995,-2.7082089028109757
-0.049327499999999996,-2.7082089028109757
-0.049315,-2.7082089028109757
-0.0493025,-2.7082089028109757
-0.049289999999999994,-2.7082089028109757
-0.049277499999999995,-2.7082089028109757
-0.049264999999999996,-2.7082089028109757
-0.0492525,-2.7082089028109757
-0.04924,-2.7082089028109757
-0.049227499999999993,-2.7082089028109757
-0.049214999999999995,-2.7082089028109757
-0.049202499999999996,-2.7082089028109757
-0.04919,-2.7082089028109757
-0.0491775,-2.7082089028109757
-0.049165,-2.7082089028109757
-0.049152499999999995,-2.7082089028109757
-0.049139999999999996,-2.7082089028109757
-0.0491275,-2.7082089028109757
-0.049115,-2.7082089028109757
-0.0491025,-2.7082089028109757
-0.049089999999999995,-2.7082089028109757
-0.049077499999999996,-2.7082089028109757
-0.049065,-2.7082089028109757
-0.0490525,-2.7082089028109757
-0.04904,-2.7082089028109757
-0.049027499999999995,-2.7082089028109757
-0.049014999999999996,-2.7082089028109757
-0.0490025,-2.7082089028109757
-0.04899,-2.7082089028109757
-0.0489775,-2.7082089028109757
-0.048964999999999995,-2.7082089028109757
-0.048952499999999996,-2.7082089028109757
-0.04894,-2.7082089028109757
-0.0489275,-2.7082089028109757
-0.048915,-2.7082089028109757
-0.048902499999999995,-2.7082089028109757
-0.048889999999999996,-2.7082089028109757
-0.0488775,-2.7082089028109757
-0.048865,-2.7082089028109757
-0.0488525,-2.7082089028109757
-0.048839999999999995,-2.7082089028109757
-0.048827499999999996,-2.7082089028109757
-0.048815,-2.7082089028109757
-0.0488025,-2.7082089028109757
-0.04879,-2.7082089028109757
-0.048777499999999994,-2.7082089028109757
-0.048764999999999996,-2.7082089028109757
-0.0487525,-2.7082089028109757
-0.04874,-2.7082089028109757
-0.0487275,-2.7082089028109757
-0.048714999999999994,-2.7082089028109757
-0.048702499999999996,-2.7082089028109757
-0.04869,-2.7082089028109757
-0.0486775,-2.7082089028109757
-0.048665,-2.7082089028109757
-0.048652499999999994,-2.7082089028109757
-0.048639999999999996,-2.7082089028109757
-0.0486275,-2.7082089028109757
-0.048615,-2.7082089028109757
-0.0486025,-2.7082089028109757
-0.048589999999999994,-2.7082089028109757
-0.048577499999999996,-2.7082089028109757
-0.048565,-2.7082089028109757
-0.0485525,-2.7082089028109757
-0.04854,-2.7082089028109757
-0.048527499999999994,-2.7082089028109757
-0.048514999999999996,-2.7082089028109757
-0.0485025,-2.7082089028109757
-0.04849,-2.7082089028109757
-0.0484775,-2.7082089028109757
-0.048464999999999994,-2.7082089028109757
-0.048452499999999996,-2.7082089028109757
-0.04844,-2.7082089028109757
-0.0484275,-2.7082089028109757
-0.048415,-2.7082089028109757
-0.048402499999999994,-2.7082089028109757
-0.048389999999999996,-2.7082089028109757
-0.0483775,-2.7082089028109757
-0.048365,-2.7082089028109757
-0.0483525,-2.7082089028109757
-0.048339999999999994,-2.7082089028109757
-0.048327499999999995,-2.7082089028109757
-0.048315,-2.7082089028109757
-0.0483025,-2.7082089028109757
-0.04829,-2.7082089028109757
-0.048277499999999994,-2.7082089028109757
-0.048264999999999995,-2.7082089028109757
-0.0482525,-2.7082089028109757
-0.04824,-2.7082089028109757
-0.0482275,-2.7082089028109757
-0.048214999999999994,-2.7082089028109757
-0.048202499999999995,-2.7082089028109757
-0.04819,-2.7082089028109757
-0.0481775,-2.7082089028109757
-0.048165,-2.7082089028109757
-0.048152499999999994,-2.7082089028109757
-0.048139999999999995,-2.7082089028109757
-0.0481275,-2.7082089028109757
-0.048115,-2.7082089028109757
-0.0481025,-2.7082089028109757
-0.048089999999999994,-2.7082089028109757
-0.048077499999999995,-2.7082089028109757
-0.048065,-2.7082089028109757
-0.0480525,-2.7082089028109757
-0.04804,-2.7082089028109757
-0.048027499999999994,-2.7082089028109757
-0.048014999999999995,-2.7082089028109757
-0.0480025,-2.7082089028109757
-0.04799,-2.7082089028109757
-0.0479775,-2.7082089028109757
-0.047964999999999994,-2.7082089028109757
-0.047952499999999995,-2.7082089028109757
-0.047939999999999997,-2.7082089028109757
-0.0479275,-2.7082089028109757
-0.047915,-2.7082089028109757
-0.047902499999999994,-2.7082089028109757
-0.047889999999999995,-2.7082089028109757
-0.047877499999999996,-2.7082089028109757
-0.047865,-2.7082089028109757
-0.0478525,-2.7082089028109757
-0.047839999999999994,-2.7082089028109757
-0.047827499999999995,-2.7082089028109757
-0.047814999999999996,-2.7082089028109757
-0.0478025,-2.7082089028109757
-0.04779,-2.7082089028109757
-0.047777499999999994,-2.7082089028109757
-0.047764999999999995,-2.7082089028109757
-0.047752499999999996,-2.7082089028109757
-0.04774,-2.7082089028109757
-0.0477275,-2.7082089028109757
-0.047714999999999994,-2.7082089028109757
-0.047702499999999995,-2.7082089028109757
-0.047689999999999996,-2.7082089028109757
-0.0476775,-2.7082089028109757
-0.047665,-2.7082089028109757
-0.047652499999999993,-2.7082089028109757
-0.047639999999999995,-2.7082089028109757
-0.047627499999999996,-2.7082089028109757
-0.047615,-2.7082089028109757
-0.0476025,-2.7082089028109757
-0.04759,-2.7082089028109757
-0.047577499999999995,-2.7082089028109757
-0.047564999999999996,-2.7082089028109757
-0.0475525,-2.7082089028109757
-0.04754,-2.7082089028109757
-0.0475275,-2.7082089028109757
-0.047514999999999995,-2.7082089028109757
-0.047502499999999996,-2.7082089028109757
-0.04749,-2.7082089028109757
-0.0474775,-2.7082089028109757
-0.047465,-2.7082089028109757
-0.047452499999999995,-2.7082089028109757
-0.047439999999999996,-2.7082089028109757
-0.0474275,-2.7082089028109757
-0.047415,-2.7082089028109757
-0.0474025,-2.7082089028109757
-0.047389999999999995,-2.7082089028109757
-0.047377499999999996,-2.7082089028109757
-0.047365,-2.7082089028109757
-0.0473525,-2.7082089028109757
-0.04734,-2.7082089028109757
-0.047327499999999995,-2.7082089028109757
-0.047314999999999996,-2.7082089028109757
-0.0473025,-2.7082089028109757
-0.04729,-2.7082089028109757
-0.0472775,-2.7082089028109757
-0.047264999999999995,-2.7082089028109757
-0.047252499999999996,-2.7082089028109757
-0.04724,-2.7082089028109757
-0.0472275,-2.7082089028109757
-0.047215,-2.7082089028109757
-0.047202499999999994,-2.7082089028109757
-0.047189999999999996,-2.7082089028109757
-0.0471775,-2.7082089028109757
-0.047165,-2.7082089028109757
-0.0471525,-2.7082089028109757
-0.047139999999999994,-2.7082089028109757
-0.047127499999999996,-2.7082089028109757
-0.047115,-2.7082089028109757
-0.0471025,-2.7082089028109757
-0.04709,-2.7082089028109757
-0.047077499999999994,-2.7082089028109757
-0.047064999999999996,-2.7082089028109757
-0.0470525,-2.7082089028109757
-0.04704,-2.7082089028109757
-0.0470275,-2.7082089028109757
-0.047014999999999994,-2.7082089028109757
-0.047002499999999996,-2.7082089028109757
-0.04699,-2.7082089028109757
-0.0469775,-2.7082089028109757
-0.046965,-2.7082089028109757
-0.046952499999999994,-2.7082089028109757
-0.046939999999999996,-2.7082089028109757
-0.0469275,-2.7082089028109757
-0.046915,-2.7082089028109757
-0.0469025,-2.7082089028109757
-0.046889999999999994,-2.7082089028109757
-0.046877499999999996,-2.7082089028109757
-0.046865,-2.7082089028109757
-0.0468525,-2.7082089028109757
-0.04684,-2.7082089028109757
-0.046827499999999994,-2.7082089028109757
-0.046814999999999996,-2.7082089028109757
-0.0468025,-2.7082089028109757
-0.04679,-2.7082089028109757
-0.0467775,-2.7082089028109757
-0.046764999999999994,-2.7082089028109757
-0.046752499999999995,-2.7082089028109757
-0.04674,-2.7082089028109757
-0.0467275,-2.7082089028109757
-0.046715,-2.7082089028109757
-0.046702499999999994,-2.7082089028109757
-0.046689999999999995,-2.7082089028109757
-0.0466775,-2.7082089028109757
-0.046665,-2.7082089028109757
-0.0466525,-2.7082089028109757
-0.046639999999999994,-2.7082089028109757
-0.046627499999999995,-2.7082089028109757
-0.046615,-2.7082089028109757
-0.0466025,-2.7082089028109757
-0.04659,-2.7082089028109757
-0.046577499999999994,-2.7082089028109757
-0.046564999999999995,-2.7082089028109757
-0.0465525,-2.7082089028109757
-0.04654,-2.7082089028109757
-0.0465275,-2.7082089028109757
-0.046514999999999994,-2.7082089028109757
-0.046502499999999995,-2.7082089028109757
-0.04649,-2.7082089028109757
-0.0464775,-2.7082089028109757
-0.046465,-2.7082089028109757
-0.046452499999999994,-2.7082089028109757
-0.046439999999999995,-2.7082089028109757
-0.0464275,-2.7082089028109757
-0.046415,-2.7082089028109757
-0.0464025,-2.7082089028109757
-0.046389999999999994,-2.7082089028109757
-0.046377499999999995,-2.7082089028109757
-0.046364999999999996,-2.7082089028109757
-0.0463525,-2.7082089028109757
-0.04634,-2.7082089028109757
-0.046327499999999994,-2.7082089028109757
-0.046314999999999995,-2.7082089028109757
-0.046302499999999996,-2.7082089028109757
-0.04629,-2.7082089028109757
-0.0462775,-2.7082089028109757
-0.046264999999999994,-2.7082089028109757
-0.046252499999999995,-2.7082089028109757
-0.046239999999999996,-2.7082089028109757
-0.0462275,-2.7082089028109757
-0.046215,-2.7082089028109757
-0.046202499999999994,-2.7082089028109757
-0.046189999999999995,-2.7082089028109757
-0.046177499999999996,-2.7082089028109757
-0.046165,-2.7082089028109757
-0.0461525,-2.7082089028109757
-0.046139999999999994,-2.7082089028109757
-0.046127499999999995,-2.7082089028109757
-0.046114999999999996,-2.7082089028109757
-0.0461025,-2.7082089028109757
-0.04609,-2.7082089028109757
-0.0460775,-2.7082089028109757
-0.046064999999999995,-2.7082089028109757
-0.046052499999999996,-2.7082089028109757
-0.04604,-2.7082089028109757
-0.0460275,-2.7082089028109757
-0.046015,-2.7082089028109757
-0.046002499999999995,-2.7082089028109757
-0.045989999999999996,-2.7082089028109757
-0.0459775,-2.7082089028109757
-0.045965,-2.7082089028109757
-0.0459525,-2.7082089028109757
-0.045939999999999995,-2.7082089028109757
-0.045927499999999996,-2.7082089028109757
-0.045915,-2.7082089028109757
-0.0459025,-2.7082089028109757
-0.04589,-2.7082089028109757
-0.045877499999999995,-2.7082089028109757
-0.045864999999999996,-2.7082089028109757
-0.0458525,-2.7082089028109757
-0.04584,-2.7082089028109757
-0.0458275,-2.7082089028109757
-0.045814999999999995,-2.7082089028109757
-0.045802499999999996,-2.7082089028109757
-0.04579,-2.7082089028109757
-0.0457775,-2.7082089028109757
-0.045765,-2.7082089028109757
-0.045752499999999995,-2.7082089028109757
-0.045739999999999996,-2.7082089028109757
-0.0457275,-2.7082089028109757
-0.045715,-2.7082089028109757
-0.0457025,-2.7082089028109757
-0.045689999999999995,-2.7082089028109757
-0.045677499999999996,-2.7082089028109757
-0.045665,-2.7082089028109757
-0.0456525,-2.7082089028109757
-0.04564,-2.7082089028109757
-0.045627499999999994,-2.7082089028109757
-0.045614999999999996,-2.7082089028109757
-0.0456025,-2.7082089028109757
-0.04559,-2.7082089028109757
-0.0455775,-2.7082089028109757
-0.045564999999999994,-2.7082089028109757
-0.045552499999999996,-2.7082089028109757
-0.04554,-2.7082089028109757
-0.0455275,-2.7082089028109757
-0.045515,-2.7082089028109757
-0.045502499999999994,-2.7082089028109757
-0.045489999999999996,-2.7082089028109757
-0.0454775,-2.7082089028109757
-0.045465,-2.7082089028109757
-0.0454525,-2.7082089028109757
-0.045439999999999994,-2.7082089028109757
-0.045427499999999996,-2.7082089028109757
-0.045415,-2.7082089028109757
-0.0454025,-2.7082089028109757
-0.04539,-2.7082089028109757
-0.045377499999999994,-2.7082089028109757
-0.045364999999999996,-2.7082089028109757
-0.0453525,-2.7082089028109757
-0.04534,-2.7082089028109757
-0.0453275,-2.7082089028109757
-0.045314999999999994,-2.7082089028109757
-0.045302499999999996,-2.7082089028109757
-0.04529,-2.7082089028109757
-0.0452775,-2.7082089028109757
-0.045265,-2.7082089028109757
-0.045252499999999994,-2.7082089028109757
-0.045239999999999995,-2.7082089028109757
-0.0452275,-2.7082089028109757
-0.045215,-2.7082089028109757
-0.0452025,-2.7082089028109757
-0.045189999999999994,-2.7082089028109757
-0.045177499999999995,-2.7082089028109757
-0.045165,-2.7082089028109757
-0.0451525,-2.7082089028109757
-0.04514,-2.7082089028109757
-0.045127499999999994,-2.7082089028109757
-0.045114999999999995,-2.7082089028109757
-0.0451025,-2.7082089028109757
-0.04509,-2.7082089028109757
-0.0450775,-2.7082089028109757
-0.045064999999999994,-2.7082089028109757
-0.045052499999999995,-2.7082089028109757
-0.04504,-2.7082089028109757
-0.0450275,-2.7082089028109757
-0.045015,-2.7082089028109757
-0.045002499999999994,-2.7082089028109757
-0.044989999999999995,-2.7082089028109757
-0.0449775,-2.7082089028109757
-0.044965,-2.7082089028109757
-0.0449525,-2.7082089028109757
-0.044939999999999994,-2.7082089028109757
-0.044927499999999995,-2.7082089028109757
-0.044915,-2.7082089028109757
-0.0449025,-2.7082089028109757
-0.04489,-2.7082089028109757
-0.044877499999999994,-2.7082089028109757
-0.044864999999999995,-2.7082089028109757
-0.0448525,-2.7082089028109757
-0.04484,-2.7082089028109757
-0.0448275,-2.7082089028109757
-0.044814999999999994,-2.7082089028109757
-0.044802499999999995,-2.7082089028109757
-0.044789999999999996,-2.7082089028109757
-0.0447775,-2.7082089028109757
-0.044765,-2.7082089028109757
-0.044752499999999994,-2.7082089028109757
-0.044739999999999995,-2.7082089028109757
-0.044727499999999996,-2.7082089028109757
-0.044715,-2.7082089028109757
-0.0447025,-2.7082089028109757
-0.044689999999999994,-2.7082089028109757
-0.044677499999999995,-2.7082089028109757
-0.044664999999999996,-2.7082089028109757
-0.0446525,-2.7082089028109757
-0.04464,-2.7082089028109757
-0.044627499999999994,-2.7082089028109757
-0.044614999999999995,-2.7082089028109757
-0.044602499999999996,-2.7082089028109757
-0.04459,-2.7082089028109757
-0.0445775,-2.7082089028109757
-0.044564999999999994,-2.7082089028109757
-0.044552499999999995,-2.7082089028109757
-0.044539999999999996,-2.7082089028109757
-0.0445275,-2.7082089028109757
-0.044515,-2.7082089028109757
-0.0445025,-2.7082089028109757
-0.044489999999999995,-2.7082089028109757
-0.044477499999999996,-2.7082089028109757
-0.044465,-2.7082089028109757
-0.0444525,-2.7082089028109757
-0.04444,-2.7082089028109757
-0.044427499999999995,-2.7082089028109757
-0.044414999999999996,-2.7082089028109757
-0.0444025,-2.7082089028109757
-0.04439,-2.7082089028109757
-0.0443775,-2.7082089028109757
-0.044364999999999995,-2.7082089028109757
-0.044352499999999996,-2.7082089028109757
-0.04434,-2.7082089028109757
-0.0443275,-2.7082089028109757
-0.044315,-2.7082089028109757
-0.044302499999999995,-2.7082089028109757
-0.044289999999999996,-2.7082089028109757
-0.0442775,-2.7082089028109757
