hardware/ESP32_IMU_setup_NEW/strømforbrug_iterationC/alle/acq0006_ble_send.csv

#Digilent WaveForms Oscilloscope Acquisition
#Device Name: Discovery2
#Serial Number: SN:210321B02ACE
#Date Time: 2026-05-13 13:45:23.213
#Sample rate: 80000Hz
#Samples: 8192
#Trigger: Source: Channel 1 Type: Edge Condition: Rising Level: 0 V Hyst.: Auto HoldOff: 100 ns
#Channel 1: Range: 20 mV/div Offset: 0 V Attenuation: 1 X

Time (s),Channel 1 (V)
-0.05118786764705883,2.707470015721101
-0.05117536764705882,2.707470015721101
-0.051162867647058824,2.707470015721101
-0.051150367647058825,2.707470015721101
-0.05113786764705883,2.707470015721101
-0.05112536764705883,2.707470015721101
-0.05111286764705882,2.707470015721101
-0.051100367647058824,2.707470015721101
-0.051087867647058825,2.707470015721101
-0.05107536764705883,2.707470015721101
-0.05106286764705883,2.707470015721101
-0.05105036764705882,2.707470015721101
-0.051037867647058824,2.707470015721101
-0.051025367647058825,2.707470015721101
-0.05101286764705883,2.707470015721101
-0.05100036764705883,2.707470015721101
-0.05098786764705882,2.707470015721101
-0.050975367647058824,2.707470015721101
-0.050962867647058825,2.707470015721101
-0.05095036764705883,2.707470015721101
-0.05093786764705883,2.707470015721101
-0.05092536764705882,2.707470015721101
-0.050912867647058824,2.707470015721101
-0.050900367647058825,2.707470015721101
-0.050887867647058826,2.707470015721101
-0.05087536764705883,2.707470015721101
-0.05086286764705882,2.707470015721101
-0.050850367647058824,2.707470015721101
-0.050837867647058825,2.707470015721101
-0.050825367647058826,2.707470015721101
-0.05081286764705883,2.707470015721101
-0.05080036764705882,2.707470015721101
-0.050787867647058824,2.707470015721101
-0.050775367647058825,2.707470015721101
-0.050762867647058826,2.707470015721101
-0.05075036764705883,2.707470015721101
-0.05073786764705883,2.707470015721101
-0.050725367647058824,2.694577116330138
-0.050712867647058825,2.6281290963921
-0.050700367647058826,2.606971517904366
-0.05068786764705883,2.460521404309585
-0.05067536764705883,2.3603534936567665
-0.050662867647058824,2.319030098172866
-0.050650367647058825,2.2456397477935397
-0.050637867647058826,2.1626623696619593
-0.05062536764705883,1.9662935943226811
-0.05061286764705883,1.7520731121344753
-0.05060036764705882,1.5646301902196122
-0.050587867647058825,1.440660003768048
-0.050575367647058826,1.3679308277164632
-0.05056286764705883,1.2224724756132943
-0.05055036764705883,1.1451150792675533
-0.05053786764705882,0.9001499908392269
-0.050525367647058825,0.6601437098689981
-0.050512867647058826,0.49914776106389974
-0.05050036764705883,0.3599705650742767
-0.05048786764705883,0.32327538988463034
-0.05047536764705882,0.12194780708727296
-0.050462867647058825,-0.09260326226490125
-0.050450367647058826,-0.20103585201453628
-0.05043786764705883,-0.46319147296411123
-0.05042536764705883,-0.5484829612427489
-0.05041286764705882,-0.8367549681381588
-0.050400367647058825,-0.9184099976142559
-0.050387867647058826,-1.210979637639948
-0.05037536764705883,-1.3957778622437467
-0.05036286764705883,-1.593799573402289
-0.05035036764705882,-1.7303320720810353
-0.050337867647058825,-1.8589304788267915
-0.050325367647058826,-2.0678615663931614
-0.05031286764705883,-2.2291881023621305
-0.05030036764705883,-2.432499208142604
-0.05028786764705882,-2.549857651316844
-0.050275367647058825,-2.5792799089013485
-0.050262867647058826,-2.6705219661297
-0.05025036764705883,-2.6913489574535627
-0.05023786764705883,-2.708208902810968
-0.05022536764705882,-2.7082089028109757
-0.050212867647058824,-2.7082089028109757
-0.050200367647058826,-2.7082089028109757
-0.05018786764705883,-2.7082089028109757
-0.05017536764705883,-2.7082089028109757
-0.05016286764705882,-2.7082089028109757
-0.050150367647058824,-2.7082089028109757
-0.050137867647058826,-2.7082089028109757
-0.05012536764705883,-2.7082089028109757
-0.05011286764705883,-2.7082089028109757
-0.05010036764705882,-2.7082089028109757
-0.050087867647058824,-2.7082089028109757
-0.050075367647058826,-2.7082089028109757
-0.05006286764705883,-2.7082089028109757
-0.05005036764705883,-2.7082089028109757
-0.05003786764705882,-2.7082089028109757
-0.050025367647058824,-2.7082089028109757
-0.050012867647058826,-2.7082089028109757
-0.05000036764705883,-2.7082089028109757
-0.04998786764705883,-2.7082089028109757
-0.04997536764705882,-2.7082089028109757
-0.049962867647058824,-2.7082089028109757
-0.049950367647058826,-2.7082089028109757
-0.04993786764705883,-2.7082089028109757
-0.04992536764705883,-2.7082089028109757
-0.04991286764705882,-2.7082089028109757
-0.049900367647058824,-2.7082089028109757
-0.049887867647058826,-2.7082089028109757
-0.04987536764705883,-2.7082089028109757
-0.04986286764705883,-2.7082089028109757
-0.04985036764705882,-2.7082089028109757
-0.049837867647058824,-2.7082089028109757
-0.049825367647058826,-2.7082089028109757
-0.04981286764705883,-2.7082089028109757
-0.04980036764705883,-2.7082089028109757
-0.04978786764705882,-2.7082089028109757
-0.049775367647058824,-2.7082089028109757
-0.049762867647058825,-2.7082089028109757
-0.04975036764705883,-2.7082089028109757
-0.04973786764705883,-2.7082089028109757
-0.04972536764705882,-2.7082089028109757
-0.049712867647058824,-2.7082089028109757
-0.049700367647058825,-2.7082089028109757
-0.04968786764705883,-2.7082089028109757
-0.04967536764705883,-2.7082089028109757
-0.04966286764705882,-2.7082089028109757
-0.049650367647058824,-2.7082089028109757
-0.049637867647058825,-2.7082089028109757
-0.04962536764705883,-2.7082089028109757
-0.04961286764705883,-2.7082089028109757
-0.04960036764705882,-2.7082089028109757
-0.049587867647058824,-2.7082089028109757
-0.049575367647058825,-2.7082089028109757
-0.04956286764705883,-2.7082089028109757
-0.04955036764705883,-2.7082089028109757
-0.04953786764705882,-2.7082089028109757
-0.049525367647058824,-2.7082089028109757
-0.049512867647058825,-2.7082089028109757
-0.04950036764705883,-2.7082089028109757
-0.04948786764705883,-2.7082089028109757
-0.04947536764705882,-2.7082089028109757
-0.049462867647058824,-2.7082089028109757
-0.049450367647058825,-2.7082089028109757
-0.04943786764705883,-2.7082089028109757
-0.04942536764705883,-2.7082089028109757
-0.04941286764705882,-2.7082089028109757
-0.049400367647058824,-2.7082089028109757
-0.049387867647058825,-2.7082089028109757
-0.049375367647058827,-2.7082089028109757
-0.04936286764705883,-2.7082089028109757
-0.04935036764705882,-2.7082089028109757
-0.049337867647058824,-2.7082089028109757
-0.049325367647058825,-2.7082089028109757
-0.049312867647058826,-2.7082089028109757
-0.04930036764705883,-2.7082089028109757
-0.04928786764705882,-2.7082089028109757
-0.049275367647058824,-2.7082089028109757
-0.049262867647058825,-2.7082089028109757
-0.049250367647058826,-2.7082089028109757
-0.04923786764705883,-2.7082089028109757
-0.04922536764705882,-2.7082089028109757
-0.049212867647058824,-2.7082089028109757
-0.049200367647058825,-2.7082089028109757
-0.049187867647058826,-2.7082089028109757
-0.04917536764705883,-2.7082089028109757
-0.04916286764705883,-2.7082089028109757
-0.049150367647058824,-2.7082089028109757
-0.049137867647058825,-2.7082089028109757
-0.049125367647058826,-2.7082089028109757
-0.04911286764705883,-2.7082089028109757
-0.04910036764705883,-2.7082089028109757
-0.049087867647058823,-2.7082089028109757
-0.049075367647058825,-2.7082089028109757
-0.049062867647058826,-2.7082089028109757
-0.04905036764705883,-2.7082089028109757
-0.04903786764705883,-2.7082089028109757
-0.04902536764705882,-2.7082089028109757
-0.049012867647058825,-2.7082089028109757
-0.049000367647058826,-2.7082089028109757
-0.04898786764705883,-2.7082089028109757
-0.04897536764705883,-2.7082089028109757
-0.04896286764705882,-2.7082089028109757
-0.048950367647058825,-2.7082089028109757
-0.048937867647058826,-2.7082089028109757
-0.04892536764705883,-2.7082089028109757
-0.04891286764705883,-2.7082089028109757
-0.04890036764705882,-2.7082089028109757
-0.048887867647058825,-2.7082089028109757
-0.048875367647058826,-2.7082089028109757
-0.04886286764705883,-2.7082089028109757
-0.04885036764705883,-2.7082089028109757
-0.04883786764705882,-2.7082089028109757
-0.048825367647058825,-2.7082089028109757
-0.048812867647058826,-2.7082089028109757
-0.04880036764705883,-2.7082089028109757
-0.04878786764705883,-2.7082089028109757
-0.04877536764705882,-2.7082089028109757
-0.048762867647058825,-2.7082089028109757
-0.048750367647058826,-2.7082089028109757
-0.04873786764705883,-2.7082089028109757
-0.04872536764705883,-2.7082089028109757
-0.04871286764705882,-2.7082089028109757
-0.048700367647058825,-2.7082089028109757
-0.048687867647058826,-2.7082089028109757
-0.04867536764705883,-2.7082089028109757
-0.04866286764705883,-2.7082089028109757
-0.04865036764705882,-2.7082089028109757
-0.048637867647058824,-2.7082089028109757
-0.048625367647058826,-2.7082089028109757
-0.04861286764705883,-2.7082089028109757
-0.04860036764705883,-2.7082089028109757
-0.04858786764705882,-2.7082089028109757
-0.048575367647058824,-2.7082089028109757
-0.048562867647058826,-2.7082089028109757
-0.04855036764705883,-2.7082089028109757
-0.04853786764705883,-2.7082089028109757
-0.04852536764705882,-2.7082089028109757
-0.048512867647058824,-2.7082089028109757
-0.048500367647058826,-2.7082089028109757
-0.04848786764705883,-2.7082089028109757
-0.04847536764705883,-2.7082089028109757
-0.04846286764705882,-2.7082089028109757
-0.048450367647058824,-2.7082089028109757
-0.048437867647058826,-2.7082089028109757
-0.04842536764705883,-2.7082089028109757
-0.04841286764705883,-2.7082089028109757
-0.04840036764705882,-2.7082089028109757
-0.048387867647058824,-2.7082089028109757
-0.048375367647058826,-2.7082089028109757
-0.04836286764705883,-2.7082089028109757
-0.04835036764705883,-2.7082089028109757
-0.04833786764705882,-2.7082089028109757
-0.048325367647058824,-2.7082089028109757
-0.048312867647058826,-2.7082089028109757
-0.04830036764705883,-2.7082089028109757
-0.04828786764705883,-2.7082089028109757
-0.04827536764705882,-2.7082089028109757
-0.048262867647058824,-2.7082089028109757
-0.048250367647058826,-2.7082089028109757
-0.04823786764705883,-2.7082089028109757
-0.04822536764705883,-2.7082089028109757
-0.04821286764705882,-2.7082089028109757
-0.048200367647058824,-2.7082089028109757
-0.048187867647058825,-2.7082089028109757
-0.04817536764705883,-2.7082089028109757
-0.04816286764705883,-2.7082089028109757
-0.04815036764705882,-2.7082089028109757
-0.048137867647058824,-2.7082089028109757
-0.048125367647058825,-2.7082089028109757
-0.04811286764705883,-2.7082089028109757
-0.04810036764705883,-2.7082089028109757
-0.04808786764705882,-2.7082089028109757
-0.048075367647058824,-2.7082089028109757
-0.048062867647058825,-2.7082089028109757
-0.04805036764705883,-2.7082089028109757
-0.04803786764705883,-2.7082089028109757
-0.04802536764705882,-2.7082089028109757
-0.048012867647058824,-2.7082089028109757
-0.048000367647058825,-2.7082089028109757
-0.04798786764705883,-2.7082089028109757
-0.04797536764705883,-2.7082089028109757
-0.04796286764705882,-2.7082089028109757
-0.047950367647058824,-2.7082089028109757
-0.047937867647058825,-2.7082089028109757
-0.04792536764705883,-2.7082089028109757
-0.04791286764705883,-2.7082089028109757
-0.04790036764705882,-2.7082089028109757
-0.047887867647058824,-2.7082089028109757
-0.047875367647058825,-2.7082089028109757
-0.04786286764705883,-2.7082089028109757
-0.04785036764705883,-2.7082089028109757
-0.04783786764705882,-2.7082089028109757
-0.047825367647058824,-2.7082089028109757
-0.047812867647058825,-2.7082089028109757
-0.047800367647058827,-2.7082089028109757
-0.04778786764705883,-2.7082089028109757
-0.04777536764705882,-2.7082089028109757
-0.047762867647058824,-2.7082089028109757
-0.047750367647058825,-2.7082089028109757
-0.047737867647058826,-2.7082089028109757
-0.04772536764705883,-2.7082089028109757
-0.04771286764705882,-2.7082089028109757
-0.047700367647058824,-2.7082089028109757
-0.047687867647058825,-2.7082089028109757
-0.047675367647058826,-2.7082089028109757
-0.04766286764705883,-2.7082089028109757
-0.04765036764705882,-2.7082089028109757
-0.047637867647058824,-2.7082089028109757
-0.047625367647058825,-2.7082089028109757
-0.047612867647058826,-2.7082089028109757
-0.04760036764705883,-2.7082089028109757
-0.04758786764705883,-2.7082089028109757
-0.047575367647058824,-2.7082089028109757
-0.047562867647058825,-2.7082089028109757
-0.047550367647058826,-2.7082089028109757
-0.04753786764705883,-2.7082089028109757
-0.04752536764705883,-2.7082089028109757
-0.047512867647058823,-2.7082089028109757
-0.047500367647058825,-2.7082089028109757
-0.047487867647058826,-2.7082089028109757
-0.04747536764705883,-2.7082089028109757
-0.04746286764705883,-2.7082089028109757
-0.04745036764705882,-2.7082089028109757
-0.047437867647058825,-2.7082089028109757
-0.047425367647058826,-2.7082089028109757
-0.04741286764705883,-2.7082089028109757
-0.04740036764705883,-2.7082089028109757
-0.04738786764705882,-2.7082089028109757
-0.047375367647058825,-2.7082089028109757
-0.047362867647058826,-2.7082089028109757
-0.04735036764705883,-2.7082089028109757
-0.04733786764705883,-2.7082089028109757
-0.04732536764705882,-2.7082089028109757
-0.047312867647058825,-2.7082089028109757
-0.047300367647058826,-2.7082089028109757
-0.04728786764705883,-2.7082089028109757
-0.04727536764705883,-2.7082089028109757
-0.04726286764705882,-2.7082089028109757
-0.047250367647058825,-2.7082089028109757
-0.047237867647058826,-2.7082089028109757
-0.04722536764705883,-2.7082089028109757
-0.04721286764705883,-2.7082089028109757
-0.04720036764705882,-2.7082089028109757
-0.047187867647058825,-2.7082089028109757
-0.047175367647058826,-2.7082089028109757
-0.04716286764705883,-2.7082089028109757
-0.04715036764705883,-2.7082089028109757
-0.04713786764705882,-2.7082089028109757
-0.047125367647058825,-2.7082089028109757
-0.047112867647058826,-2.7082089028109757
-0.04710036764705883,-2.7082089028109757
-0.04708786764705883,-2.7082089028109757
-0.04707536764705882,-2.7082089028109757
-0.047062867647058824,-2.7082089028109757
-0.047050367647058826,-2.7082089028109757
-0.04703786764705883,-2.7082089028109757
-0.04702536764705883,-2.7082089028109757
-0.04701286764705882,-2.7082089028109757
-0.047000367647058824,-2.7082089028109757
-0.046987867647058826,-2.7082089028109757
-0.04697536764705883,-2.7082089028109757
-0.04696286764705883,-2.7082089028109757
-0.04695036764705882,-2.7082089028109757
-0.046937867647058824,-2.7082089028109757
-0.046925367647058826,-2.7082089028109757
-0.04691286764705883,-2.7082089028109757
-0.04690036764705883,-2.7082089028109757
-0.04688786764705882,-2.7082089028109757
-0.046875367647058824,-2.7082089028109757
-0.046862867647058826,-2.7082089028109757
-0.04685036764705883,-2.7082089028109757
-0.04683786764705883,-2.7082089028109757
-0.04682536764705882,-2.7082089028109757
-0.046812867647058824,-2.7082089028109757
-0.046800367647058826,-2.7082089028109757
-0.04678786764705883,-2.7082089028109757
-0.04677536764705883,-2.7082089028109757
-0.04676286764705882,-2.7082089028109757
-0.046750367647058824,-2.7082089028109757
-0.046737867647058826,-2.7082089028109757
-0.04672536764705883,-2.7082089028109757
-0.04671286764705883,-2.7082089028109757
-0.04670036764705882,-2.7082089028109757
-0.046687867647058824,-2.7082089028109757
-0.046675367647058826,-2.7082089028109757
-0.04666286764705883,-2.7082089028109757
-0.04665036764705883,-2.7082089028109757
-0.04663786764705882,-2.7082089028109757
-0.046625367647058824,-2.7082089028109757
-0.046612867647058825,-2.7082089028109757
-0.04660036764705883,-2.7082089028109757
-0.04658786764705883,-2.7082089028109757
-0.04657536764705882,-2.7082089028109757
-0.046562867647058824,-2.7082089028109757
-0.046550367647058825,-2.7082089028109757
-0.04653786764705883,-2.7082089028109757
-0.04652536764705883,-2.7082089028109757
-0.04651286764705882,-2.7082089028109757
-0.046500367647058824,-2.7082089028109757
-0.046487867647058825,-2.7082089028109757
-0.04647536764705883,-2.7082089028109757
-0.04646286764705883,-2.7082089028109757
-0.04645036764705882,-2.7082089028109757
-0.046437867647058824,-2.7082089028109757
-0.046425367647058825,-2.7082089028109757
-0.04641286764705883,-2.7082089028109757
-0.04640036764705883,-2.7082089028109757
-0.04638786764705882,-2.7082089028109757
-0.046375367647058824,-2.7082089028109757
-0.046362867647058825,-2.7082089028109757
-0.04635036764705883,-2.7082089028109757
-0.04633786764705883,-2.7082089028109757
-0.04632536764705882,-2.7082089028109757
-0.046312867647058824,-2.7082089028109757
-0.046300367647058825,-2.7082089028109757
-0.04628786764705883,-2.7082089028109757
-0.04627536764705883,-2.7082089028109757
-0.04626286764705882,-2.7082089028109757
-0.046250367647058824,-2.7082089028109757
-0.046237867647058825,-2.7082089028109757
-0.046225367647058827,-2.7082089028109757
-0.04621286764705883,-2.7082089028109757
-0.04620036764705882,-2.7082089028109757
-0.046187867647058824,-2.7082089028109757
-0.046175367647058825,-2.7082089028109757
-0.046162867647058826,-2.7082089028109757
-0.04615036764705883,-2.7082089028109757
-0.04613786764705882,-2.7082089028109757
-0.046125367647058824,-2.7082089028109757
-0.046112867647058825,-2.7082089028109757
-0.046100367647058826,-2.7082089028109757
-0.04608786764705883,-2.7082089028109757
-0.04607536764705883,-2.7082089028109757
-0.046062867647058824,-2.7082089028109757
-0.046050367647058825,-2.7082089028109757
-0.046037867647058826,-2.7082089028109757
-0.04602536764705883,-2.7082089028109757
-0.04601286764705883,-2.7082089028109757
-0.046000367647058824,-2.7082089028109757
-0.045987867647058825,-2.7082089028109757
-0.045975367647058826,-2.7082089028109757
-0.04596286764705883,-2.7082089028109757
-0.04595036764705883,-2.7082089028109757
-0.045937867647058823,-2.7082089028109757
-0.045925367647058825,-2.7082089028109757
-0.045912867647058826,-2.7082089028109757
-0.04590036764705883,-2.7082089028109757
-0.04588786764705883,-2.7082089028109757
-0.04587536764705882,-2.7082089028109757
-0.045862867647058825,-2.7082089028109757
-0.045850367647058826,-2.7082089028109757
-0.04583786764705883,-2.7082089028109757
-0.04582536764705883,-2.7082089028109757
-0.04581286764705882,-2.7082089028109757
-0.045800367647058825,-2.7082089028109757
-0.045787867647058826,-2.7082089028109757
-0.04577536764705883,-2.7082089028109757
-0.04576286764705883,-2.7082089028109757
-0.04575036764705882,-2.7082089028109757
-0.045737867647058825,-2.7082089028109757
-0.045725367647058826,-2.7082089028109757
-0.04571286764705883,-2.7082089028109757
-0.04570036764705883,-2.7082089028109757
-0.04568786764705882,-2.7082089028109757
-0.045675367647058825,-2.7082089028109757
-0.045662867647058826,-2.7082089028109757
-0.04565036764705883,-2.7082089028109757
-0.04563786764705883,-2.7082089028109757
-0.04562536764705882,-2.7082089028109757
-0.045612867647058825,-2.7082089028109757
-0.045600367647058826,-2.7082089028109757
-0.04558786764705883,-2.7082089028109757
-0.04557536764705883,-2.7082089028109757
-0.04556286764705882,-2.7082089028109757
-0.045550367647058825,-2.7082089028109757
-0.045537867647058826,-2.7082089028109757
-0.04552536764705883,-2.7082089028109757
-0.04551286764705883,-2.7082089028109757
-0.04550036764705882,-2.7082089028109757
-0.045487867647058824,-2.7082089028109757
-0.045475367647058826,-2.7082089028109757
-0.04546286764705883,-2.7082089028109757
-0.04545036764705883,-2.7082089028109757
-0.04543786764705882,-2.7082089028109757
-0.045425367647058824,-2.7082089028109757
-0.045412867647058826,-2.7082089028109757
-0.04540036764705883,-2.7082089028109757
-0.04538786764705883,-2.7082089028109757
-0.04537536764705882,-2.7082089028109757
-0.045362867647058824,-2.7082089028109757
-0.045350367647058826,-2.7082089028109757
-0.04533786764705883,-2.7082089028109757
-0.04532536764705883,-2.7082089028109757
-0.04531286764705882,-2.7082089028109757
-0.045300367647058824,-2.7082089028109757
-0.045287867647058826,-2.7082089028109757
-0.04527536764705883,-2.7082089028109757
-0.04526286764705883,-2.7082089028109757
-0.04525036764705882,-2.7082089028109757
