hardware/ESP32_IMU_setup_NEW/strømforbrug_iterationC/alle/acq0005_ble_send.csv

#Digilent WaveForms Oscilloscope Acquisition
#Device Name: Discovery2
#Serial Number: SN:210321B02ACE
#Date Time: 2026-05-13 13:45:21.552
#Sample rate: 80000Hz
#Samples: 8192
#Trigger: Source: Channel 1 Type: Edge Condition: Rising Level: 0 V Hyst.: Auto HoldOff: 100 ns
#Channel 1: Range: 20 mV/div Offset: 0 V Attenuation: 1 X

Time (s),Channel 1 (V)
-0.05119846153846154,2.707470015721101
-0.051185961538461534,2.707470015721101
-0.051173461538461536,2.707470015721101
-0.05116096153846154,2.707470015721101
-0.05114846153846154,2.707470015721101
-0.05113596153846154,2.707470015721101
-0.051123461538461534,2.707470015721101
-0.051110961538461536,2.707470015721101
-0.05109846153846154,2.707470015721101
-0.05108596153846154,2.707470015721101
-0.05107346153846154,2.707470015721101
-0.051060961538461534,2.707470015721101
-0.051048461538461536,2.707470015721101
-0.05103596153846154,2.707470015721101
-0.05102346153846154,2.707470015721101
-0.05101096153846154,2.707470015721101
-0.050998461538461534,2.707470015721101
-0.050985961538461536,2.707470015721101
-0.05097346153846154,2.707470015721101
-0.05096096153846154,2.707470015721101
-0.05094846153846154,2.707470015721101
-0.050935961538461534,2.707470015721101
-0.050923461538461536,2.707470015721101
-0.05091096153846154,2.707470015721101
-0.05089846153846154,2.707470015721101
-0.05088596153846154,2.707470015721101
-0.050873461538461534,2.707470015721101
-0.050860961538461535,2.707470015721101
-0.05084846153846154,2.707470015721101
-0.05083596153846154,2.707470015721101
-0.05082346153846154,2.707470015721101
-0.050810961538461534,2.707470015721101
-0.050798461538461535,2.707470015721101
-0.05078596153846154,2.707470015721101
-0.05077346153846154,2.707470015721101
-0.05076096153846154,2.707470015721101
-0.05074846153846154,2.707470015721101
-0.050735961538461535,2.707470015721101
-0.05072346153846154,2.707470015721101
-0.05071096153846154,2.707470015721101
-0.05069846153846154,2.707470015721101
-0.05068596153846154,2.707470015721101
-0.050673461538461535,2.707470015721101
-0.05066096153846154,2.707470015721101
-0.05064846153846154,2.707470015721101
-0.05063596153846154,2.707470015721101
-0.05062346153846154,2.707470015721101
-0.050610961538461535,2.707470015721101
-0.05059846153846154,2.707470015721101
-0.05058596153846154,2.707470015721101
-0.05057346153846154,2.707470015721101
-0.05056096153846154,2.707470015721101
-0.050548461538461535,2.707470015721101
-0.05053596153846154,2.707470015721101
-0.05052346153846154,2.707470015721101
-0.05051096153846154,2.707470015721101
-0.05049846153846154,2.688626547380472
-0.050485961538461535,2.609946802379204
-0.050473461538461536,2.4565543583431344
-0.05046096153846154,2.217539838864518
-0.05044846153846154,2.1537365162374464
-0.05043596153846154,1.9471195388182663
-0.050423461538461535,1.716700285600198
-0.050410961538461536,1.6393428892544217
-0.05039846153846154,1.440660003768048
-0.05038596153846154,1.2515641460339282
-0.05037346153846154,1.0637906369553773
-0.050360961538461535,0.9252746152934106
-0.050348461538461536,0.7470881339670286
-0.05033596153846154,0.5484052484806546
-0.05032346153846154,0.3940210429529731
-0.05031096153846154,0.21847925893763764
-0.050298461538461535,-0.0007000307088081335
-0.050285961538461536,-0.15078660310616882
-0.05027346153846154,-0.3312871945796466
-0.05026096153846154,-0.5557558788479461
-0.05024846153846154,-0.723363570930385
-0.050235961538461535,-0.8863430427187846
-0.050223461538461536,-1.0612236524064582
-0.05021096153846154,-1.3078416766541037
-0.05019846153846154,-1.4761105430643604
-0.05018596153846154,-1.7177697598538335
-0.050173461538461535,-1.8182682576706783
-0.050160961538461536,-2.056621602821553
-0.05014846153846154,-2.238775130114385
-0.05013596153846154,-2.417292198604638
-0.05012346153846154,-2.5799410832290164
-0.050110961538461535,-2.7082089028109757
-0.050098461538461536,-2.7072171413193633
-0.05008596153846154,-2.7082089028109757
-0.05007346153846154,-2.7082089028109757
-0.05006096153846154,-2.7082089028109757
-0.050048461538461535,-2.7082089028109757
-0.050035961538461536,-2.7082089028109757
-0.05002346153846154,-2.7082089028109757
-0.05001096153846154,-2.7082089028109757
-0.04999846153846154,-2.7082089028109757
-0.049985961538461535,-2.7082089028109757
-0.049973461538461536,-2.7082089028109757
-0.04996096153846154,-2.7082089028109757
-0.04994846153846154,-2.7082089028109757
-0.04993596153846154,-2.7082089028109757
-0.049923461538461535,-2.7082089028109757
-0.049910961538461536,-2.7082089028109757
-0.04989846153846154,-2.7082089028109757
-0.04988596153846154,-2.7082089028109757
-0.04987346153846154,-2.7082089028109757
-0.049860961538461535,-2.7082089028109757
-0.049848461538461536,-2.7082089028109757
-0.04983596153846154,-2.7082089028109757
-0.04982346153846154,-2.7082089028109757
-0.04981096153846154,-2.7082089028109757
-0.049798461538461535,-2.7082089028109757
-0.049785961538461536,-2.7082089028109757
-0.04977346153846154,-2.7082089028109757
-0.04976096153846154,-2.7082089028109757
-0.04974846153846154,-2.7082089028109757
-0.049735961538461534,-2.7082089028109757
-0.049723461538461536,-2.7082089028109757
-0.04971096153846154,-2.7082089028109757
-0.04969846153846154,-2.7082089028109757
-0.04968596153846154,-2.7082089028109757
-0.049673461538461534,-2.7082089028109757
-0.049660961538461536,-2.7082089028109757
-0.04964846153846154,-2.7082089028109757
-0.04963596153846154,-2.7082089028109757
-0.04962346153846154,-2.7082089028109757
-0.049610961538461534,-2.7082089028109757
-0.049598461538461536,-2.7082089028109757
-0.04958596153846154,-2.7082089028109757
-0.04957346153846154,-2.7082089028109757
-0.04956096153846154,-2.7082089028109757
-0.049548461538461534,-2.7082089028109757
-0.049535961538461536,-2.7082089028109757
-0.04952346153846154,-2.7082089028109757
-0.04951096153846154,-2.7082089028109757
-0.04949846153846154,-2.7082089028109757
-0.049485961538461534,-2.7082089028109757
-0.049473461538461536,-2.7082089028109757
-0.04946096153846154,-2.7082089028109757
-0.04944846153846154,-2.7082089028109757
-0.04943596153846154,-2.7082089028109757
-0.049423461538461534,-2.7082089028109757
-0.049410961538461536,-2.7082089028109757
-0.04939846153846154,-2.7082089028109757
-0.04938596153846154,-2.7082089028109757
-0.04937346153846154,-2.7082089028109757
-0.049360961538461534,-2.7082089028109757
-0.049348461538461535,-2.7082089028109757
-0.04933596153846154,-2.7082089028109757
-0.04932346153846154,-2.7082089028109757
-0.04931096153846154,-2.7082089028109757
-0.049298461538461534,-2.7082089028109757
-0.049285961538461535,-2.7082089028109757
-0.04927346153846154,-2.7082089028109757
-0.04926096153846154,-2.7082089028109757
-0.04924846153846154,-2.7082089028109757
-0.049235961538461534,-2.7082089028109757
-0.049223461538461535,-2.7082089028109757
-0.04921096153846154,-2.7082089028109757
-0.04919846153846154,-2.7082089028109757
-0.04918596153846154,-2.7082089028109757
-0.04917346153846154,-2.7082089028109757
-0.049160961538461535,-2.7082089028109757
-0.04914846153846154,-2.7082089028109757
-0.04913596153846154,-2.7082089028109757
-0.04912346153846154,-2.7082089028109757
-0.04911096153846154,-2.7082089028109757
-0.049098461538461535,-2.7082089028109757
-0.04908596153846154,-2.7082089028109757
-0.04907346153846154,-2.7082089028109757
-0.04906096153846154,-2.7082089028109757
-0.04904846153846154,-2.7082089028109757
-0.049035961538461535,-2.7082089028109757
-0.04902346153846154,-2.7082089028109757
-0.04901096153846154,-2.7082089028109757
-0.04899846153846154,-2.7082089028109757
-0.04898596153846154,-2.7082089028109757
-0.048973461538461535,-2.7082089028109757
-0.04896096153846154,-2.7082089028109757
-0.04894846153846154,-2.7082089028109757
-0.04893596153846154,-2.7082089028109757
-0.04892346153846154,-2.7082089028109757
-0.048910961538461535,-2.7082089028109757
-0.048898461538461536,-2.7082089028109757
-0.04888596153846154,-2.7082089028109757
-0.04887346153846154,-2.7082089028109757
-0.04886096153846154,-2.7082089028109757
-0.048848461538461535,-2.7082089028109757
-0.048835961538461536,-2.7082089028109757
-0.04882346153846154,-2.7082089028109757
-0.04881096153846154,-2.7082089028109757
-0.04879846153846154,-2.7082089028109757
-0.048785961538461535,-2.7082089028109757
-0.048773461538461536,-2.7082089028109757
-0.04876096153846154,-2.7082089028109757
-0.04874846153846154,-2.7082089028109757
-0.04873596153846154,-2.7082089028109757
-0.048723461538461535,-2.7082089028109757
-0.048710961538461536,-2.7082089028109757
-0.04869846153846154,-2.7082089028109757
-0.04868596153846154,-2.7082089028109757
-0.04867346153846154,-2.7082089028109757
-0.048660961538461535,-2.7082089028109757
-0.048648461538461536,-2.7082089028109757
-0.04863596153846154,-2.7082089028109757
-0.04862346153846154,-2.7082089028109757
-0.04861096153846154,-2.7082089028109757
-0.048598461538461535,-2.7082089028109757
-0.048585961538461536,-2.7082089028109757
-0.04857346153846154,-2.7082089028109757
-0.04856096153846154,-2.7082089028109757
-0.04854846153846154,-2.7082089028109757
-0.048535961538461535,-2.7082089028109757
-0.048523461538461536,-2.7082089028109757
-0.04851096153846154,-2.7082089028109757
-0.04849846153846154,-2.7082089028109757
-0.04848596153846154,-2.7082089028109757
-0.048473461538461535,-2.7082089028109757
-0.048460961538461536,-2.7082089028109757
-0.04844846153846154,-2.7082089028109757
-0.04843596153846154,-2.7082089028109757
-0.04842346153846154,-2.7082089028109757
-0.048410961538461535,-2.7082089028109757
-0.048398461538461536,-2.7082089028109757
-0.04838596153846154,-2.7082089028109757
-0.04837346153846154,-2.7082089028109757
-0.04836096153846154,-2.7082089028109757
-0.048348461538461535,-2.7082089028109757
-0.048335961538461536,-2.7082089028109757
-0.04832346153846154,-2.7082089028109757
-0.04831096153846154,-2.7082089028109757
-0.04829846153846154,-2.7082089028109757
-0.048285961538461535,-2.7082089028109757
-0.048273461538461536,-2.7082089028109757
-0.04826096153846154,-2.7082089028109757
-0.04824846153846154,-2.7082089028109757
-0.04823596153846154,-2.7082089028109757
-0.048223461538461534,-2.7082089028109757
-0.048210961538461536,-2.7082089028109757
-0.04819846153846154,-2.7082089028109757
-0.04818596153846154,-2.7082089028109757
-0.04817346153846154,-2.7082089028109757
-0.048160961538461534,-2.7082089028109757
-0.048148461538461536,-2.7082089028109757
-0.04813596153846154,-2.7082089028109757
-0.04812346153846154,-2.7082089028109757
-0.04811096153846154,-2.7082089028109757
-0.048098461538461534,-2.7082089028109757
-0.048085961538461536,-2.7082089028109757
-0.04807346153846154,-2.7082089028109757
-0.04806096153846154,-2.7082089028109757
-0.04804846153846154,-2.7082089028109757
-0.048035961538461534,-2.7082089028109757
-0.048023461538461536,-2.7082089028109757
-0.04801096153846154,-2.7082089028109757
-0.04799846153846154,-2.7082089028109757
-0.04798596153846154,-2.7082089028109757
-0.047973461538461534,-2.7082089028109757
-0.047960961538461536,-2.7082089028109757
-0.04794846153846154,-2.7082089028109757
-0.04793596153846154,-2.7082089028109757
-0.04792346153846154,-2.7082089028109757
-0.047910961538461534,-2.7082089028109757
-0.047898461538461536,-2.7082089028109757
-0.04788596153846154,-2.7082089028109757
-0.04787346153846154,-2.7082089028109757
-0.04786096153846154,-2.7082089028109757
-0.047848461538461534,-2.7082089028109757
-0.047835961538461536,-2.7082089028109757
-0.04782346153846154,-2.7082089028109757
-0.04781096153846154,-2.7082089028109757
-0.04779846153846154,-2.7082089028109757
-0.047785961538461534,-2.7082089028109757
-0.047773461538461535,-2.7082089028109757
-0.04776096153846154,-2.7082089028109757
-0.04774846153846154,-2.7082089028109757
-0.04773596153846154,-2.7082089028109757
-0.047723461538461534,-2.7082089028109757
-0.047710961538461535,-2.7082089028109757
-0.04769846153846154,-2.7082089028109757
-0.04768596153846154,-2.7082089028109757
-0.04767346153846154,-2.7082089028109757
-0.047660961538461534,-2.7082089028109757
-0.047648461538461535,-2.7082089028109757
-0.04763596153846154,-2.7082089028109757
-0.04762346153846154,-2.7082089028109757
-0.04761096153846154,-2.7082089028109757
-0.04759846153846154,-2.7082089028109757
-0.047585961538461535,-2.7082089028109757
-0.04757346153846154,-2.7082089028109757
-0.04756096153846154,-2.7082089028109757
-0.04754846153846154,-2.7082089028109757
-0.04753596153846154,-2.7082089028109757
-0.047523461538461535,-2.7082089028109757
-0.04751096153846154,-2.7082089028109757
-0.04749846153846154,-2.7082089028109757
-0.04748596153846154,-2.7082089028109757
-0.04747346153846154,-2.7082089028109757
-0.047460961538461535,-2.7082089028109757
-0.04744846153846154,-2.7082089028109757
-0.04743596153846154,-2.7082089028109757
-0.04742346153846154,-2.7082089028109757
-0.04741096153846154,-2.7082089028109757
-0.047398461538461535,-2.7082089028109757
-0.047385961538461537,-2.7082089028109757
-0.04737346153846154,-2.7082089028109757
-0.04736096153846154,-2.7082089028109757
-0.04734846153846154,-2.7082089028109757
-0.047335961538461535,-2.7082089028109757
-0.047323461538461536,-2.7082089028109757
-0.04731096153846154,-2.7082089028109757
-0.04729846153846154,-2.7082089028109757
-0.04728596153846154,-2.7082089028109757
-0.047273461538461535,-2.7082089028109757
-0.047260961538461536,-2.7082089028109757
-0.04724846153846154,-2.7082089028109757
-0.04723596153846154,-2.7082089028109757
-0.04722346153846154,-2.7082089028109757
-0.047210961538461535,-2.7082089028109757
-0.047198461538461536,-2.7082089028109757
-0.04718596153846154,-2.7082089028109757
-0.04717346153846154,-2.7082089028109757
-0.04716096153846154,-2.7082089028109757
-0.047148461538461535,-2.7082089028109757
-0.047135961538461536,-2.7082089028109757
-0.04712346153846154,-2.7082089028109757
-0.04711096153846154,-2.7082089028109757
-0.04709846153846154,-2.7082089028109757
-0.047085961538461535,-2.7082089028109757
-0.047073461538461536,-2.7082089028109757
-0.04706096153846154,-2.7082089028109757
-0.04704846153846154,-2.7082089028109757
-0.04703596153846154,-2.7082089028109757
-0.047023461538461535,-2.7082089028109757
-0.047010961538461536,-2.7082089028109757
-0.04699846153846154,-2.7082089028109757
-0.04698596153846154,-2.7082089028109757
-0.04697346153846154,-2.7082089028109757
-0.046960961538461535,-2.7082089028109757
-0.046948461538461536,-2.7082089028109757
-0.04693596153846154,-2.7082089028109757
-0.04692346153846154,-2.7082089028109757
-0.04691096153846154,-2.7082089028109757
-0.046898461538461535,-2.7082089028109757
-0.046885961538461536,-2.7082089028109757
-0.04687346153846154,-2.7082089028109757
-0.04686096153846154,-2.7082089028109757
-0.04684846153846154,-2.7082089028109757
-0.046835961538461535,-2.7082089028109757
-0.046823461538461536,-2.7082089028109757
-0.04681096153846154,-2.7082089028109757
-0.04679846153846154,-2.7082089028109757
-0.04678596153846154,-2.7082089028109757
-0.046773461538461535,-2.7082089028109757
-0.046760961538461536,-2.7082089028109757
-0.04674846153846154,-2.7082089028109757
-0.04673596153846154,-2.7082089028109757
-0.04672346153846154,-2.7082089028109757
-0.046710961538461535,-2.7082089028109757
-0.046698461538461536,-2.7082089028109757
-0.04668596153846154,-2.7082089028109757
-0.04667346153846154,-2.7082089028109757
-0.04666096153846154,-2.7082089028109757
-0.046648461538461534,-2.7082089028109757
-0.046635961538461536,-2.7082089028109757
-0.04662346153846154,-2.7082089028109757
-0.04661096153846154,-2.7082089028109757
-0.04659846153846154,-2.7082089028109757
-0.046585961538461534,-2.7082089028109757
-0.046573461538461536,-2.7082089028109757
-0.04656096153846154,-2.7082089028109757
-0.04654846153846154,-2.7082089028109757
-0.04653596153846154,-2.7082089028109757
-0.046523461538461534,-2.7082089028109757
-0.046510961538461536,-2.7082089028109757
-0.04649846153846154,-2.7082089028109757
-0.04648596153846154,-2.7082089028109757
-0.04647346153846154,-2.7082089028109757
-0.046460961538461534,-2.7082089028109757
-0.046448461538461536,-2.7082089028109757
-0.04643596153846154,-2.7082089028109757
-0.04642346153846154,-2.7082089028109757
-0.04641096153846154,-2.7082089028109757
-0.046398461538461534,-2.7082089028109757
-0.046385961538461536,-2.7082089028109757
-0.04637346153846154,-2.7082089028109757
-0.04636096153846154,-2.7082089028109757
-0.04634846153846154,-2.7082089028109757
-0.046335961538461534,-2.7082089028109757
-0.046323461538461536,-2.7082089028109757
-0.04631096153846154,-2.7082089028109757
-0.04629846153846154,-2.7082089028109757
-0.04628596153846154,-2.7082089028109757
-0.046273461538461534,-2.7082089028109757
-0.046260961538461536,-2.7082089028109757
-0.04624846153846154,-2.7082089028109757
-0.04623596153846154,-2.7082089028109757
-0.04622346153846154,-2.7082089028109757
-0.046210961538461534,-2.7082089028109757
-0.046198461538461535,-2.7082089028109757
-0.04618596153846154,-2.7082089028109757
-0.04617346153846154,-2.7082089028109757
-0.04616096153846154,-2.7082089028109757
-0.046148461538461534,-2.7082089028109757
-0.046135961538461535,-2.7082089028109757
-0.04612346153846154,-2.7082089028109757
-0.04611096153846154,-2.7082089028109757
-0.04609846153846154,-2.7082089028109757
-0.04608596153846154,-2.7082089028109757
-0.046073461538461535,-2.7082089028109757
-0.04606096153846154,-2.7082089028109757
-0.04604846153846154,-2.7082089028109757
-0.04603596153846154,-2.7082089028109757
-0.04602346153846154,-2.7082089028109757
-0.046010961538461535,-2.7082089028109757
-0.04599846153846154,-2.7082089028109757
-0.04598596153846154,-2.7082089028109757
-0.04597346153846154,-2.7082089028109757
-0.04596096153846154,-2.7082089028109757
-0.045948461538461535,-2.7082089028109757
-0.04593596153846154,-2.7082089028109757
-0.04592346153846154,-2.7082089028109757
-0.04591096153846154,-2.7082089028109757
-0.04589846153846154,-2.7082089028109757
-0.045885961538461535,-2.7082089028109757
-0.04587346153846154,-2.7082089028109757
-0.04586096153846154,-2.7082089028109757
-0.04584846153846154,-2.7082089028109757
-0.04583596153846154,-2.7082089028109757
-0.045823461538461535,-2.7082089028109757
-0.045810961538461537,-2.7082089028109757
-0.04579846153846154,-2.7082089028109757
-0.04578596153846154,-2.7082089028109757
-0.04577346153846154,-2.7082089028109757
-0.045760961538461535,-2.7082089028109757
-0.045748461538461536,-2.7082089028109757
-0.04573596153846154,-2.7082089028109757
-0.04572346153846154,-2.7082089028109757
-0.04571096153846154,-2.7082089028109757
-0.045698461538461535,-2.7082089028109757
-0.045685961538461536,-2.7082089028109757
-0.04567346153846154,-2.7082089028109757
-0.04566096153846154,-2.7082089028109757
-0.04564846153846154,-2.7082089028109757
-0.045635961538461535,-2.7082089028109757
-0.045623461538461536,-2.7082089028109757
-0.04561096153846154,-2.7082089028109757
-0.04559846153846154,-2.7082089028109757
-0.04558596153846154,-2.7082089028109757
-0.045573461538461535,-2.7082089028109757
-0.045560961538461536,-2.7082089028109757
-0.04554846153846154,-2.7082089028109757
-0.04553596153846154,-2.7082089028109757
-0.04552346153846154,-2.7082089028109757
-0.045510961538461535,-2.7082089028109757
-0.045498461538461536,-2.7082089028109757
-0.04548596153846154,-2.7082089028109757
-0.04547346153846154,-2.7082089028109757
-0.04546096153846154,-2.7082089028109757
-0.045448461538461535,-2.7082089028109757
-0.045435961538461536,-2.7082089028109757
-0.04542346153846154,-2.7082089028109757
-0.04541096153846154,-2.7082089028109757
-0.04539846153846154,-2.7082089028109757
-0.045385961538461535,-2.7082089028109757
-0.045373461538461536,-2.7082089028109757
-0.04536096153846154,-2.7082089028109757
-0.04534846153846154,-2.7082089028109757
-0.04533596153846154,-2.7082089028109757
-0.045323461538461535,-2.7082089028109757
-0.045310961538461536,-2.7082089028109757
-0.04529846153846154,-2.7082089028109757
-0.04528596153846154,-2.7082089028109757
-0.04527346153846154,-2.7082089028109757
-0.045260961538461535,-2.7082089028109757
-0.045248461538461536,-2.7082089028109757
-0.04523596153846154,-2.7082089028109757
