hardware/ESP32_IMU_setup_NEW/strømforbrug_iterationC/udvalgte/ac3q0016_connection.csv

#Digilent WaveForms Oscilloscope Acquisition
#Device Name: Discovery2
#Serial Number: SN:210321B02ACE
#Date Time: 2026-05-13 14:18:47.440
#Sample rate: 80000Hz
#Samples: 8192
#Trigger: Source: Channel 1 Type: Edge Condition: Rising Level: 0 V Hyst.: Auto HoldOff: 100 ns
#Channel 1: Range: 5 mV/div Offset: 0 V Attenuation: 1 X

Time (s),Channel 1 (V)
-0.05119642857142857,-0.004667076675258196
-0.05118392857142857,-0.0023529665281626267
-0.05117142857142857,-0.0030141408559040033
-0.05115892857142857,-0.0013612050365498106
-0.05114642857142857,-0.0036753151836456804
-0.05113392857142857,-0.003344728019774842
-0.05112142857142857,-0.0026835536920327137
-0.05110892857142857,-0.0016917922004206492
-0.05109642857142857,-0.0026835536920331647
-0.05108392857142857,-0.0030141408559040033
-0.05107142857142857,-0.003344728019774842
-0.05105892857142857,-0.0023529665281630777
-0.05104642857142857,-0.004005902347516519
-0.05103392857142857,-0.002352966528162326
-0.05102142857142857,-0.002352966528162326
-0.05100892857142857,-0.001030617872678972
-0.05099642857142857,-0.0016917922004211002
-0.05098392857142857,-0.0026835536920331647
-0.05097142857142857,-0.0036753151836456804
-0.05095892857142857,-0.004336489511387358
-0.05094642857142857,-0.0026835536920331647
-0.05093392857142857,-0.003675315183645831
-0.05092142857142857,-0.004005902347516519
-0.05090892857142857,-0.0030141408559040033
-0.05089642857142857,-0.002352966528162326
-0.05088392857142857,-0.0030141408559040033
-0.05087142857142857,-0.0020223793642919386
-0.05085892857142857,-0.0030141408559040033
-0.05084642857142857,-0.0036753151836456804
-0.05083392857142857,-0.004005902347516519
-0.05082142857142857,-0.0036753151836456804
-0.05080892857142857,-0.0040059023475160676
-0.05079642857142857,-0.0030141408559040033
-0.05078392857142857,-0.0020223793642914875
-0.05077142857142857,-0.0030141408559040033
-0.05075892857142857,-0.0016917922004206492
-0.050746428571428574,-0.0036753151836447784
-0.05073392857142857,-0.003344728019774842
-0.05072142857142857,-0.004336489511387358
-0.05070892857142857,-0.004336489511387358
-0.05069642857142857,-0.0020223793642914875
-0.050683928571428574,-0.0040059023475156165
-0.05067142857142857,-0.002352966528162326
-0.05065892857142857,-0.0026835536920331647
-0.05064642857142857,-0.004667076675258196
-0.05063392857142857,-0.0016917922004206492
-0.050621428571428574,-0.0026835536920327137
-0.05060892857142857,-0.0030141408559040033
-0.05059642857142857,-0.004667076675258196
-0.05058392857142857,-0.0030141408559040033
-0.05057142857142857,-0.0016917922004206492
-0.050558928571428574,-0.0016917922004206492
-0.05054642857142857,-0.0016917922004206492
-0.05053392857142857,-0.0036753151836456804
-0.05052142857142857,-0.0030141408559040033
-0.05050892857142857,-0.0026835536920331647
-0.050496428571428574,-0.003014140855903853
-0.05048392857142857,-0.0026835536920331647
-0.05047142857142857,-0.0026835536920331647
-0.05045892857142857,-0.004005902347516519
-0.05044642857142857,-0.0026835536920331647
-0.050433928571428574,-0.0033447280197745413
-0.05042142857142857,-0.0016917922004206492
-0.05040892857142857,-0.0030141408559040033
-0.05039642857142857,-0.004336489511387358
-0.05038392857142857,-0.0030141408559040033
-0.050371428571428574,-0.0030141408559040033
-0.05035892857142857,-0.0026835536920331647
-0.05034642857142857,-0.004005902347516519
-0.05033392857142857,-0.0020223793642914875
-0.05032142857142857,-0.003344728019774842
-0.050308928571428574,-0.00367531518364553
-0.05029642857142857,-0.0030141408559040033
-0.05028392857142857,-0.0026835536920331647
-0.05027142857142857,-0.0020223793642914875
-0.05025892857142857,-0.004005902347516519
-0.050246428571428574,-0.0030141408559044543
-0.05023392857142857,-0.0036753151836456804
-0.05022142857142857,-0.0016917922004206492
-0.05020892857142857,-0.0013612050365498106
-0.05019642857142857,-0.0016917922004206492
-0.050183928571428574,-0.0026835536920327137
-0.05017142857142857,-0.0007000307088081335
-0.05015892857142857,-0.0036753151836456804
-0.05014642857142857,-0.004667076675258196
-0.05013392857142857,-0.0026835536920331647
-0.050121428571428574,-0.0007000307088090357
-0.05010892857142857,-0.003344728019774842
-0.05009642857142857,-0.0036753151836456804
-0.05008392857142857,-0.0030141408559040033
-0.05007142857142857,-0.002352966528162326
-0.050058928571428574,-0.0013612050365498106
-0.05004642857142857,-0.0036753151836456804
-0.05003392857142857,-0.0026835536920331647
-0.05002142857142857,-0.0026835536920331647
-0.05000892857142857,-0.0016917922004206492
-0.049996428571428574,-0.0030141408559040033
-0.04998392857142857,-0.0026835536920331647
-0.04997142857142857,-0.004005902347516519
-0.04995892857142857,-0.002352966528162326
-0.04994642857142857,-0.0020223793642914875
-0.049933928571428574,-0.004336489511387358
-0.04992142857142857,-0.0026835536920331647
-0.04990892857142857,-0.002352966528162326
-0.04989642857142857,-0.0020223793642914875
-0.04988392857142857,-0.0020223793642914875
-0.049871428571428573,-0.0020223793642914875
-0.04985892857142857,-0.0026835536920339163
-0.04984642857142857,-0.004336489511387358
-0.04983392857142857,-0.0026835536920331647
-0.04982142857142857,-0.0020223793642914875
-0.04980892857142857,-0.003344728019774842
-0.04979642857142857,-0.0026835536920336157
-0.04978392857142857,-0.0036753151836456804
-0.04977142857142857,-0.0020223793642914875
-0.04975892857142857,-0.004336489511387358
-0.04974642857142857,-0.003344728019774842
-0.04973392857142857,-0.0033447280197745413
-0.04972142857142857,-0.0026835536920331647
-0.04970892857142857,-0.002352966528162326
-0.04969642857142857,-0.0016917922004206492
-0.04968392857142857,-0.0026835536920331647
-0.04967142857142857,-0.0013612050365501113
-0.04965892857142857,-0.0020223793642914875
-0.04964642857142857,-0.003344728019774842
-0.04963392857142857,-0.004005902347516519
-0.04962142857142857,-0.0020223793642914875
-0.04960892857142857,-0.0016917922004211002
-0.04959642857142857,-0.0026835536920331647
-0.04958392857142857,-0.003344728019774842
-0.04957142857142857,-0.003344728019774842
-0.04955892857142857,-0.003344728019774842
-0.04954642857142857,-0.0030141408559032517
-0.04953392857142857,-0.0013612050365498106
-0.04952142857142857,-0.0030141408559040033
-0.04950892857142857,-0.0036753151836456804
-0.04949642857142857,-0.0020223793642914875
-0.04948392857142857,-0.0023529665281617246
-0.04947142857142857,-0.001030617872678972
-0.04945892857142857,-0.002352966528162326
-0.04944642857142857,-0.0030141408559040033
-0.04943392857142857,-0.0020223793642914875
-0.04942142857142857,-0.002683553692032864
-0.04940892857142857,-0.0020223793642914875
-0.04939642857142857,-0.004005902347516519
-0.04938392857142857,-0.000369443544937295
-0.04937142857142857,-0.0013612050365498106
-0.04935892857142857,-0.0023529665281620256
-0.04934642857142857,-0.0016917922004206492
-0.04933392857142857,-0.003344728019774842
-0.04932142857142857,-0.0020223793642914875
-0.04930892857142857,-0.0020223793642914875
-0.04929642857142857,-0.0030141408559040033
-0.04928392857142857,-0.0030141408559040033
-0.04927142857142857,-0.002352966528162326
-0.04925892857142857,-0.001030617872678972
-0.04924642857142857,-0.0030141408559040033
-0.04923392857142857,-0.0020223793642919386
-0.04922142857142857,-0.0030141408559040033
-0.04920892857142857,-0.004005902347516519
-0.04919642857142857,-0.002352966528162326
-0.04918392857142857,-0.002352966528162326
-0.049171428571428574,-0.003344728019774391
-0.04915892857142857,-0.002352966528162326
-0.04914642857142857,-0.0007000307088081335
-0.04913392857142857,-0.003344728019774842
-0.04912142857142857,-0.0026835536920331647
-0.049108928571428574,-0.003014140855903853
-0.04909642857142857,-0.0030141408559040033
-0.04908392857142857,-0.003344728019774842
-0.04907142857142857,-0.0030141408559040033
-0.04905892857142857,-0.0020223793642914875
-0.049046428571428574,-0.0023529665281621756
-0.04903392857142857,-0.0030141408559040033
-0.04902142857142857,-0.0030141408559040033
-0.04900892857142857,-0.0016917922004206492
-0.04899642857142857,-0.002352966528162326
-0.048983928571428574,-0.0013612050365502616
-0.04897142857142857,-0.001030617872678972
-0.04895892857142857,-0.0026835536920331647
-0.04894642857142857,-0.0016917922004206492
-0.04893392857142857,-0.0020223793642914875
-0.048921428571428574,-0.0020223793642914875
-0.04890892857142857,-0.0013612050365498106
-0.04889642857142857,-0.0020223793642914875
-0.04888392857142857,-0.002352966528162326
-0.04887142857142857,-0.0026835536920331647
-0.048858928571428574,-0.0023529665281624766
-0.04884642857142857,-0.003344728019774842
-0.04883392857142857,-0.0026835536920331647
-0.04882142857142857,-0.0016917922004206492
-0.04880892857142857,-0.0030141408559040033
-0.048796428571428574,-0.002683553692033315
-0.04878392857142857,-0.0030141408559040033
-0.04877142857142857,-0.003344728019774842
-0.04875892857142857,-0.0026835536920331647
-0.04874642857142857,-0.0020223793642914875
-0.048733928571428574,-0.0023529665281621756
-0.04872142857142857,-0.0016917922004206492
-0.04870892857142857,-0.0030141408559040033
-0.04869642857142857,-0.0016917922004206492
-0.04868392857142857,-0.0013612050365498106
-0.048671428571428574,-0.0030141408559032517
-0.04865892857142857,-0.0020223793642914875
-0.04864642857142857,-0.0026835536920331647
-0.04863392857142857,-0.0020223793642914875
-0.04862142857142857,-0.0020223793642914875
-0.048608928571428574,-0.0013612050365501113
-0.04859642857142857,-0.0026835536920331647
-0.04858392857142857,-0.0016917922004206492
-0.04857142857142857,-0.000369443544937295
-0.04855892857142857,-0.0030141408559040033
-0.048546428571428574,-0.0033447280197746914
-0.04853392857142857,-0.0026835536920331647
-0.04852142857142857,-0.0013612050365498106
-0.04850892857142857,-0.0030141408559040033
-0.04849642857142857,-0.0026835536920331647
-0.048483928571428574,-0.0020223793642914875
-0.04847142857142857,-0.0026835536920331647
-0.04845892857142857,-0.0030141408559040033
-0.04844642857142857,-0.0020223793642914875
-0.04843392857142857,-0.0020223793642914875
-0.048421428571428574,-0.0036753151836456804
-0.04840892857142857,-0.0020223793642914875
-0.04839642857142857,-0.0026835536920331647
-0.04838392857142857,-0.001030617872678972
-0.04837142857142857,-0.0026835536920331647
-0.048358928571428574,-0.001030617872678972
-0.04834642857142857,-0.000369443544937746
-0.04833392857142857,-0.0013612050365498106
-0.04832142857142857,-0.0016917922004206492
-0.04830892857142857,-0.0030141408559040033
-0.048296428571428573,-0.0030141408559040033
-0.04828392857142857,-0.00169179220042095
-0.04827142857142857,-0.002352966528162326
-0.04825892857142857,-0.0020223793642914875
-0.04824642857142857,-0.0036753151836456804
-0.04823392857142857,-0.0026835536920331647
-0.04822142857142857,-3.8856381067358477e-05
-0.04820892857142857,-0.0020223793642914875
-0.04819642857142857,-0.0020223793642914875
-0.04818392857142857,-0.0016917922004206492
-0.04817142857142857,-0.004005902347516519
-0.04815892857142857,-0.0020223793642914875
-0.04814642857142857,-0.0020223793642914875
-0.04813392857142857,-0.0016917922004206492
-0.04812142857142857,-0.0020223793642914875
-0.04810892857142857,-0.0030141408559040033
-0.04809642857142857,-0.0003694435449380467
-0.04808392857142857,-0.0020223793642914875
-0.04807142857142857,-0.0030141408559040033
-0.04805892857142857,-0.002352966528162326
-0.04804642857142857,-0.002352966528162326
-0.04803392857142857,-0.0010306178726788217
-0.04802142857142857,-0.0007000307088081335
-0.04800892857142857,-0.0007000307088081335
-0.04799642857142857,-0.0013612050365498106
-0.04798392857142857,-0.0016917922004206492
-0.04797142857142857,-0.0007000307088087348
-0.04795892857142857,-0.0020223793642914875
-0.04794642857142857,-0.002352966528162326
-0.04793392857142857,-0.0026835536920331647
-0.04792142857142857,-0.001030617872678972
-0.04790892857142857,-0.0023529665281620256
-0.04789642857142857,-0.0016917922004206492
-0.04788392857142857,-0.001030617872678972
-0.04787142857142857,-0.0016917922004206492
-0.04785892857142857,-0.003344728019774842
-0.04784642857142857,-0.0026835536920331647
-0.04783392857142857,-0.0026835536920331647
-0.04782142857142857,-0.0020223793642914875
-0.04780892857142857,-0.0016917922004206492
-0.04779642857142857,-0.0013612050365498106
-0.04778392857142857,-0.002683553692032563
-0.04777142857142857,-0.0013612050365498106
-0.04775892857142857,0.0006223179466752206
-0.04774642857142857,-0.0016917922004206492
-0.04773392857142857,-0.0036753151836456804
-0.04772142857142857,-0.0013612050365511637
-0.04770892857142857,-0.004336489511387358
-0.04769642857142857,-0.003344728019774842
-0.04768392857142857,-0.001030617872678972
-0.04767142857142857,-0.0020223793642914875
-0.04765892857142857,-0.0026835536920339163
-0.04764642857142857,-0.004336489511387358
-0.04763392857142857,-3.8856381066456475e-05
-0.04762142857142857,-0.0020223793642914875
-0.04760892857142857,-0.002352966528162326
-0.047596428571428574,-0.0007000307088088852
-0.04758392857142857,-0.0013612050365498106
-0.04757142857142857,-0.002352966528162326
-0.04755892857142857,-0.0026835536920331647
-0.04754642857142857,-0.001030617872678972
-0.047533928571428574,-0.002352966528161725
-0.04752142857142857,-0.0020223793642914875
-0.04750892857142857,-0.0013612050365498106
-0.04749642857142857,-0.0020223793642914875
-0.04748392857142857,-0.0026835536920331647
-0.047471428571428574,-0.0016917922004211002
-0.04745892857142857,-0.0016917922004206492
-0.04744642857142857,-0.0016917922004206492
-0.04743392857142857,-0.001030617872678972
-0.04742142857142857,-0.0026835536920331647
-0.047408928571428574,-0.0023529665281624766
-0.04739642857142857,-3.8856381066456475e-05
-0.04738392857142857,-0.0020223793642914875
-0.04737142857142857,-0.004336489511387358
-0.04735892857142857,-0.0016917922004206492
-0.047346428571428574,-0.0016917922004206492
-0.04733392857142857,-0.002352966528162326
-0.04732142857142857,-0.003344728019774842
-0.04730892857142857,-0.0030141408559040033
-0.04729642857142857,-0.0016917922004206492
-0.047283928571428574,-0.0016917922004206492
-0.04727142857142857,-0.002352966528162326
-0.04725892857142857,-0.0016917922004206492
-0.04724642857142857,-0.003344728019774842
-0.04723392857142857,-0.0016917922004206492
-0.047221428571428574,-0.0010306178726792728
-0.04720892857142857,-0.0007000307088081335
-0.04719642857142857,-0.0016917922004206492
-0.04718392857142857,-0.004005902347516519
-0.04717142857142857,-0.003344728019774842
-0.047158928571428574,-0.002022379364292089
-0.04714642857142857,-0.0016917922004206492
-0.04713392857142857,-0.0016917922004206492
-0.04712142857142857,-0.004005902347516519
-0.04710892857142857,-0.0030141408559040033
-0.047096428571428574,-0.0023529665281626267
-0.04708392857142857,-0.0016917922004206492
-0.04707142857142857,-0.0013612050365498106
-0.04705892857142857,-0.0020223793642914875
-0.04704642857142857,-0.003344728019774842
-0.047033928571428574,-0.002352966528162777
-0.04702142857142857,-0.002352966528162326
-0.04700892857142857,-0.000369443544937295
-0.04699642857142857,-0.0016917922004206492
-0.04698392857142857,-0.0013612050365498106
-0.046971428571428574,-0.0033447280197739402
-0.04695892857142857,-0.003344728019774842
-0.04694642857142857,-0.000369443544937295
-0.04693392857142857,-0.0016917922004206492
-0.04692142857142857,-0.0016917922004206492
-0.046908928571428574,-0.0030141408559040033
-0.04689642857142857,-0.000369443544937295
-0.04688392857142857,-0.0030141408559040033
-0.04687142857142857,-0.0020223793642914875
-0.04685892857142857,-0.0016917922004206492
-0.046846428571428574,-0.001030617872678972
-0.04683392857142857,-0.001030617872678972
-0.04682142857142857,-0.0013612050365498106
-0.04680892857142857,-0.0030141408559040033
-0.04679642857142857,-0.0013612050365498106
-0.046783928571428574,-0.0007000307088081335
-0.04677142857142857,-0.00036944354493789635
-0.04675892857142857,-0.0016917922004206492
-0.04674642857142857,-0.0013612050365498106
-0.04673392857142857,-0.001030617872678972
-0.046721428571428573,-0.0016917922004206492
-0.04670892857142857,-0.0013612050365501113
-0.04669642857142857,-0.0020223793642914875
-0.04668392857142857,-0.0016917922004206492
-0.04667142857142857,-0.0020223793642914875
-0.04665892857142857,-0.001030617872678972
-0.04664642857142857,0.0012834922744158453
-0.04663392857142857,-0.001030617872678972
-0.04662142857142857,-3.8856381066456475e-05
-0.04660892857142857,-0.0016917922004206492
-0.04659642857142857,-0.001030617872678972
-0.04658392857142857,0.0016140794382865336
-0.04657142857142857,-0.001030617872678972
-0.04655892857142857,-0.0026835536920331647
-0.04654642857142857,-0.001030617872678972
-0.04653392857142857,-0.000369443544937295
-0.04652142857142857,-0.001030617872678972
-0.04650892857142857,-0.001030617872678972
-0.04649642857142857,-0.0007000307088081335
-0.04648392857142857,-0.001030617872678972
-0.04647142857142857,-0.000369443544937295
-0.04645892857142857,-3.8856381067208145e-05
-0.04644642857142857,-0.0016917922004206492
-0.04643392857142857,-0.0013612050365498106
-0.04642142857142857,-0.0016917922004206492
-0.04640892857142857,0.000952905110546059
-0.04639642857142857,-0.0010306178726783707
-0.04638392857142857,0.00029173078280438205
-0.04637142857142857,0.000952905110546059
-0.04635892857142857,-0.001030617872678972
-0.04634642857142857,0.0006223179466752206
-0.04633392857142857,0.0006223179466747696
-0.04632142857142857,-0.000369443544937295
-0.04630892857142857,0.0016140794382877362
-0.04629642857142857,0.00029173078280438205
-0.04628392857142857,0.000952905110546059
-0.04627142857142857,-0.0013612050365483072
-0.04625892857142857,0.0019446666021585746
-0.04624642857142857,0.0006223179466752206
-0.04623392857142857,-0.000369443544937295
-0.04622142857142857,0.0006223179466752206
-0.04620892857142857,-0.000369443544936393
-0.04619642857142857,0.0016140794382877362
-0.04618392857142857,-3.8856381066456475e-05
-0.04617142857142857,-0.000369443544937295
-0.04615892857142857,0.0006223179466752206
-0.04614642857142857,-0.00103061787267807
-0.04613392857142857,0.000952905110546059
-0.04612142857142857,0.0006223179466752206
-0.04610892857142857,0.000952905110546059
-0.04609642857142857,0.0019446666021585746
-0.046083928571428574,0.000622317946675822
-0.04607142857142857,0.000952905110546059
-0.04605892857142857,0.0012834922744168976
-0.04604642857142857,0.0026058409299002517
-0.04603392857142857,0.0006223179466752206
-0.046021428571428574,0.0022752537660286616
-0.04600892857142857,0.0019446666021585746
-0.04599642857142857,0.0019446666021585746
-0.04598392857142857,0.0006223179466752206
-0.04597142857142857,-0.000369443544937295
-0.045958928571428574,0.0009529051105454578
-0.04594642857142857,-3.8856381066456475e-05
-0.04593392857142857,0.0016140794382877362
-0.04592142857142857,0.000952905110546059
-0.04590892857142857,0.0019446666021585746
-0.045896428571428574,0.0022752537660292627
-0.04588392857142857,0.0012834922744168976
-0.04587142857142857,0.0019446666021585746
-0.04585892857142857,0.0012834922744168976
-0.04584642857142857,0.000952905110546059
-0.045833928571428574,0.000952905110546059
-0.04582142857142857,0.0012834922744168976
-0.04580892857142857,0.000952905110546059
-0.04579642857142857,-0.0007000307088081335
-0.04578392857142857,0.000952905110546059
-0.045771428571428574,0.0012834922744167474
-0.04575892857142857,0.002275253766029413
-0.04574642857142857,0.000952905110546059
-0.04573392857142857,0.002275253766029413
-0.04572142857142857,0.0012834922744168976
-0.045708928571428574,0.001944666602158274
-0.04569642857142857,0.000952905110546059
-0.04568392857142857,0.0012834922744168976
-0.04567142857142857,0.0006223179466752206
-0.04565892857142857,0.0006223179466752206
-0.045646428571428574,-3.8856381066155825e-05
-0.04563392857142857,0.0019446666021585746
-0.04562142857142857,0.0006223179466752206
-0.04560892857142857,0.0029364280937710903
-0.04559642857142857,0.00029173078280438205
