hardware/ESP32_IMU_setup_NEW/strømforbrug_iterationC/udvalgte/ac3q0017_gnst_idle_connection_and_ble_send.csv

#Digilent WaveForms Oscilloscope Acquisition
#Device Name: Discovery2
#Serial Number: SN:210321B02ACE
#Date Time: 2026-05-13 14:37:19.087
#Sample rate: 80000Hz
#Samples: 8192
#Trigger: Source: Channel 1 Type: Edge Condition: Rising Level: 0 V Hyst.: Auto HoldOff: 100 ns
#Channel 1: Range: 5 mV/div Offset: 0 V Attenuation: 1 X

Time (s),Channel 1 (V)
-0.0512,0.004589363913125283
-0.0511875,0.003597602421513519
-0.051175,0.00525053824086696
-0.0511625,0.004258776749254445
-0.05115,0.005581125404737798
-0.0511375,0.0035976024215127675
-0.051125,0.003928189585383907
-0.0511125,0.004589363913125283
-0.0511,0.004589363913125283
-0.0510875,0.003928189585383606
-0.051075,0.00525053824086696
-0.0510625,0.005581125404737798
-0.05105,0.005581125404737798
-0.0510375,0.005911712568608637
-0.051025,0.003267015257641929
-0.0510125,0.003928189585383606
-0.051,0.004589363913125734
-0.0509875,0.005581125404737798
-0.050975,0.004919951076996122
-0.0509625,0.0035976024215127675
-0.05095,0.003928189585383606
-0.0509375,0.004258776749254896
-0.050925,0.00525053824086696
-0.0509125,0.004258776749254445
-0.0509,0.003928189585383606
-0.0508875,0.00525053824086696
-0.050875,0.004589363913125433
-0.0508625,0.004919951076996122
-0.05085,0.003928189585383606
-0.0508375,0.00525053824086696
-0.050825,0.005911712568608637
-0.0508125,0.0069034740602213025
-0.0508,0.0072340612240919915
-0.0507875,0.008556409879575346
-0.050775,0.009217584207317022
-0.0507625,0.008556409879575346
-0.05075,0.009217584207316722
-0.0507375,0.008556409879575346
-0.050725,0.0072340612240919915
-0.0507125,0.006572886896350314
-0.0507,0.0069034740602211524
-0.0506875,0.006242299732479776
-0.050675,0.00756464838796283
-0.0506625,0.005911712568608637
-0.05065,0.006242299732479475
-0.0506375,0.00525053824086696
-0.050625,0.004919951076996272
-0.0506125,0.005581125404737798
-0.0506,0.005911712568608637
-0.0505875,0.00525053824086696
-0.050575,0.004589363913125283
-0.0505625,0.005250538240866659
-0.05055,0.006572886896350314
-0.0505375,0.005581125404737798
-0.050525,0.005911712568608637
-0.0505125,0.004589363913125283
-0.0505,0.002936428093771842
-0.0504875,0.005911712568608637
-0.050475,0.005581125404737798
-0.0504625,0.0035976024215127675
-0.05045,0.003928189585383606
-0.0504375,0.0032670152576422294
-0.050425,0.003928189585383606
-0.0504125,0.004258776749254445
-0.0504,0.005581125404737798
-0.0503875,0.004589363913125283
-0.050375,0.004919951076995972
-0.0503625,0.003928189585383606
-0.05035,0.003928189585383606
-0.0503375,0.00525053824086696
-0.050325,0.004919951076996122
-0.0503125,0.0029364280937719924
-0.0503,0.004258776749254445
-0.0502875,0.003928189585383606
-0.050275,0.004589363913125283
-0.0502625,0.0035976024215127675
-0.05025,0.002936428093771391
-0.0502375,0.003267015257641929
-0.050225,0.004919951076996122
-0.0502125,0.004919951076996122
-0.0502,0.002275253766029413
-0.0501875,0.003928189585382854
-0.050175,0.005581125404737798
-0.0501625,0.003267015257641929
-0.05015,0.004589363913125283
-0.0501375,0.005581125404737798
-0.050125,0.004258776749255046
-0.0501125,0.0035976024215127675
-0.0501,0.004919951076996122
-0.0500875,0.002275253766029413
-0.050075,0.004258776749254445
-0.0500625,0.0035976024215127675
-0.05005,0.003928189585383606
-0.0500375,0.004589363913125283
-0.050025,0.003928189585383606
-0.0500125,0.0029364280937710903
-0.05,0.004919951076996122
-0.0499875,0.0026058409299002517
-0.049975,0.005581125404737798
-0.0499625,0.005581125404737798
-0.04995,0.004919951076996122
-0.0499375,0.003928189585383606
-0.049925,0.0035976024215127675
-0.0499125,0.005581125404737798
-0.0499,0.004589363913125283
-0.0498875,0.003928189585383606
-0.049875,0.004258776749254445
-0.0498625,0.004589363913124982
-0.04985,0.003928189585383606
-0.0498375,0.004919951076996122
-0.049825,0.0035976024215127675
-0.0498125,0.004589363913125283
-0.0498,0.005581125404737197
-0.0497875,0.004258776749254445
-0.049775,0.004919951076996122
-0.0497625,0.003267015257641929
-0.04975,0.004919951076996122
-0.0497375,0.004919951076995671
-0.049725,0.003928189585383606
-0.0497125,0.003928189585383606
-0.0497,0.004258776749254445
-0.0496875,0.003928189585383606
-0.049675,0.0026058409299005523
-0.0496625,0.003267015257641929
-0.04965,0.0035976024215127675
-0.0496375,0.004258776749254445
-0.049625,0.004258776749254445
-0.0496125,0.00525053824086696
-0.0496,0.00525053824086696
-0.0495875,0.004258776749254445
-0.049575,0.002275253766029413
-0.0495625,0.004919951076996122
-0.04955,0.004258776749254445
-0.0495375,0.004258776749254445
-0.049525,0.0035976024215127675
-0.0495125,0.0035976024215127675
-0.0495,0.004258776749254445
-0.0494875,0.004258776749254746
-0.049475,0.004919951076996122
-0.0494625,0.0026058409299002517
-0.04945,0.004919951076996122
-0.0494375,0.003928189585383606
-0.049425,0.004589363913125734
-0.0494125,0.005581125404737798
-0.0494,0.003267015257641929
-0.0493875,0.005581125404737798
-0.049375,0.003267015257641929
-0.0493625,0.0032670152576416284
-0.04935,0.0026058409299002517
-0.0493375,0.0029364280937710903
-0.049325,0.004919951076996122
-0.0493125,0.004919951076996122
-0.0493,0.003597602421513369
-0.0492875,0.004919951076996122
-0.049275,0.003928189585383606
-0.0492625,0.003928189585383606
-0.04925,0.0029364280937710903
-0.0492375,0.005250538240866659
-0.049225,0.004589363913125283
-0.0492125,0.003928189585383606
-0.0492,0.0035976024215127675
-0.0491875,0.003928189585383606
-0.049175,0.0026058409299008533
-0.0491625,0.005911712568608637
-0.04915,0.0035976024215127675
-0.0491375,0.0029364280937710903
-0.049125,0.003928189585383606
-0.0491125,0.004589363913124982
-0.0491,0.004919951076996122
-0.0490875,0.004589363913125283
-0.049075,0.003267015257641929
-0.0490625,0.0035976024215127675
-0.04905,0.0022752537660300142
-0.0490375,0.0029364280937710903
-0.049025,0.005581125404737798
-0.0490125,0.003928189585383606
-0.049,0.004919951076996122
-0.0489875,0.006242299732478874
-0.048975,0.003267015257641929
-0.0489625,0.003928189585383606
-0.04895,0.004589363913125283
-0.0489375,0.004589363913125283
-0.048925,0.005250538240866659
-0.0489125,0.004258776749254445
-0.0489,0.00525053824086696
-0.0488875,0.004258776749254445
-0.048875,0.004258776749254445
-0.0488625,0.004258776749254445
-0.04885,0.00525053824086696
-0.0488375,0.0035976024215127675
-0.048825,0.003928189585383606
-0.0488125,0.004589363913125283
-0.0488,0.002936428093771842
-0.0487875,0.006242299732479475
-0.048775,0.004919951076996122
-0.0487625,0.0029364280937710903
-0.04875,0.0035976024215127675
-0.0487375,0.004589363913124832
-0.048725,0.005911712568608637
-0.0487125,0.003928189585383606
-0.0487,0.0029364280937710903
-0.0486875,0.0035976024215127675
-0.048675,0.004589363913124832
-0.0486625,0.004258776749254445
-0.04865,0.003267015257641929
-0.0486375,0.0035976024215127675
-0.048625,0.004589363913125283
-0.0486125,0.004919951076995972
-0.0486,0.003928189585383606
-0.0485875,0.0029364280937710903
-0.048575,0.004919951076996122
-0.0485625,0.003928189585383606
-0.04855,0.003928189585383606
-0.0485375,0.0035976024215127675
-0.048525,0.004258776749254445
-0.0485125,0.00525053824086696
-0.0485,0.004258776749254445
-0.0484875,0.003928189585383606
-0.048475,0.003267015257641929
-0.0484625,0.00525053824086696
-0.04845,0.004258776749254445
-0.0484375,0.004589363913125283
-0.048425,0.004258776749254445
-0.0484125,0.003928189585383606
-0.0484,0.004589363913125283
-0.0483875,0.004919951076996122
-0.048375,0.006242299732479475
-0.0483625,0.0026058409299002517
-0.04835,0.003928189585384207
-0.0483375,0.00525053824086696
-0.048325,0.004919951076996122
-0.0483125,0.00525053824086696
-0.0483,0.0069034740602211524
-0.0482875,0.007564648387962529
-0.048275,0.0069034740602211524
-0.0482625,0.0072340612240919915
-0.04825,0.007895235551833668
-0.0482375,0.0069034740602211524
-0.048225,0.005911712568608787
-0.0482125,0.006242299732479475
-0.0482,0.004589363913125283
-0.0481875,0.006242299732479475
-0.048175,0.005581125404737798
-0.0481625,0.006572886896350464
-0.04815,0.0069034740602211524
-0.0481375,0.006572886896350314
-0.048125,0.008556409879575346
-0.0481125,0.009548171371187861
-0.0481,0.010209345698928635
-0.0480875,0.008225822715704507
-0.048075,0.0072340612240919915
-0.0480625,0.0072340612240919915
-0.04805,0.0072340612240919915
-0.0480375,0.006242299732479625
-0.048025,0.006572886896350314
-0.0480125,0.006242299732479475
-0.048,0.0072340612240919915
-0.0479875,0.006242299732479475
-0.047975,0.006572886896349713
-0.0479625,0.00525053824086696
-0.04795,0.0069034740602211524
-0.0479375,0.0035976024215127675
-0.047925,0.005581125404737798
-0.0479125,0.005911712568608487
-0.0479,0.005581125404737798
-0.0478875,0.005911712568608637
-0.047875,0.005911712568608637
-0.0478625,0.005581125404737798
-0.04785,0.005250538240866659
-0.0478375,0.004589363913125283
-0.047825,0.00525053824086696
-0.0478125,0.003928189585383606
-0.0478,0.004589363913125283
-0.0477875,0.005250538240867411
-0.047775,0.006242299732479475
-0.0477625,0.004589363913125283
-0.04775,0.005581125404737798
-0.0477375,0.00525053824086696
-0.047725,0.005250538240866509
-0.0477125,0.004258776749254445
-0.0477,0.005911712568608637
-0.0476875,0.004589363913125283
-0.047675,0.00525053824086696
-0.0476625,0.005250538240866509
-0.04765,0.004258776749254445
-0.0476375,0.00525053824086696
-0.047625,0.004258776749254445
-0.0476125,0.0069034740602211524
-0.0476,0.005911712568609088
-0.0475875,0.005911712568608637
-0.047575,0.004589363913125283
-0.0475625,0.006242299732479475
-0.04755,0.004258776749254445
-0.0475375,0.004919951076995821
-0.047525,0.005911712568608637
-0.0475125,0.00525053824086696
-0.0475,0.004258776749254445
-0.0474875,0.003928189585383606
-0.047475,0.006242299732478423
-0.0474625,0.005581125404737798
-0.04745,0.0069034740602211524
-0.0474375,0.004589363913125283
-0.047425,0.004919951076996122
-0.0474125,0.005911712568608186
-0.0474,0.004589363913125283
-0.0473875,0.006572886896350314
-0.047375,0.0035976024215127675
-0.0473625,0.0035976024215127675
-0.04735,0.005581125404736896
-0.0473375,0.004919951076996122
-0.047325,0.003928189585383606
-0.0473125,0.006572886896350314
-0.0473,0.00525053824086696
-0.0472875,0.004589363913125584
-0.047275,0.003928189585383606
-0.0472625,0.003267015257641929
-0.04725,0.004589363913125283
-0.0472375,0.0035976024215127675
-0.047225,0.005250538240866208
-0.0472125,0.005581125404737798
-0.0472,0.005911712568608637
-0.0471875,0.004258776749254445
-0.047175,0.005581125404737798
-0.0471625,0.00525053824086711
-0.04715,0.004258776749254445
-0.0471375,0.004919951076996122
-0.047125,0.004919951076996122
-0.0471125,0.004258776749254445
-0.0471,0.005581125404737197
-0.0470875,0.004589363913125283
-0.047075,0.005581125404737798
-0.0470625,0.004589363913125283
-0.04705,0.0035976024215127675
-0.0470375,0.006242299732478272
-0.047025,0.005911712568608637
-0.0470125,0.006242299732479475
-0.047,0.005581125404737798
-0.0469875,0.006242299732479475
-0.046975,0.005581125404738099
-0.0469625,0.005581125404737798
-0.04695,0.0035976024215127675
-0.0469375,0.003928189585383606
-0.046925,0.005581125404737798
-0.0469125,0.004919951076996122
-0.0469,0.00525053824086696
-0.0468875,0.005911712568608637
-0.046875,0.003928189585383606
-0.0468625,0.006242299732479475
-0.04685,0.00525053824086696
-0.0468375,0.006242299732479475
-0.046825,0.005581125404737798
-0.0468125,0.005911712568608637
-0.0468,0.004589363913125283
-0.0467875,0.006242299732479475
-0.046775,0.004258776749254746
-0.0467625,0.004919951076996122
-0.04675,0.003928189585383606
-0.0467375,0.004589363913125283
-0.046725,0.006572886896350314
-0.0467125,0.00491995107699537
-0.0467,0.003267015257641929
-0.0466875,0.0035976024215127675
-0.046675,0.00525053824086696
-0.0466625,0.004919951076996122
-0.04665,0.004589363913125584
-0.0466375,0.00525053824086696
-0.046625,0.005911712568608637
-0.0466125,0.004919951076996122
-0.0466,0.004919951076996122
-0.0465875,0.003928189585384057
-0.046575,0.004919951076996122
-0.0465625,0.005581125404737798
-0.04655,0.004919951076996122
-0.0465375,0.006572886896350314
-0.046525,0.005911712568607434
-0.0465125,0.003267015257641929
-0.0465,0.005911712568608637
-0.0464875,0.005581125404737798
-0.046475,0.004589363913125283
-0.0464625,0.003597602421512918
-0.04645,0.003928189585383606
-0.0464375,0.00525053824086696
-0.046425,0.005911712568608637
-0.0464125,0.0072340612240919915
-0.0464,0.0075646483879622285
-0.0463875,0.006242299732479475
-0.046375,0.008886997043446183
-0.0463625,0.008556409879575346
-0.04635,0.008225822715704507
-0.0463375,0.008225822715704207
-0.046325,0.00756464838796283
-0.0463125,0.005911712568608637
-0.0463,0.0069034740602211524
-0.0462875,0.006242299732479475
-0.046275,0.0075646483879622285
-0.0462625,0.006242299732479475
-0.04625,0.005581125404737798
-0.0462375,0.00525053824086696
-0.046225,0.006242299732479475
-0.0462125,0.005581125404737347
-0.0462,0.004589363913125283
-0.0461875,0.004589363913125283
-0.046175,0.005581125404737798
-0.0461625,0.005581125404737798
-0.04615,0.005911712568608036
-0.0461375,0.004589363913125283
-0.046125,0.0035976024215127675
-0.0461125,0.005911712568608637
-0.0461,0.005581125404737798
-0.0460875,0.004919951076996423
-0.046075,0.005911712568608637
-0.0460625,0.004919951076996122
-0.04605,0.005581125404737798
-0.0460375,0.0035976024215127675
-0.046025,0.004589363913124832
-0.0460125,0.0035976024215127675
-0.046,0.004589363913125283
-0.0459875,0.004258776749254445
-0.045975,0.0035976024215127675
-0.0459625,0.005911712568607584
-0.04595,0.004919951076996122
-0.0459375,0.004919951076996122
-0.045925,0.004258776749254445
-0.0459125,0.00525053824086696
-0.0459,0.003928189585384207
-0.0458875,0.005581125404737798
-0.045875,0.006242299732479475
-0.0458625,0.005911712568608637
-0.04585,0.006242299732479475
-0.0458375,0.007895235551832917
-0.045825,0.009217584207317022
-0.0458125,0.007895235551833668
-0.0458,0.008556409879575346
-0.0457875,0.010539932862800376
-0.045775,0.010209345698929688
-0.0457625,0.008886997043446183
-0.04575,0.0069034740602211524
-0.0457375,0.008556409879575346
-0.045725,0.007895235551833668
-0.0457125,0.004919951076997475
-0.0457,0.005911712568608637
-0.0456875,0.00525053824086696
-0.045675,0.005581125404737798
-0.0456625,0.0069034740602211524
-0.04565,0.005581125404738399
-0.0456375,0.005911712568608637
-0.045625,0.003928189585383606
-0.0456125,0.005581125404737798
-0.0456,0.004919951076996122
-0.0455875,0.003928189585384057
-0.045575,0.004258776749254445
-0.0455625,0.004258776749254445
-0.04555,0.003928189585383606
-0.0455375,0.005581125404737798
-0.045525,0.004919951076996423
-0.0455125,0.003928189585383606
-0.0455,0.006242299732479475
-0.0454875,0.004258776749254445
-0.045475,0.004589363913125283
-0.0454625,0.004258776749254595
-0.04545,0.005911712568608637
-0.0454375,0.004919951076996122
-0.045425,0.004919951076996122
-0.0454125,0.003928189585383606
-0.0454,0.0029364280937715414
-0.0453875,0.004258776749254445
-0.045375,0.004589363913125283
-0.0453625,0.003928189585383606
-0.04535,0.004258776749254445
-0.0453375,0.005581125404737798
-0.045325,0.003267015257641929
-0.0453125,0.003928189585383606
-0.0453,0.003928189585383606
-0.0452875,0.004589363913125283
-0.045275,0.004258776749254445
-0.0452625,0.0035976024215127675
-0.04525,0.00525053824086696
-0.0452375,0.003928189585383606
-0.045225,0.0035976024215127675
-0.0452125,0.004258776749254445
-0.0452,0.004589363913124682
-0.0451875,0.003267015257641929
-0.045175,0.004589363913125283
-0.0451625,0.0035976024215127675
-0.04515,0.005581125404737798
-0.0451375,0.0035976024215132185
-0.045125,0.004589363913125283
-0.0451125,0.004589363913125283
-0.0451,0.004589363913125283
-0.0450875,0.003928189585383606
-0.045075,0.004258776749254746
-0.0450625,0.004919951076996122
-0.04505,0.004258776749254445
-0.0450375,0.00525053824086696
-0.045025,0.003928189585383606
-0.0450125,0.004589363913125133
-0.045,0.004258776749254445
-0.0449875,0.004589363913125283
-0.044975,0.0026058409299002517
-0.0449625,0.004589363913125283
-0.04495,0.003928189585383756
-0.0449375,0.004258776749254445
-0.044925,0.00525053824086696
-0.0449125,0.0035976024215127675
-0.0449,0.0035976024215127675
-0.0448875,0.003597602421512617
-0.044875,0.003267015257641929
-0.0448625,0.0035976024215127675
-0.04485,0.0029364280937710903
-0.0448375,0.003267015257641929
-0.044825,0.0042587767492533925
-0.0448125,0.0019446666021585746
-0.0448,0.004258776749254445
-0.0447875,0.004258776749254445
-0.044775,0.0026058409299002517
-0.0447625,0.002936428093771391
-0.04475,0.0035976024215127675
-0.0447375,0.0035976024215127675
-0.044725,0.0029364280937710903
-0.0447125,0.0035976024215127675
-0.0447,0.003928189585383907
-0.0446875,0.004589363913125283
-0.044675,0.003928189585383606
-0.0446625,0.0035976024215127675
-0.04465,0.0029364280937710903
-0.0446375,0.003928189585383456
-0.044625,0.0035976024215127675
-0.0446125,0.0026058409299002517
-0.0446,0.003928189585383606
-0.0445875,0.004589363913125283
-0.044575,0.00326701525764238
-0.0445625,0.004258776749254445
-0.04455,0.004919951076996122
-0.0445375,0.004589363913125283
-0.044525,0.004258776749254445
-0.0445125,0.004589363913125133
-0.0445,0.004589363913125283
-0.0444875,0.004258776749254445
-0.044475,0.00525053824086696
-0.0444625,0.004258776749254445
-0.04445,0.003928189585383756
-0.0444375,0.004589363913125283
-0.044425,0.003928189585383606
-0.0444125,0.004919951076996122
-0.0444,0.005581125404737798
-0.0443875,0.004919951076996423
-0.044375,0.003928189585383606
-0.0443625,0.003928189585383606
-0.04435,0.004258776749254445
-0.0443375,0.004589363913125283
-0.044325,0.004258776749254595
-0.0443125,0.0026058409299002517
-0.0443,0.004589363913125283
-0.0442875,0.004919951076996122
-0.044275,0.003267015257641929
-0.0442625,0.0026058409299005523
-0.04425,0.0029364280937710903
-0.0442375,0.003928189585383606
-0.044225,0.004589363913125283
-0.0442125,0.003928189585383606
-0.0442,0.005581125404737047
-0.0441875,0.003267015257641929
-0.044175,0.00525053824086696
-0.0441625,0.0035976024215127675
-0.04415,0.004919951076996122
-0.0441375,0.003928189585384057
-0.044125,0.00525053824086696
-0.0441125,0.003928189585383606
-0.0441,0.003267015257641929
-0.0440875,0.00525053824086696
-0.044075,0.003928189585384207
-0.0440625,0.003267015257641929
-0.04405,0.004258776749254445
-0.0440375,0.004258776749254445
-0.044025,0.004919951076996122
-0.0440125,0.0032670152576426805
-0.044,0.0035976024215127675
-0.0439875,0.005581125404737798
-0.043975,0.005581125404737798
-0.0439625,0.003928189585383606
-0.04395,0.003928189585383606
-0.0439375,0.003267015257641929
-0.043925,0.0029364280937710903
-0.0439125,0.004258776749254445
-0.0439,0.0029364280937710903
-0.0438875,0.003928189585383155
-0.043875,0.004258776749254445
-0.0438625,0.00525053824086696
-0.04385,0.004919951076996122
-0.0438375,0.005911712568608637
-0.043825,0.004258776749254445
-0.0438125,0.004589363913125283
-0.0438,0.004589363913125283
-0.0437875,0.0035976024215127675
-0.043775,0.004258776749254445
-0.0437625,0.004258776749254445
-0.04375,0.004258776749254445
-0.0437375,0.004258776749254445
-0.043725,0.0035976024215127675
-0.0437125,0.00525053824086696
-0.0437,0.005581125404737798
-0.0436875,0.0035976024215127675
-0.043675,0.004258776749254445
-0.0436625,0.0035976024215127675
-0.04365,0.002275253766029413
-0.0436375,0.004258776749254445
-0.043625,0.005250538240866509
-0.0436125,0.004258776749254445
-0.0436,0.0035976024215127675
-0.0435875,0.004258776749254445
-0.043575,0.005581125404737798
-0.0435625,0.003928189585383456
-0.04355,0.0035976024215127675
-0.0435375,0.004919951076996122
-0.043525,0.004589363913125283
-0.0435125,0.0026058409299002517
-0.0435,0.00326701525764238
-0.0434875,0.004258776749254445
-0.043475,0.004258776749254445
-0.0434625,0.0019446666021585746
-0.04345,0.0035976024215127675
-0.0434375,0.00525053824086681
-0.043425,0.004919951076996122
-0.0434125,0.003928189585383606
-0.0434,0.003928189585383606
-0.0433875,0.003928189585383606
-0.043375,0.003928189585383606
-0.0433625,0.003928189585383606
-0.04335,0.005911712568608637
