hardware/ESP32_IMU_setup_NEW/støj_esp32_prototype_og_smd_pcb/støjmålinger/støj_esp32_1ms-div.csv

#Digilent WaveForms Oscilloscope Acquisition
#Device Name: Discovery2
#Serial Number: SN:210321B02ACE
#Date Time: 2026-04-22 11:22:48.928
#Sample rate: 800000Hz
#Samples: 8192
#Trigger: Source: Channel 1 Type: Edge Condition: Rising Level: 0 V Hyst.: Auto HoldOff: 100 ns
#Channel 1: Range: 200 mV/div Offset: 0 V Attenuation: 1 X Zero: 3.15540585 V

Time (s),Channel 1 (V)
-0.0051222630718954255,-0.0015326107419895152
-0.005121013071895425,-0.000871436414247917
-0.005119763071895425,-0.0038467208890842
-0.005118513071895425,-0.000871436414247917
-0.005117263071895425,-0.0005408492503771178
-0.005116013071895425,-0.003516133725214754
-0.005114763071895425,-0.00021026208650631872
-0.0051135130718954255,-0.002854959397471953
-0.005112263071895425,-0.000871436414247917
-0.005111013071895425,-0.003516133725212499
-0.005109763071895425,0.0014426737328476769
-0.005108513071895425,-0.0008714364142494203
-0.005107263071895425,-0.004177308052956352
-0.005106013071895425,-0.0015326107419895152
-0.005104763071895425,-0.005499656708439549
-0.005103513071895425,-0.00021026208650631872
-0.0051022630718954255,-0.001202023578118265
-0.005101013071895425,-0.005499656708439549
-0.005099763071895425,0.00012032507736252605
-0.005098513071895425,-0.004177308052956352
-0.005097263071895425,0.0007814994051041242
-0.005096013071895425,-0.003516133725214754
-0.005094763071895425,0.00012032507736448039
-0.005093513071895425,0.0004509122412351292
-0.005092263071895425,-0.003846720889085553
-0.0050910130718954255,-0.00021026208650797235
-0.005089763071895425,-0.003846720889085553
-0.005088513071895425,0.0007814994051068303
-0.005087263071895425,0.0024344352244605183
-0.005086013071895425,-0.003185546561343955
-0.005084763071895425,0.00012032507736448039
-0.005083513071895425,-0.004507895216827151
-0.0050822630718954254,-0.0012020235781202192
-0.005081013071895425,-0.005830243872310792
-0.0050797630718954255,0.0004509122412324233
-0.005078513071895425,0.00177326089671892
-0.005077263071895425,-0.004177308052954097
-0.005076013071895425,0.0007814994051060786
-0.005074763071895425,-0.004507895216827151
-0.005073513071895425,-0.00021026208650631872
-0.005072263071895425,-0.0018631979058603143
-0.0050710130718954255,-0.0035161337252140024
-0.005069763071895425,-0.0005408492503771178
-0.005068513071895425,-0.004838482380696146
-0.005067263071895425,-0.000871436414247917
-0.005066013071895425,-0.003846720889083749
-0.005064763071895425,0.00012032507736448039
-0.005063513071895425,-0.001202023578118716
-0.005062263071895425,-0.0048384823806979504
-0.005061013071895425,-0.003846720889085553
-0.0050597630718954255,-0.0051690695445681485
-0.005058513071895425,-0.003516133725214754
-0.005057263071895425,-0.008474941183276583
-0.005056013071895425,-0.007152592527793988
-0.005054763071895425,-0.0015326107419917701
-0.005053513071895425,-0.00649141820005239
-0.005052263071895425,-0.004507895216827151
-0.005051013071895425,-0.007813766855534084
-0.005049763071895425,-0.003846720889085553
-0.0050485130718954255,-0.0054996567084387975
-0.005047263071895425,-0.008474941183277185
-0.005046013071895425,-0.006160831036182794
-0.005044763071895425,-0.008805528347147984
-0.005043513071895425,-0.0051690695445687496
-0.005042263071895425,-0.006822005363923189
-0.005041013071895425,-0.008144354019406386
-0.005039763071895425,-0.005499656708440751
-0.005038513071895425,-0.008474941183277185
-0.0050372630718954255,-0.006160831036182644
-0.005036013071895425,-0.009466702674889582
-0.005034763071895425,-0.006491418200052089
-0.005033513071895425,-0.005830243872310792
-0.005032263071895425,-0.008474941183277185
-0.005031013071895425,-0.006160831036181591
-0.005029763071895425,-0.009136115511018783
-0.0050285130718954255,-0.005169069544570554
-0.005027263071895425,-0.01178081282198562
-0.005026013071895425,-0.012441987149724212
-0.005024763071895425,-0.005830243872310792
-0.005023513071895425,-0.010458464166500168
-0.005022263071895425,-0.005499656708439549
-0.005021013071895425,-0.009466702674889582
-0.005019763071895425,-0.00649141820005239
-0.005018513071895425,-0.0051690695445687496
-0.0050172630718954255,-0.01012787700262937
-0.005016013071895425,-0.007152592527793988
-0.005014763071895425,-0.009136115511016979
-0.005013513071895425,-0.0051690695445687496
-0.005012263071895425,-0.011450225658114821
-0.005011013071895425,-0.011450225658114821
-0.005009763071895425,-0.007152592527793988
-0.005008513071895425,-0.009466702674889582
-0.005007263071895425,-0.007152592527793988
-0.0050060130718954255,-0.008805528347147233
-0.005004763071895425,-0.0074831796916647875
-0.005003513071895425,-0.006491418200053893
-0.005002263071895425,-0.009797289838760825
-0.005001013071895425,-0.006822005363923189
-0.004999763071895425,-0.008805528347147984
-0.004998513071895425,-0.007813766855535587
-0.004997263071895425,-0.011780812821983816
-0.004996013071895425,-0.011119638494244022
-0.0049947630718954255,-0.006491418200054495
-0.004993513071895425,-0.010789051330373223
-0.004992263071895425,-0.008474941183278387
-0.004991013071895425,-0.011119638494244022
-0.004989763071895425,-0.005830243872310792
-0.004988513071895425,-0.007813766855535587
-0.004987263071895425,-0.010789051330373223
-0.0049860130718954255,-0.006160831036183696
-0.004984763071895425,-0.010127877002631624
-0.004983513071895425,-0.008805528347149186
-0.004982263071895425,-0.011450225658114821
-0.004981013071895425,-0.01045846416650137
-0.004979763071895425,-0.008144354019406386
-0.004978513071895425,-0.009797289838760825
-0.004977263071895425,-0.0051690695445687496
-0.004976013071895425,-0.007152592527793988
-0.0049747630718954255,-0.004177308052957705
-0.004973513071895425,-0.003846720889085553
-0.004972263071895425,-0.007813766855533933
-0.004971013071895425,-0.004177308052956352
-0.004969763071895425,-0.007483179691662232
-0.004968513071895425,-0.0018631979058603143
-0.004967263071895425,-0.006160831036181591
-0.004966013071895425,-0.0051690695445687496
-0.004964763071895425,-0.001202023578118716
-0.0049635130718954255,-0.0051690695445669455
-0.004962263071895425,-0.001202023578118716
-0.004961013071895425,-0.005499656708437745
-0.004959763071895425,-0.0015326107419895152
-0.004958513071895425,-0.003185546561343955
-0.004957263071895425,-0.005499656708439549
-0.004956013071895425,-0.003185546561343955
-0.004954763071895425,-0.005499656708438496
-0.004953513071895425,-0.00021026208650631872
-0.0049522630718954255,-0.005169069544566494
-0.004951013071895425,-0.000871436414247917
-0.004949763071895425,0.00012032507736267639
-0.004948513071895425,-0.003846720889085553
-0.004947263071895425,0.0011120865689768777
-0.004946013071895425,-0.003846720889085553
-0.004944763071895425,0.0014426737328476769
-0.0049435130718954255,-0.0005408492503762158
-0.004942263071895425,-0.004507895216827151
-0.0049410130718954256,0.0001203250773623753
-0.004939763071895425,-0.001202023578118716
-0.004938513071895425,0.001112086568974322
-0.004937263071895425,-0.004507895216827151
-0.004936013071895425,0.002103848060589719
-0.004934763071895425,0.0004509122412352795
-0.004933513071895425,-0.0028549593974731557
-0.0049322630718954255,0.0037567838799407085
-0.004931013071895425,-0.000871436414247917
-0.004929763071895425,0.002765022388329664
-0.004928513071895425,-0.000871436414247917
-0.004927263071895425,0.0004509122412361815
-0.004926013071895425,0.0024344352244605183
-0.004924763071895425,-0.0015326107419895152
-0.004923513071895425,0.004748545371556112
-0.004922263071895425,0.0014426737328476769
-0.0049210130718954255,0.006070894027037648
-0.004919763071895425,0.0034261967160729156
-0.004918513071895425,0.0011120865689785314
-0.004917263071895425,0.004748545371556112
-0.004916013071895425,0.0001203250773662844
-0.004914763071895425,0.004087371043814514
-0.004913513071895425,-0.0005408492503771178
-0.004912263071895425,0.0004509122412348285
-0.004911013071895425,0.0034261967160729156
-0.0049097630718954255,0.001442673732848579
-0.004908513071895425,0.004087371043814514
-0.004907263071895425,-0.00021026208650466504
-0.004906013071895425,0.0034261967160729156
-0.004904763071895425,0.004087371043814514
-0.004903513071895425,0.0011120865689768777
-0.004902263071895425,0.004087371043814514
-0.0049010130718954254,0.0021038480605906212
-0.004899763071895425,0.005079132535426911
-0.0048985130718954255,0.0007814994051080328
-0.004897263071895425,0.0004509122412352795
-0.004896013071895425,0.005409719699295599
-0.004894763071895425,-0.00021026208650631872
-0.004893513071895425,0.0054097196992981544
-0.004892263071895425,0.00012032507736448039
-0.004891013071895425,0.004748545371556112
-0.0048897630718954255,0.004417958207685463
-0.004888513071895425,0.0007814994051060786
-0.004887263071895425,0.004748545371554759
-0.004886013071895425,0.00177326089671892
-0.004884763071895425,0.00441795820768396
-0.004883513071895425,0.0014426737328476769
-0.004882263071895425,0.0024344352244605183
-0.004881013071895425,0.0057403068631689536
-0.004879763071895425,0.0014426737328476769
-0.0048785130718954255,0.005079132535425258
-0.004877263071895425,0.0014426737328476769
-0.004876013071895425,0.006070894027039302
-0.004874763071895425,0.005079132535426911
-0.004873513071895425,0.0021038480605910723
-0.004872263071895425,0.005079132535426911
-0.004871013071895425,0.00177326089671892
-0.004869763071895425,0.005409719699296501
-0.004868513071895425,0.0014426737328476769
-0.0048672630718954255,0.001112086568977028
-0.004866013071895425,0.006070894027039753
-0.004864763071895425,0.00243443522446112
-0.004863513071895425,0.0037567838799437148
-0.004862263071895425,0.00012032507736448039
-0.004861013071895425,0.006070894027039753
-0.004859763071895425,0.0057403068631689536
-0.0048585130718954254,0.004087371043815265
-0.004857263071895425,0.006401481190910552
-0.0048560130718954255,-0.0005408492503739606
-0.004854763071895425,0.006401481190910552
-0.004853513071895425,0.004748545371554609
-0.004852263071895425,0.0014426737328476769
-0.004851013071895425,0.0054097196992981544
-0.004849763071895425,0.004417958207685313
-0.004848513071895425,0.0057403068631689536
-0.0048472630718954255,0.0004509122412376847
-0.004846013071895425,0.006070894027039753
-0.004844763071895425,0.007393242682519943
-0.004843513071895425,0.0007814994051060786
-0.004842263071895425,0.004417958207683359
-0.004841013071895425,0.00012032507736448039
-0.004839763071895425,0.004748545371556112
-0.004838513071895425,0.004417958207685313
-0.004837263071895425,0.002103848060589719
-0.0048360130718954255,0.006401481190908598
-0.004834763071895425,0.0030956095522021165
-0.004833513071895425,0.006401481190908898
-0.004832263071895425,0.0027650223883313174
-0.004831013071895425,0.005409719699298004
-0.004829763071895425,0.005079132535426911
-0.004828513071895425,0.0011120865689768777
-0.004827263071895425,0.0030956095522012145
-0.004826013071895425,0.0007814994051060786
-0.0048247630718954255,0.006732068354778645
-0.004823513071895425,0.0057403068631689536
-0.004822263071895425,0.00111208656897793
-0.004821013071895425,0.0034261967160729156
-0.004819763071895425,0.0027650223883313174
-0.004818513071895425,0.0054097196992981544
-0.004817263071895425,0.0014426737328476769
-0.0048160130718954254,0.00045091224123573054
-0.004814763071895425,0.005079132535426911
-0.0048135130718954255,0.0007814994051080328
-0.004812263071895425,0.0024344352244605183
-0.004811013071895425,0.000781499405108033
-0.004809763071895425,0.005079132535426911
-0.004808513071895425,0.0054097196992981544
-0.004807263071895425,0.0014426737328476769
-0.004806013071895425,0.005079132535426911
-0.0048047630718954255,0.0014426737328493305
-0.004803513071895425,0.005079132535426911
-0.004802263071895425,-0.0002102620865061684
-0.004801013071895425,0.00012032507736448039
-0.004799763071895425,0.004417958207683058
-0.004798513071895425,-0.0005408492503771178
-0.004797263071895425,0.0030956095522021165
-0.004796013071895425,0.0027650223883313174
-0.004794763071895425,0.0034261967160729156
-0.0047935130718954255,0.004417958207684862
-0.004792263071895425,-0.0005408492503771178
-0.004791013071895425,0.0017732608967174167
-0.004789763071895425,-0.0015326107419895152
-0.004788513071895425,0.00045091224123377615
-0.004787263071895425,-0.0028549593974731557
-0.004786013071895425,-0.003516133725214754
-0.004784763071895425,-0.00021026208650782186
-0.004783513071895425,-0.0028549593974731557
-0.0047822630718954255,-0.002193785069731858
-0.004781013071895425,-0.005499656708439549
-0.004779763071895425,-0.0012020235781193174
-0.004778513071895425,-0.0025243722336023566
-0.004777263071895425,-0.006822005363923189
-0.004776013071895425,-0.0025243722336023566
-0.004774763071895425,-0.0048384823806979504
-0.0047735130718954254,-0.00219378506973276
-0.004772263071895425,-0.006822005363923189
-0.0047710130718954255,-0.00649141820005254
-0.004769763071895425,-0.003516133725214754
-0.004768513071895425,-0.006491418200050285
-0.004767263071895425,-0.0018631979058603143
-0.004766013071895425,-0.006822005363923189
-0.004764763071895425,-0.003846720889085553
-0.004763513071895425,-0.004177308052956352
-0.0047622630718954255,-0.006491418200051337
-0.004761013071895425,-0.003846720889085553
-0.004759763071895425,-0.007483179691663133
-0.004758513071895425,-0.003846720889085553
-0.004757263071895425,-0.007813766855535887
-0.004756013071895425,-0.008474941183277185
-0.004754763071895425,-0.003516133725214754
-0.004753513071895425,-0.008474941183277185
-0.004752263071895425,-0.003846720889085553
-0.0047510130718954255,-0.009136115511016379
-0.004749763071895425,-0.0048384823806979504
-0.004748513071895425,-0.0051690695445695016
-0.004747263071895425,-0.006822005363923189
-0.004746013071895425,-0.0048384823806988525
-0.004744763071895425,-0.006822005363923189
-0.004743513071895425,-0.007152592527793988
-0.004742263071895425,-0.0038467208890870562
-0.004741013071895425,-0.009136115511018783
-0.0047397630718954255,-0.004507895216829256
-0.004738513071895425,-0.010458464166502424
-0.004737263071895425,-0.005499656708441503
-0.004736013071895425,-0.009797289838760825
-0.004734763071895425,-0.005499656708439549
-0.004733513071895425,-0.005499656708439549
-0.004732263071895425,-0.011119638494244022
-0.0047310130718954254,-0.007483179691666441
-0.004729763071895425,-0.009466702674889582
-0.0047285130718954255,-0.005499656708441353
-0.004727263071895425,-0.005830243872310792
-0.004726013071895425,-0.01045846416650062
-0.004724763071895425,-0.00649141820005239
-0.004723513071895425,-0.010458464166502424
-0.004722263071895425,-0.006160831036181591
-0.004721013071895425,-0.01178081282198562
-0.0047197630718954255,-0.005499656708442405
-0.004718513071895425,-0.007813766855535587
-0.004717263071895425,-0.010789051330370817
-0.004716013071895425,-0.005499656708439549
-0.004714763071895425,-0.009466702674887478
-0.004713513071895425,-0.0048384823806979504
-0.004712263071895425,-0.006160831036181591
-0.004711013071895425,-0.010458464166502424
-0.004709763071895425,-0.007152592527793988
-0.0047085130718954255,-0.009136115511017881
-0.004707263071895425,-0.0074831796916647875
-0.004706013071895425,-0.010789051330370366
-0.004704763071895425,-0.004507895216827151
-0.004703513071895425,-0.004838482380700506
-0.004702263071895425,-0.010458464166502424
-0.004701013071895425,-0.005830243872310792
-0.004699763071895425,-0.009466702674887929
-0.004698513071895425,-0.007152592527793988
-0.0046972630718954255,-0.0045078952168283535
-0.004696013071895425,-0.010127877002631624
-0.004694763071895425,-0.006822005363924843
-0.004693513071895425,-0.010458464166502424
-0.004692263071895425,-0.0074831796916647875
-0.004691013071895425,-0.010458464166502424
-0.004689763071895425,-0.007813766855535587
-0.004688513071895425,-0.008474941183276885
-0.004687263071895425,-0.01178081282198562
-0.0046860130718954255,-0.0071525925277960934
-0.004684763071895425,-0.009136115511018783
-0.004683513071895425,-0.004507895216828354
-0.004682263071895425,-0.007152592527793988
-0.004681013071895425,-0.010127877002631624
-0.004679763071895425,-0.0074831796916647875
-0.004678513071895425,-0.009797289838760825
-0.0046772630718954255,-0.004838482380700206
-0.004676013071895425,-0.008144354019406386
-0.004674763071895425,-0.006160831036181892
-0.004673513071895425,-0.006822005363923189
-0.004672263071895425,-0.010789051330371419
-0.004671013071895425,-0.006822005363923189
-0.004669763071895425,-0.009797289838760825
-0.004668513071895425,-0.006160831036181591
-0.004667263071895425,-0.004177308052956352
-0.0046660130718954255,-0.008805528347145878
-0.004664763071895425,-0.005499656708439549
-0.004663513071895425,-0.010127877002628918
-0.004662263071895425,-0.004177308052956352
-0.004661013071895425,-0.008474941183276734
-0.004659763071895425,-0.0074831796916647875
-0.004658513071895425,-0.00649141820005239
-0.004657263071895425,-0.009466702674889582
-0.004656013071895425,-0.005830243872310792
-0.0046547630718954255,-0.00880552834714663
-0.004653513071895425,-0.004507895216827151
-0.004652263071895425,-0.00384672088908856
-0.004651013071895425,-0.010458464166502424
-0.004649763071895425,-0.0048384823806979504
-0.004648513071895425,-0.0074831796916647875
-0.004647263071895425,-0.004177308052956352
-0.004646013071895425,-0.008474941183275232
-0.004644763071895425,-0.008144354019406386
-0.0046435130718954255,-0.0038467208890875073
-0.004642263071895425,-0.0074831796916647875
-0.004641013071895425,-0.004177308052957404
-0.004639763071895425,-0.00649141820005239
-0.004638513071895425,-0.004507895216827151
-0.004637263071895425,-0.004507895216827151
-0.004636013071895425,-0.008474941183277185
-0.0046347630718954255,-0.004838482380699604
-0.004633513071895425,-0.009466702674889582
-0.004632263071895425,-0.005499656708441052
-0.004631013071895425,-0.008805528347147984
-0.004629763071895425,-0.006491418200051789
-0.004628513071895425,-0.0051690695445687496
-0.004627263071895425,-0.008474941183277185
-0.004626013071895425,-0.003846720889085553
-0.004624763071895425,-0.007152592527793988
-0.0046235130718954255,-0.003185546561345759
-0.004622263071895425,-0.003516133725214754
-0.004621013071895425,-0.007813766855534083
-0.004619763071895425,-0.004507895216827151
-0.004618513071895425,-0.008144354019404281
-0.004617263071895425,-0.003516133725214754
-0.004616013071895425,-0.001202023578118716
-0.004614763071895425,-0.005499656708439549
-0.004613513071895425,-0.0025243722336023566
-0.0046122630718954255,-0.005830243872309289
-0.004611013071895425,-0.004177308052956352
-0.004609763071895425,-0.005499656708438647
-0.004608513071895425,-0.003516133725214754
-0.004607263071895425,-0.001202023578118716
-0.004606013071895425,-0.005830243872310792
-0.004604763071895425,-0.0028549593974731557
-0.004603513071895425,-0.005830243872309439
-0.004602263071895425,-0.000871436414247917
-0.0046010130718954255,0.0017732608967177175
-0.004599763071895425,-0.004507895216827151
-0.004598513071895425,-0.001863197905861968
-0.004597263071895425,-0.005499656708439549
-0.004596013071895425,-0.001202023578118716
-0.004594763071895425,-0.006160831036181591
-0.004593513071895425,-0.0015326107419895152
-0.0045922630718954255,-0.0015326107419895152
-0.004591013071895425,-0.005499656708439549
-0.0045897630718954256,-0.0015326107419913193
-0.004588513071895425,-0.005830243872310792
-0.004587263071895425,-0.0018631979058610659
-0.004586013071895425,-0.003516133725214754
-0.004584763071895425,-0.0048384823806979504
-0.004583513071895425,-0.0021937850697315575
-0.004582263071895425,-0.0025243722336023566
-0.0045810130718954255,-0.0012020235781193174
-0.004579763071895425,-0.0028549593974731557
-0.004578513071895425,-0.002854959397472103
-0.004577263071895425,-0.0005408492503771178
-0.004576013071895425,-0.0035161337252131004
-0.004574763071895425,0.00012032507736448039
-0.004573513071895425,-0.004507895216827151
-0.004572263071895425,-0.00021026208650631872
-0.004571013071895425,0.0024344352244605183
-0.0045697630718954255,-0.0018631979058583601
-0.004568513071895425,0.0011120865689768777
