hardware/ESP32_IMU_setup_NEW/støj_esp32_prototype_og_smd_pcb/støjmålinger/støj_buck_400us-div.csv

#Digilent WaveForms Oscilloscope Acquisition
#Device Name: Discovery2
#Serial Number: SN:210321B02ACE
#Date Time: 2026-04-22 11:12:52.246
#Sample rate: 2.04082e+06Hz
#Samples: 8192
#Trigger: Source: Channel 1 Type: Edge Condition: Rising Level: 0 V Hyst.: Auto HoldOff: 100 ns
#Channel 1: Range: 200 mV/div Offset: 0 V Attenuation: 1 X Zero: 3.15540585 V

Time (s),Channel 1 (V)
-0.002009409832151422,0.0011120865689768777
-0.002008919832151422,0.010699114321228076
-0.0020084298321514224,0.0034261967160729156
-0.0020079398321514222,0.0014426737328476769
-0.002007449832151422,0.003426196716075171
-0.0020069598321514224,0.008385004174133091
-0.0020064698321514223,0.00177326089671892
-0.002005979832151422,0.0027650223883313174
-0.002005489832151422,0.00012032507735876772
-0.0020049998321514224,-0.012441987149727218
-0.0020045098321514222,0.0014426737328476769
-0.002004019832151422,0.0011120865689776293
-0.0020035298321514224,0.002765022388330566
-0.0020030398321514223,0.014335573123810619
-0.002002549832151422,0.0034261967160729156
-0.0020020598321514225,0.001442673732848579
-0.0020015698321514223,-0.00021026208650631872
-0.002001079832151422,0.0024344352244605183
-0.002000589832151422,0.0014426737328469253
-0.0020000998321514224,-0.00021026208650556715
-0.0019996098321514223,0.004087371043814514
-0.001999119832151422,0.0037567838799419107
-0.0019986298321514225,-0.0002102620865045146
-0.0019981398321514223,0.002103848060589719
-0.001997649832151422,-0.0005408492503771178
-0.001997159832151422,0.002103848060587915
-0.0019966698321514224,-0.0018631979058585102
-0.0019961798321514223,0.0011120865689768777
-0.001995689832151422,0.0027650223883298143
-0.0019951998321514224,-0.0005408492503756147
-0.0019947098321514223,-0.003185546561343955
-0.001994219832151422,0.002103848060589719
-0.001993729832151422,-0.000871436414246113
-0.0019932398321514224,0.0030956095522003124
-0.0019927498321514222,0.006732068354781351
-0.001992259832151422,0.00210384806059017
-0.0019917698321514224,0.0030956095522016655
-0.0019912798321514223,-0.0005408492503771178
-0.001990789832151422,0.014666160287681418
-0.001990299832151422,0.002765022388330265
-0.0019898098321514224,0.0004509122412352795
-0.0019893198321514222,0.0030956095522021165
-0.001988829832151422,0.008054417010262443
-0.0019883398321514224,0.0034261967160750207
-0.0019878498321514223,0.0027650223883313174
-0.001987359832151422,-0.001202023578118716
-0.0019868698321514225,-0.017070207443912078
-0.0019863798321514223,0.0011120865689768777
-0.0019858898321514222,0.0004509122412352795
-0.001985399832151422,0.0037567838799369498
-0.0019849098321514224,-0.011119638494237256
-0.0019844198321514223,-0.000871436414247917
-0.001983929832151422,0.0027650223883313174
-0.0019834398321514225,0.00012032507736568299
-0.0019829498321514223,0.004417958207685313
-0.001982459832151422,0.002103848060589719
-0.001981969832151422,0.00210384806059017
-0.0019814798321514224,0.0030956095522016655
-0.0019809898321514223,0.0034261967160729156
-0.001980499832151422,-0.0015326107419880118
-0.0019800098321514224,0.001773260896717417
-0.0019795198321514223,0.0014426737328476769
-0.001979029832151422,0.0037567838799437148
-0.001978539832151422,0.0007814994051066799
-0.0019780498321514224,0.002103848060589118
-0.0019775598321514222,0.0027650223883313174
-0.001977069832151422,0.00045091224123948887
-0.0019765798321514224,0.009707352829614777
-0.0019760898321514223,0.0024344352244605183
-0.001975599832151422,-0.000871436414247917
-0.001975109832151422,0.002103848060588366
-0.0019746198321514224,-0.000871436414247917
-0.0019741298321514222,0.0011120865689768777
-0.001973639832151422,0.005079132535424205
-0.0019731498321514224,-0.0008714364142452108
-0.0019726598321514223,0.0034261967160729156
-0.001972169832151422,0.002103848060589719
-0.001971679832151422,0.0001203250773653824
-0.0019711898321514223,0.002103848060589719
-0.0019706998321514222,0.006732068354781351
-0.001970209832151422,0.0017732608967190703
-0.0019697198321514224,0.0021038480605895687
-0.0019692298321514223,-0.00021026208650631872
-0.001968739832151422,-0.010127877002631624
-0.0019682498321514225,0.002434435224454806
-0.0019677598321514223,0.00177326089671892
-0.001967269832151422,0.004087371043814514
-0.001966779832151422,0.008385004174132791
-0.0019662898321514224,0.0027650223883338727
-0.0019657998321514223,0.0030956095522021165
-0.001965309832151422,-0.0005408492503816278
-0.0019648198321514224,-0.010458464166497913
-0.0019643298321514223,0.002103848060589719
-0.001963839832151422,0.0014426737328476769
-0.001963349832151422,0.0030956095521979072
-0.0019628598321514224,-0.006160831036177381
-0.0019623698321514223,0.0014426737328476769
-0.001961879832151422,0.002103848060588817
-0.0019613898321514224,0.00012032507736538245
-0.0019608998321514223,0.0037567838799437148
-0.001960409832151422,0.0037567838799437148
-0.001959919832151422,0.0007814994051074316
-0.0019594298321514224,0.0037567838799437148
-0.0019589398321514222,-0.00021026208650631872
-0.001958449832151422,0.0034261967160729156
-0.0019579598321514224,0.0034261967160729156
-0.0019574698321514223,-0.0005408492503771178
-0.001956979832151422,0.004087371043814514
-0.001956489832151422,0.0014426737328476769
-0.0019559998321514224,0.0014426737328476769
-0.0019555098321514222,0.0037567838799437148
-0.001955019832151422,0.0004509122412352795
-0.001954529832151422,-0.003516133725214754
-0.0019540398321514223,0.0017732608967165149
-0.001953549832151422,0.00012032507736523196
-0.001953059832151422,0.0034261967160729156
-0.0019525698321514221,0.0034261967160729156
-0.001952079832151422,0.0014426737328476769
-0.001951589832151422,0.0034261967160729156
-0.001951099832151422,0.0011120865689768777
-0.001950609832151422,0.011690875812843782
-0.0019501198321514221,0.0037567838799437148
-0.001949629832151422,0.0014426737328476769
-0.0019491398321514221,0.0027650223883313174
-0.001948649832151422,-0.0025243722336023566
-0.001948159832151422,0.0007814994051060786
-0.001947669832151422,0.0034261967160729156
-0.001947179832151422,0.00012032507736448039
-0.0019466898321514221,-0.0025243722336023566
-0.001946199832151422,0.00177326089671892
-0.001945709832151422,0.0007814994051060786
-0.001945219832151422,0.0030956095522021165
-0.001944729832151422,0.0024344352244605183
-0.001944239832151422,0.004748545371556112
-0.001943749832151422,0.0030956095522021165
-0.0019432598321514221,-0.0005408492503771178
-0.001942769832151422,0.0027650223883313174
-0.001942279832151422,0.0004509122412352795
-0.001941789832151422,0.0007814994051060786
-0.001941299832151422,0.002103848060589719
-0.0019408098321514221,0.023261426548323083
-0.001940319832151422,-0.0015326107419895152
-0.001939829832151422,0.0027650223883313174
-0.001939339832151422,-0.00021026208650631872
-0.001938849832151422,0.0037567838799437148
-0.001938359832151422,0.0034261967160729156
-0.001937869832151422,0.0011120865689768777
-0.0019373798321514221,0.0037567838799437148
-0.001936889832151422,0.002103848060589719
-0.001936399832151422,0.0057403068631689536
-0.001935909832151422,0.004417958207685313
-0.001935419832151422,0.0011120865689768777
-0.001934929832151422,0.0027650223883313174
-0.001934439832151422,-0.0005408492503771178
-0.0019339498321514221,0.0004509122412352795
-0.001933459832151422,0.0027650223883313174
-0.001932969832151422,-0.000871436414247917
-0.001932479832151422,0.009046178501876945
-0.001931989832151422,0.004087371043814514
-0.0019314998321514221,0.0011120865689768777
-0.001931009832151422,0.0037567838799437148
-0.001930519832151422,0.0030956095522021165
-0.001930029832151422,0.0030956095522021165
-0.001929539832151422,0.004748545371556112
-0.001929049832151422,0.00177326089671892
-0.001928559832151422,0.010699114321231384
-0.0019280698321514221,0.002103848060589719
-0.001927579832151422,-0.00021026208650631872
-0.001927089832151422,0.0034261967160729156
-0.001926599832151422,-0.0051690695445687496
-0.001926109832151422,-0.000871436414247917
-0.0019256198321514221,0.0030956095522021165
-0.001925129832151422,0.0024344352244605183
-0.0019246398321514221,0.004748545371556112
-0.001924149832151422,0.0027650223883313174
-0.001923659832151422,0.00012032507736448039
-0.001923169832151422,0.004748545371556112
-0.001922679832151422,0.010037939993489786
-0.0019221898321514221,0.004087371043814514
-0.001921699832151422,0.0030956095522021165
-0.001921209832151422,0.0011120865689768777
-0.001920719832151422,0.005079132535426911
-0.001920229832151422,0.0030956095522021165
-0.001919739832151422,0.0027650223883313174
-0.001919249832151422,0.004087371043814514
-0.0019187598321514221,0.00012032507736448039
-0.001918269832151422,-0.004507895216827151
-0.001917779832151422,0.0030956095522021165
-0.001917289832151422,-0.001202023578118716
-0.001916799832151422,0.005079132535426911
-0.0019163098321514221,-0.0005408492503771178
-0.001915819832151422,0.0007814994051060786
-0.0019153298321514221,0.004087371043814514
-0.001914839832151422,0.0007814994051060786
-0.001914349832151422,0.009707352829618987
-0.001913859832151422,0.0037567838799437148
-0.001913369832151422,0.0011120865689768777
-0.0019128798321514221,0.0034261967160729156
-0.001912389832151422,0.006732068354781351
-0.001911899832151422,0.002103848060589719
-0.001911409832151422,0.0027650223883313174
-0.001910919832151422,0.0014426737328476769
-0.001910429832151422,-0.010127877002631624
-0.001909939832151422,0.002103848060589719
-0.0019094498321514221,0.0014426737328476769
-0.001908959832151422,0.005079132535426911
-0.001908469832151422,0.0004509122412352795
-0.001907979832151422,0.0024344352244605183
-0.001907489832151422,0.0024344352244605183
-0.0019069998321514221,0.0004509122412352795
-0.001906509832151422,0.00177326089671892
-0.001906019832151422,0.0034261967160729156
-0.001905529832151422,0.00177326089671892
-0.001905039832151422,0.0034261967160729156
-0.001904549832151422,-0.01178081282198562
-0.001904059832151422,0.004087371043814514
-0.0019035698321514221,0.0027650223883313174
-0.001903079832151422,0.00012032507736448039
-0.001902589832151422,0.0027650223883313174
-0.001902099832151422,0.0014426737328476769
-0.001901609832151422,0.00177326089671892
-0.0019011198321514221,0.0024344352244605183
-0.001900629832151422,-0.001202023578118716
-0.0019001398321514221,0.0014426737328476769
-0.001899649832151422,0.0037567838799437148
-0.001899159832151422,0.0007814994051060786
-0.001898669832151422,0.005079132535426911
-0.001898179832151422,0.0057403068631689536
-0.0018976898321514221,0.0027650223883313174
-0.001897199832151422,0.004087371043814514
-0.001896709832151422,-0.0005408492503771178
-0.001896219832151422,0.008715591338006146
-0.001895729832151422,0.004417958207685313
-0.001895239832151422,0.0024344352244605183
-0.001894749832151422,0.0027650223883313174
-0.0018942598321514221,-0.000871436414247917
-0.001893769832151422,0.0004509122412352795
-0.001893279832151422,0.0037567838799437148
-0.001892789832151422,0.002103848060589719
-0.001892299832151422,-0.000871436414247917
-0.0018918098321514221,0.0027650223883313174
-0.001891319832151422,0.0004509122412352795
-0.0018908298321514221,0.0030956095522021165
-0.001890339832151422,0.010368527157360585
-0.001889849832151422,0.0011120865689768777
-0.001889359832151422,0.0027650223883313174
-0.001888869832151422,-0.00021026208650631872
-0.0018883798321514221,-0.0051690695445687496
-0.001887889832151422,0.0027650223883313174
-0.001887399832151422,0.0034261967160729156
-0.001886909832151422,0.0034261967160729156
-0.001886419832151422,0.008054417010264547
-0.001885929832151422,0.004748545371556112
-0.001885439832151422,0.0007814994051060786
-0.0018849498321514221,0.0007814994051060786
-0.001884459832151422,0.0037567838799437148
-0.001883969832151422,-0.0005408492503771178
-0.001883479832151422,0.002103848060589719
-0.001882989832151422,0.00177326089671892
-0.0018824998321514221,0.0014426737328476769
-0.001882009832151422,0.0037567838799437148
-0.001881519832151422,0.0027650223883313174
-0.001881029832151422,0.00012032507736448039
-0.001880539832151422,0.004417958207685313
-0.001880049832151422,0.0004509122412352795
-0.001879559832151422,0.00177326089671892
-0.0018790698321514221,0.004748545371556112
-0.001878579832151422,-0.0005408492503771178
-0.001878089832151422,0.00177326089671892
-0.001877599832151422,0.0030956095522021165
-0.001877109832151422,0.0004509122412352795
-0.0018766198321514221,0.0030956095522021165
-0.001876129832151422,0.004417958207685313
-0.0018756398321514221,0.0034261967160729156
-0.001875149832151422,0.0030956095522021165
-0.001874659832151422,-0.00021026208650631872
-0.001874169832151422,0.00177326089671892
-0.001873679832151422,0.0030956095522021165
-0.0018731898321514221,-0.00021026208650631872
-0.001872699832151422,0.0027650223883313174
-0.001872209832151422,-0.003516133725214754
-0.001871719832151422,0.0007814994051060786
-0.001871229832151422,0.0030956095522021165
-0.001870739832151422,0.0004509122412352795
-0.001870249832151422,0.009707352829618987
-0.0018697598321514221,0.002103848060589719
-0.001869269832151422,0.0004509122412352795
-0.001868779832151422,0.0030956095522021165
-0.001868289832151422,0.01202146297671458
-0.001867799832151422,0.005079132535426911
-0.0018673098321514221,0.004087371043814514
-0.001866819832151422,-0.000871436414247917
-0.0018663298321514221,0.0037567838799437148
-0.001865839832151422,0.00012032507736448039
-0.001865349832151422,0.00177326089671892
-0.001864859832151422,0.0030956095522021165
-0.001864369832151422,0.015657921779293815
-0.0018638798321514221,-0.0005408492503771178
-0.001863389832151422,0.0037567838799437148
-0.001862899832151422,-0.000871436414247917
-0.001862409832151422,0.0030956095522021165
-0.001861919832151422,0.0014426737328476769
-0.001861429832151422,0.002103848060589719
-0.001860939832151422,0.0037567838799437148
-0.0018604498321514221,-0.0021937850697315575
-0.001859959832151422,0.0027650223883313174
-0.001859469832151422,0.002103848060589719
-0.001858979832151422,0.0004509122412352795
-0.001858489832151422,0.0030956095522021165
-0.0018579998321514221,-0.000871436414247917
-0.001857509832151422,-0.00021026208650631872
-0.001857019832151422,0.0034261967160729156
-0.001856529832151422,-0.001202023578118716
-0.001856039832151422,0.0057403068631689536
-0.001855549832151422,0.0030956095522021165
-0.001855059832151422,-0.00021026208650631872
-0.0018545698321514221,0.0027650223883313174
-0.001854079832151422,0.0054097196992981544
-0.001853589832151422,0.0024344352244605183
-0.001853099832151422,0.0024344352244605183
-0.001852609832151422,-0.0015326107419895152
-0.0018521198321514221,-0.010789051330373223
-0.001851629832151422,0.0004509122412352795
-0.0018511398321514221,0.0011120865689768777
-0.001850649832151422,0.006070894027039753
-0.001850159832151422,0.009707352829618987
-0.001849669832151422,0.0011120865689768777
-0.001849179832151422,0.0037567838799437148
-0.0018486898321514221,-0.0005408492503771178
-0.001848199832151422,0.0037567838799437148
-0.001847709832151422,0.00177326089671892
-0.001847219832151422,0.0004509122412352795
-0.001846729832151422,0.0034261967160729156
-0.001846239832151422,0.02094731640122749
-0.001845749832151422,0.0034261967160729156
-0.0018452598321514221,0.0030956095522021165
-0.001844769832151422,0.0004509122412352795
-0.001844279832151422,0.004417958207685313
-0.001843789832151422,0.0007814994051060786
-0.001843299832151422,0.002103848060589719
-0.0018428098321514221,0.0037567838799437148
-0.001842319832151422,0.002103848060589719
-0.0018418298321514221,-0.0018631979058603143
-0.001841339832151422,0.002103848060589719
-0.001840849832151422,-0.0005408492503771178
-0.001840359832151422,0.0030956095522021165
-0.001839869832151422,0.0004509122412352795
-0.0018393798321514221,-0.00021026208650631872
-0.001838889832151422,0.0030956095522021165
-0.001838399832151422,-0.0005408492503771178
-0.001837909832151422,0.009046178501876945
-0.001837419832151422,0.0014426737328476769
-0.001836929832151422,0.00012032507736448039
-0.001836439832151422,0.0027650223883313174
-0.0018359498321514221,-0.000871436414247917
-0.001835459832151422,0.0007814994051060786
-0.001834969832151422,0.004087371043814514
-0.001834479832151422,0.00012032507736448039
-0.001833989832151422,0.015657921779293815
-0.0018334998321514221,0.004087371043814514
-0.001833009832151422,0.0014426737328476769
-0.001832519832151422,0.00177326089671892
-0.001832029832151422,-0.008474941183277185
-0.001831539832151422,0.00012032507736448039
-0.001831049832151422,0.0034261967160729156
-0.001830559832151422,-0.00021026208650631872
-0.0018300698321514221,0.0030956095522021165
-0.001829579832151422,0.00012032507736448039
-0.001829089832151422,0.00012032507736448039
-0.001828599832151422,0.0034261967160729156
-0.001828109832151422,0.022930839384452284
-0.0018276198321514222,0.00012032507736448039
-0.001827129832151422,0.0024344352244605183
-0.0018266398321514221,-0.00021026208650631872
-0.001826149832151422,0.0034261967160729156
-0.001825659832151422,-0.000871436414247917
-0.001825169832151422,0.00012032507736448039
-0.001824679832151422,0.0034261967160729156
-0.0018241898321514221,-0.000871436414247917
-0.001823699832151422,0.009376765665748188
-0.001823209832151422,0.004087371043814514
-0.001822719832151422,0.0004509122412352795
-0.001822229832151422,0.0024344352244605183
-0.001821739832151422,0.0011120865689768777
-0.001821249832151422,0.00012032507736448039
-0.0018207598321514221,0.002103848060589719
-0.001820269832151422,0.0007814994051060786
-0.001819779832151422,-0.007813766855535587
-0.001819289832151422,0.0027650223883313174
-0.001818799832151422,-0.00021026208650631872
-0.0018183098321514221,0.0034261967160729156
-0.001817819832151422,-0.000871436414247917
-0.0018173298321514221,0.0014426737328476769
-0.001816839832151422,0.0024344352244605183
-0.001816349832151422,-0.000871436414247917
-0.001815859832151422,0.02028614207348589
-0.001815369832151422,0.00177326089671892
-0.0018148798321514221,0.0014426737328476769
-0.001814389832151422,0.0027650223883313174
-0.001813899832151422,-0.0028549593974731557
-0.001813409832151422,0.0014426737328476769
-0.001812919832151422,0.002103848060589719
-0.001812429832151422,0.00012032507736448039
-0.001811939832151422,0.0037567838799437148
-0.0018114498321514221,0.002103848060589719
-0.001810959832151422,0.0014426737328476769
-0.001810469832151422,0.0037567838799437148
-0.001809979832151422,0.013013224468327422
-0.001809489832151422,-0.0028549593974731557
-0.0018089998321514221,0.0027650223883313174
-0.001808509832151422,0.0004509122412352795
-0.001808019832151422,0.004417958207685313
-0.001807529832151422,-0.0018631979058603143
-0.001807039832151422,0.00012032507736448039
-0.001806549832151422,0.0024344352244605183
-0.001806059832151422,0.0011120865689768777
-0.0018055698321514221,-0.0021937850697315575
-0.001805079832151422,0.0034261967160729156
-0.001804589832151422,-0.0005408492503771178
-0.001804099832151422,0.0037567838799437148
-0.001803609832151422,-0.004177308052956352
-0.0018031198321514222,-0.0005408492503771178
-0.001802629832151422,0.0024344352244605183
-0.0018021398321514221,-0.0015326107419895152
-0.001801649832151422,0.011029701485102184
-0.001801159832151422,0.0004509122412352795
-0.001800669832151422,0.00177326089671892
-0.001800179832151422,0.0037567838799437148
-0.0017996898321514221,0.008054417010264547
-0.001799199832151422,0.002103848060589719
-0.001798709832151422,0.004748545371556112
-0.001798219832151422,0.0004509122412352795
-0.001797729832151422,0.00012032507736448039
-0.001797239832151422,0.002103848060589719
-0.001796749832151422,0.0004509122412352795
-0.0017962598321514221,0.0027650223883313174
-0.001795769832151422,0.010699114321231384
-0.001795279832151422,0.0024344352244605183
-0.001794789832151422,0.0037567838799437148
-0.001794299832151422,-0.00021026208650631872
-0.0017938098321514221,0.0027650223883313174
-0.001793319832151422,0.0024344352244605183
-0.0017928298321514221,-0.000871436414247917
-0.001792339832151422,0.00177326089671892
