hardware/ESP32_IMU_setup_NEW/støj_esp32_prototype_og_smd_pcb/støjmålinger/støj_esp32_blesend-1ms-div3.csv

#Digilent WaveForms Oscilloscope Acquisition
#Device Name: Discovery2
#Serial Number: SN:210321B02ACE
#Date Time: 2026-04-22 11:37:42.514
#Sample rate: 800000Hz
#Samples: 8192
#Trigger: Source: Channel 1 Type: Edge Condition: Falling Level: -50 mV Hyst.: Auto HoldOff: 100 ns
#Channel 1: Range: 200 mV/div Offset: 0 V Attenuation: 1 X Zero: 3.15540585 V

Time (s),Channel 1 (V)
-0.00512,0.0034261967160729156
-0.00511875,0.004748545371556112
-0.0051175,-0.0015326107419869595
-0.00511625,0.004087371043814514
-0.005115,-0.0015326107419895152
-0.00511375,0.004417958207685313
-0.0051125,-0.001202023578118716
-0.00511125,0.004417958207682758
-0.00511,0.004748545371556112
-0.00510875,-0.002854959397469097
-0.0051075,0.006070894027039753
-0.00510625,-0.001863197905857909
-0.005105,0.0034261967160729156
-0.00510375,-0.0005408492503771178
-0.0051025,0.0014426737328476769
-0.00510125,0.0054097196992981544
-0.0051,-0.0005408492503744117
-0.00509875,0.0027650223883313174
-0.0050975,-0.0012020235781166114
-0.00509625,0.0034261967160729156
-0.005095,0.0007814994051048759
-0.00509375,-0.0018631979058603143
-0.0050925,0.0024344352244605183
-0.00509125,-0.001532610741987711
-0.00509,0.004087371043814514
-0.00508875,-0.0012020235781163109
-0.0050875,0.0037567838799437148
-0.00508625,0.002103848060588216
-0.005085,-0.001202023578118716
-0.00508375,0.0030956095522021165
-0.0050825,-0.0005408492503771178
-0.00508125,0.005079132535426911
-0.00508,-0.00021026208650391353
-0.00507875,-0.00021026208650631872
-0.0050775,0.005740306863166247
-0.00507625,-0.00021026208650631872
-0.005075,0.004087371043811808
-0.00507375,-0.0018631979058603143
-0.0050725,0.0027650223883313174
-0.00507125,0.004417958207685313
-0.00507,-0.000871436414247917
-0.00506875,0.004087371043812259
-0.0050675,-0.000871436414247917
-0.00506625,0.0030956095521997113
-0.005065,-0.0021937850697315575
-0.00506375,0.0034261967160742687
-0.0050625,0.006401481190910552
-0.00506125,-0.0015326107419895152
-0.00506,0.0030956095522021165
-0.00505875,-0.000871436414247917
-0.0050575,0.0037567838799416097
-0.00505625,0.0004509122412352795
-0.005055,0.0011120865689777798
-0.00505375,0.0030956095522021165
-0.0050525,-0.003516133725211146
-0.00505125,0.004417958207685313
-0.00505,-0.0015326107419895152
-0.00504875,0.0037567838799413096
-0.0050475,0.005079132535426911
-0.00504625,0.00012032507736673553
-0.005045,0.0030956095522021165
-0.00504375,-0.0005408492503759151
-0.0050425,0.002103848060589719
-0.00504125,-0.003185546561343955
-0.00504,0.005079132535426911
-0.00503875,0.0011120865689768777
-0.0050375,-0.0008714364142470149
-0.00503625,0.0030956095522021165
-0.005035,-0.0025243722335998014
-0.00503375,0.0030956095522021165
-0.0050325,-0.00351613372521295
-0.00503125,0.0004509122412352795
-0.00503,0.002103848060589719
-0.00502875,-0.000871436414247917
-0.0050275,0.0030956095522021165
-0.00502625,-0.0021937850697291523
-0.005025,0.0030956095522021165
-0.00502375,0.009376765665743378
-0.0050225,-0.001202023578118716
-0.00502125,0.0034261967160702095
-0.00502,-0.0025243722336023566
-0.00501875,0.002103848060589719
-0.0050175,-0.0015326107419895152
-0.00501625,0.0024344352244605183
-0.005015,0.0034261967160724646
-0.00501375,-0.0018631979058603143
-0.0050125,0.002103848060587915
-0.00501125,-0.0018631979058603143
-0.00501,0.0004509122412334755
-0.00500875,-0.003516133725214754
-0.0050075,-0.0025243722336023566
-0.00500625,0.0014426737328476769
-0.005005,-0.0015326107419895152
-0.00500375,0.002434435224458714
-0.0050025,-0.003516133725214754
-0.00500125,0.0021038480605900197
-0.005,0.0027650223883313174
-0.00499875,-0.0025243722336023566
-0.0049975,0.0024344352244605183
-0.00499625,-0.0025243722336023566
-0.004995,0.0011120865689752241
-0.00499375,-0.003516133725214754
-0.0049925,0.002103848060587164
-0.00499125,0.0007814994051060786
-0.00499,-0.0025243722336005525
-0.00498875,0.0014426737328476769
-0.0049875,-0.004177308052956352
-0.00498625,0.002103848060589719
-0.004985,0.0004509122412352795
-0.00498375,-0.0012020235781179645
-0.0049825,0.00177326089671892
-0.00498125,-0.0021937850697291523
-0.00498,0.0030956095522021165
-0.00497875,-0.0028549593974704496
-0.0049775,0.0030956095522021165
-0.00497625,0.0030956095522021165
-0.004975,-0.003516133725214754
-0.00497375,0.00177326089671892
-0.0049725,-0.003846720889082998
-0.00497125,0.0037567838799437148
-0.00497,-0.003516133725213401
-0.00496875,-0.0005408492503771178
-0.0049675,0.004417958207682457
-0.00496625,-0.0018631979058603143
-0.004965,0.0014426737328476769
-0.00496375,-0.004177308052956352
-0.0049625,0.0014426737328476769
-0.00496125,0.00012032507736508169
-0.00496,-0.003185546561343955
-0.00495875,0.0014426737328460232
-0.0049575,-0.0021937850697315575
-0.00495625,0.0011120865689768777
-0.004955,-0.003846720889085553
-0.00495375,0.0007814994051060786
-0.0049525,0.00045091224123542983
-0.00495125,-0.003846720889085553
-0.00495,0.0017732608967163648
-0.00494875,-0.003846720889085553
-0.0049475,0.0011120865689752241
-0.00494625,-0.0025243722336023566
-0.004945,-0.003516133725214754
-0.00494375,0.0037567838799437148
-0.0049425,-0.003846720889085553
-0.00494125,0.0011120865689746226
-0.00494,-0.0015326107419895152
-0.00493875,0.0030956095522000114
-0.0049375,0.008385004174135346
-0.00493625,-0.002854959397471502
-0.004935,0.0007814994051060786
-0.00493375,-0.0028549593974731557
-0.0049325,0.0014426737328476769
-0.00493125,-0.0021937850697315575
-0.00493,0.0027650223883290623
-0.00492875,0.0037567838799437148
-0.0049275,-0.0012020235781166114
-0.00492625,0.0034261967160729156
-0.004925,-0.0028549593974704496
-0.00492375,0.0030956095522021165
-0.0049225,-0.003185546561343955
-0.00492125,-0.004177308052956352
-0.00492,-0.0005408492503771178
-0.00491875,-0.003516133725213401
-0.0049175,0.004417958207685313
-0.00491625,-0.002854959397471502
-0.004915,0.0007814994051060786
-0.00491375,0.00045091224123407686
-0.0049125,-0.0021937850697315575
-0.00491125,0.0027650223883313174
-0.00491,-0.0028549593974706005
-0.00490875,0.00177326089671892
-0.0049075,-0.004177308052953646
-0.00490625,0.002103848060589719
-0.004905,0.001442673732845873
-0.00490375,-0.0025243722336023566
-0.0049025,0.0014426737328476769
-0.00490125,-0.0025243722336023566
-0.0049,0.0027650223883313174
-0.00489875,0.004417958207684562
-0.0048975,-0.0028549593974731557
-0.00489625,0.002103848060587464
-0.004895,-0.0025243722336023566
-0.00489375,0.0004509122412334755
-0.0048925,-0.003516133725214754
-0.00489125,0.00177326089671892
-0.00489,0.0007814994051060786
-0.00488875,-0.003516133725214754
-0.0048875,0.0034261967160697585
-0.00488625,-0.005499656708439549
-0.004885,0.0011120865689749234
-0.00488375,-0.003185546561343955
-0.0048825,-0.003846720889082697
-0.00488125,0.0024344352244605183
-0.00488,-0.0021937850697315575
-0.00487875,0.0014426737328476769
-0.0048775,-0.003846720889085553
-0.00487625,0.0014426737328452717
-0.004875,0.0030956095522021165
-0.00487375,-0.003846720889083749
-0.0048725,0.00012032507736448039
-0.00487125,-0.004177308052955149
-0.00487,-0.0015326107419895152
-0.00486875,-0.006822005363923189
-0.0048675,-0.00649141820005254
-0.00486625,-0.003846720889085553
-0.004865,-0.0054996567084387975
-0.00486375,-0.003516133725214754
-0.0048625,-0.00781376685553258
-0.00486125,-0.001202023578118716
-0.00486,-0.00649141820005239
-0.00485875,-0.005499656708439549
-0.0048575,-0.0015326107419895152
-0.00485625,-0.004507895216825798
-0.004855,0.00012032507736448039
-0.00485375,-0.005169069544566344
-0.0048525,-0.0015326107419895152
-0.00485125,0.0027650223883272586
-0.00485,-0.006160831036181591
-0.00484875,0.0014426737328476769
-0.0048475,-0.003516133725214754
-0.00484625,0.00177326089671892
-0.004845,-0.004838482380694944
-0.00484375,-0.006822005363923189
-0.0048425,0.0017732608967163644
-0.00484125,-0.003846720889085553
-0.00484,0.0007814994051045753
-0.00483875,-0.0025243722336023566
-0.0048375,0.002103848060589719
-0.00483625,0.0024344352244605183
-0.004835,-0.004177308052956352
-0.00483375,0.0011120865689744725
-0.0048325,-0.003516133725214754
-0.00483125,0.0011120865689744723
-0.00483,-0.004177308052956352
-0.00482875,0.0014426737328476769
-0.0048275,0.0014426737328476769
-0.00482625,-0.003516133725214754
-0.004825,0.0004509122412334754
-0.00482375,-0.004507895216827151
-0.0048225,0.002103848060586713
-0.00482125,-0.004177308052956352
-0.00482,-0.0005408492503768172
-0.00481875,0.00012032507736448039
-0.0048175,-0.003185546561343955
-0.00481625,0.00177326089671892
-0.004815,-0.0021937850697315575
-0.00481375,0.0011120865689753746
-0.0048125,0.0057403068631689536
-0.00481125,-0.001532610741986208
-0.00481,0.002103848060589719
-0.00480875,-0.0025243722335999514
-0.0048075,0.0027650223883313174
-0.00480625,-0.003516133725214754
-0.004805,0.0030956095522021165
-0.00480375,0.00012032507736448039
-0.0048025,-0.0035161337252131004
-0.00480125,0.00177326089671892
-0.0048,-0.0008714364142456619
-0.00479875,0.004087371043814514
-0.0047975,-0.004507895216825648
-0.00479625,-0.001202023578118716
-0.004795,0.002103848060589719
-0.00479375,-0.0015326107419895152
-0.0047925,0.002103848060589719
-0.00479125,-0.0031855465613415497
-0.00479,0.0034261967160729156
-0.00478875,0.006732068354778044
-0.0047875,-0.0005408492503771178
-0.00478625,0.005079132535423905
-0.004785,-0.0015326107419895152
-0.00478375,0.004417958207685313
-0.0047825,-0.0035161337252111458
-0.00478125,0.00177326089671892
-0.00478,0.0027650223883308664
-0.00477875,-0.0021937850697315575
-0.0047775,0.0030956095522007634
-0.00477625,0.00012032507736448039
-0.004775,0.0027650223883313174
-0.00477375,-0.0018631979058603143
-0.0047725,-0.00021026208650631872
-0.00477125,0.0030956095522006134
-0.00477,-0.0021937850697315575
-0.00476875,0.002103848060587765
-0.0047675,-0.003516133725214754
-0.00476625,0.004417958207686365
-0.004765,0.006732068354781351
-0.00476375,-0.0018631979058603143
-0.0047625,0.00177326089671892
-0.00476125,-0.0015326107419895152
-0.00476,0.004087371043811959
-0.00475875,-0.003185546561343955
-0.0047575,0.003095609552200914
-0.00475625,0.0004509122412352795
-0.004755,-0.0005408492503748628
-0.00475375,0.004417958207685313
-0.0047525,-0.0018631979058603143
-0.00475125,0.0024344352244605183
-0.00475,-0.0028549593974731557
-0.00474875,-0.002193785069731858
-0.0047475,0.005079132535426911
-0.00474625,-0.0008714364142455117
-0.004745,0.004417958207685313
-0.00474375,-0.0021937850697288513
-0.0047425,0.0037567838799437148
-0.00474125,0.0007814994051060786
-0.00474,0.00012032507736478104
-0.00473875,0.0027650223883313174
-0.0047375,-0.001202023578116912
-0.00473625,0.0037567838799437148
-0.004735,-0.0018631979058580594
-0.00473375,0.0030956095522021165
-0.0047325,0.0027650223883313174
-0.00473125,-0.0028549593974731557
-0.00473,0.0027650223883313174
-0.00472875,-0.0035161337252118978
-0.0047275,0.004417958207685313
-0.00472625,-0.001863197905857458
-0.004725,-0.000871436414247917
-0.00472375,0.00375678387994161
-0.0047225,-0.000871436414247917
-0.00472125,0.002103848060589719
-0.00472,-0.0015326107419895152
-0.00471875,0.0034261967160729156
-0.0047175,0.00904617850187439
-0.00471625,-0.0015326107419895152
-0.004715,0.004087371043811959
-0.00471375,-0.0015326107419895152
-0.0047125,0.0030956095522001624
-0.00471125,-0.001202023578118716
-0.00471,0.004087371043814514
-0.00470875,0.005079132535426911
-0.0047075,-0.000871436414247917
-0.00470625,0.004087371043812259
-0.004705,-0.000871436414247917
-0.00470375,0.0037567838799414596
-0.0047025,-0.001202023578118716
-0.00470125,-0.0005408492503757649
-0.0047,0.0024344352244605183
-0.00469875,-0.0015326107419895152
-0.0046975,0.0037567838799413096
-0.00469625,-0.0015326107419895152
-0.004695,0.002434435224458714
-0.00469375,-0.0005408492503771178
-0.0046925,-0.0015326107419871098
-0.00469125,0.0037567838799437148
-0.00469,-0.00021026208650631872
-0.00468875,0.0027650223883313174
-0.0046875,-0.0018631979058603143
-0.00468625,0.004087371043811808
-0.004685,0.0024344352244605183
-0.00468375,-0.0025243722336001015
-0.0046825,0.0024344352244605183
-0.00468125,-0.0005408492503756145
-0.00468,0.0027650223883313174
-0.00467875,-0.003516133725214754
-0.0046775,-0.001202023578118716
-0.00467625,0.0034261967160729156
-0.004675,-0.0028549593974702995
-0.00467375,0.0037567838799437148
-0.0046725,-0.0025243722335995004
-0.00467125,0.0037567838799437148
-0.00467,0.0021038480605880656
-0.00466875,-0.0015326107419895152
-0.0046675,0.0034261967160729156
-0.00466625,-0.0005408492503771178
-0.004665,0.0037567838799437148
-0.00466375,-0.0021937850697288513
-0.0046625,0.002103848060589719
-0.00466125,0.0037567838799405576
-0.00466,-0.003185546561343955
-0.00465875,0.0030956095521998614
-0.0046575,-0.0018631979058603143
-0.00465625,0.002103848060589719
-0.004655,-0.0028549593974731557
-0.00465375,-0.0018631979058603143
-0.0046525,0.002103848060587915
-0.00465125,-0.0021937850697315575
-0.00465,0.002103848060587013
-0.00464875,-0.003846720889085553
-0.0046475,0.0024344352244605183
-0.00464625,-0.0018631979058603143
-0.004645,-0.004177308052956352
-0.00464375,0.001773260896716214
-0.0046425,-0.003846720889085553
-0.00464125,0.0017732608967163648
-0.00464,-0.0025243722336023566
-0.00463875,0.003426196716073066
-0.0046375,0.0037567838799437148
-0.00463625,-0.000871436414247917
-0.004635,0.0024344352244605183
-0.00463375,-0.0018631979058603143
-0.0046325,0.002434435224458564
-0.00463125,-0.0021937850697315575
-0.00463,-0.0018631979058576084
-0.00462875,0.004087371043814514
-0.0046275,-0.0021937850697296033
-0.00462625,0.002103848060589719
-0.004625,-0.0028549593974731557
-0.00462375,0.0027650223883313174
-0.0046225,0.004087371043814514
-0.00462125,-0.0021937850697287013
-0.00462,0.0030956095522021165
-0.00461875,-0.00186319790585836
-0.0046175,0.0024344352244605183
-0.00461625,-0.003846720889082847
-0.004615,0.002103848060589719
-0.00461375,0.0037567838799437148
-0.0046125,-0.0028549593974731557
-0.00461125,0.0030956095522021165
-0.00461,-0.004177308052953045
-0.00460875,0.0024344352244605183
-0.0046075,-0.004177308052956051
-0.00460625,-0.003516133725214754
-0.004605,0.0037567838799437148
-0.00460375,-0.003846720889085553
-0.0046025,0.0014426737328476769
-0.00460125,-0.004177308052953797
-0.0046,0.00177326089671892
-0.00459875,0.0014426737328478271
-0.0045975,-0.0021937850697315575
-0.00459625,0.002434435224458113
-0.004595,-0.0028549593974731557
-0.00459375,0.00177326089671892
-0.0045925,-0.003185546561343955
-0.00459125,0.0007814994051060786
-0.00459,-0.0008714364142471654
-0.00458875,-0.003516133725214754
-0.0045875,0.0014426737328454217
-0.00458625,-0.004507895216827151
-0.004585,0.0021038480605871635
-0.00458375,-0.003516133725214754
-0.0045825,0.0011120865689768777
-0.00458125,0.0011120865689768777
-0.00458,-0.0025243722336023566
-0.00457875,0.001773260896716966
-0.0045775,-0.003846720889085553
-0.00457625,0.0007814994051050263
-0.004575,-0.0015326107419895152
-0.00457375,-0.004507895216823543
-0.0045725,0.0034261967160729156
-0.00457125,-0.0028549593974731557
-0.00457,0.00177326089671892
-0.00456875,-0.0025243722336023566
-0.0045675,0.0027650223883289122
-0.00456625,0.0027650223883313174
-0.004565,-0.0018631979058591117
-0.00456375,0.0007814994051060786
-0.0045625,-0.004838482380695395
-0.00456125,0.0007814994051060786
-0.00456,-0.003516133725214754
-0.00455875,0.0017732608967165149
-0.0045575,0.0014426737328476769
-0.00455625,-0.002193785069729904
-0.004555,0.0011120865689768777
-0.00455375,-0.004507895216823994
-0.0045525,0.0024344352244605183
-0.00455125,0.0030956095522021165
-0.00455,-0.0025243722336023566
-0.00454875,0.0014426737328476769
-0.0045475,-0.004177308052953797
-0.00454625,0.002103848060589719
-0.004545,-0.0018631979058585102
-0.00454375,0.0024344352244605183
-0.0045425,-0.0008714364142495706
-0.00454125,-0.004507895216827151
-0.00454,0.0014426737328476769
-0.00453875,-0.004507895216827151
-0.0045375,0.0014426737328476769
-0.00453625,-0.0028549593974712016
-0.004535,-0.003516133725214754
-0.00453375,0.000781499405103974
-0.0045325,-0.003846720889085553
-0.00453125,0.002103848060587765
-0.00453,-0.0021937850697315575
-0.00452875,0.002103848060589719
-0.0045275,0.0057403068631689536
-0.00452625,-0.003185546561343955
-0.004525,0.0027650223883286112
-0.00452375,-0.0018631979058603143
-0.0045225,0.0007814994051035229
-0.00452125,-0.0048384823806979504
-0.00452,0.0021038480605886666
-0.00451875,-0.00021026208650631872
-0.0045175,-0.0018631979058603143
-0.00451625,0.002103848060587915
-0.004515,-0.003185546561343955
-0.00451375,0.001773260896716665
-0.0045125,-0.0025243722336023566
-0.00451125,-0.0012020235781172127
-0.00451,0.002103848060589719
-0.00450875,-0.0018631979058603143
-0.0045075,0.00012032507736448039
-0.00450625,-0.003846720889085553
-0.004505,0.0014426737328452717
-0.00450375,-0.001202023578118716
-0.0045025,-0.0035161337252137014
-0.00450125,0.002103848060589719
-0.0045,-0.0031855465613421508
-0.00449875,0.0007814994051060786
-0.0044975,-0.0015326107419895152
-0.00449625,0.0014426737328476769
-0.004495,-0.001202023578118716
-0.00449375,-0.0035161337252137014
-0.0044925,0.0030956095522021165
-0.00449125,-0.003846720889083148
-0.00449,0.0014426737328476769
-0.00448875,-0.0028549593974736068
-0.0044875,-0.003846720889085553
-0.00448625,0.0024344352244605183
-0.004485,-0.003846720889085553
-0.00448375,0.002103848060589719
-0.0044825,-0.0025243722336002515
-0.00448125,0.002103848060589719
-0.00448,0.006070894027034942
-0.00447875,-0.004507895216827151
-0.0044775,0.002103848060587314
-0.00447625,-0.003185546561343955
-0.004475,0.0024344352244605183
-0.00447375,-0.0028549593974707506
-0.0044725,0.0011120865689768777
-0.00447125,0.00045091224123558016
-0.00447,-0.001202023578118716
-0.00446875,0.0014426737328467748
-0.0044675,-0.0005408492503771178
-0.00446625,0.0027650223883313174
-0.004465,-0.001202023578118716
-0.00446375,-0.003516133725214754
-0.0044625,0.0030956095521991103
-0.00446125,-0.003516133725214754
-0.00446,0.002765022388328461
-0.00445875,-0.0021937850697315575
-0.0044575,0.0030956095522034696
-0.00445625,0.006070894027039753
-0.004455,-0.0028549593974731557
-0.00445375,0.0027650223883313174
-0.0044525,-0.0028549593974731557
-0.00445125,0.00045091224123377637
-0.00445,-0.0021937850697315575
-0.00444875,0.002765022388331618
-0.0044475,0.0034261967160729156
-0.00444625,-0.0031855465613423012
-0.004445,0.0004509122412352795
-0.00444375,-0.0028549593974731557
-0.0044425,0.0030956095522021165
-0.00444125,-0.003185546561343955
-0.00444,-0.002524372233602657
-0.00443875,0.0027650223883313174
-0.0044375,-0.0028549593974706
-0.00443625,0.0027650223883313174
-0.004435,-0.0028549593974706
-0.00443375,0.0027650223883313174
-0.0044325,-0.0021937850697315575
-0.00443125,-0.0015326107419898157
-0.00443,0.0024344352244605183
-0.00442875,-0.0025243722336001015
-0.0044275,0.0011120865689768777
-0.00442625,-0.0031855465613420007
-0.004425,0.0011120865689768777
-0.00442375,0.004748545371556112
-0.0044225,-0.0021937850697315575
-0.00442125,0.0027650223883313174
-0.00442,-0.0025243722335999514
-0.00441875,0.0014426737328476769
-0.0044175,-0.0028549593974712016
-0.00441625,-0.0021937850697315575
-0.004415,0.0024344352244584136
-0.00441375,-0.0021937850697315575
-0.0044125,0.00177326089671892
-0.00441125,-0.0021937850697315575
-0.00441,0.002103848060589719
-0.00440875,0.0004509122412360311
-0.0044075,-0.0015326107419895152
-0.00440625,0.003095609552199561
-0.004405,-0.0025243722336023566
-0.00440375,0.002765022388329664
-0.0044025,-0.000871436414247917
-0.00440125,0.0037567838799437148
-0.0044,0.005079132535426911
-0.00439875,-0.000871436414247917
-0.0043975,0.0017732608967177175
-0.00439625,-0.001202023578118716
-0.004395,0.0030956095521997113
-0.00439375,-0.0021937850697315575
-0.0043925,0.003095609552202267
-0.00439125,0.0034261967160729156
-0.00439,-0.004177308052956352
-0.00438875,0.001773260896716214
-0.0043875,-0.0018631979058603143
-0.00438625,0.002103848060587915
-0.004385,-0.003185546561343955
-0.00438375,-0.0008714364142458123
-0.0043825,0.0037567838799437148
