hardware/ESP32_IMU_setup_NEW/støj_esp32_prototype_og_smd_pcb/støjmålinger/støj_esp32_blesend-1ms-div5.csv

#Digilent WaveForms Oscilloscope Acquisition
#Device Name: Discovery2
#Serial Number: SN:210321B02ACE
#Date Time: 2026-04-22 11:48:00.935
#Sample rate: 2e+06Hz
#Samples: 8192
#Trigger: Source: Channel 1 Type: Edge Condition: Falling Level: -40 mV Hyst.: Auto HoldOff: 100 ns
#Channel 1: Range: 200 mV/div Offset: 0 V Attenuation: 1 X Zero: 3.15540585 V

Time (s),Channel 1 (V)
-0.0020479790209790207,0.05070016114960296
-0.0020474790209790207,0.04904722533024672
-0.002046979020979021,0.04508017936380029
-0.002046479020979021,0.050369573985729756
-0.002045979020979021,0.04607194085541089
-0.002045479020979021,0.04474959219992769
-0.0020449790209790208,0.04970839965799012
-0.0020444790209790207,0.0430966563805758
-0.0020439790209790206,0.04772487667476653
-0.002043479020979021,0.05036957398573096
-0.002042979020979021,0.04640252801928213
-0.002042479020979021,0.04970839965799012
-0.002041979020979021,0.05136133547734456
-0.0020414790209790207,0.048386051002506925
-0.0020409790209790207,0.0533448584605662
-0.002040479020979021,0.04640252801928529
-0.002039979020979021,0.04706370234702343
-0.002039479020979021,0.05169192264121536
-0.002038979020979021,0.048055463838636125
-0.0020384790209790208,0.05169192264121536
-0.0020379790209790207,0.052683684132825655
-0.0020374790209790206,0.04805546383863778
-0.002036979020979021,0.05169192264121371
-0.002036479020979021,0.04937781249412038
-0.002035979020979021,0.04739428951089453
-0.002035479020979021,0.053014271296698556
-0.0020349790209790207,0.04640252801928213
-0.0020344790209790207,0.04904722533024927
-0.0020339790209790206,0.05070016114960131
-0.002033479020979021,0.04706370234702538
-0.002032979020979021,0.05169192264121536
-0.002032479020979021,0.05235309696895696
-0.0020319790209790208,0.04607194085541089
-0.0020314790209790207,0.05136133547734291
-0.0020309790209790206,0.04772487667476503
-0.002030479020979021,0.047063702347024026
-0.002029979020979021,0.052022509805083904
-0.002029479020979021,0.04541076652766929
-0.002028979020979021,0.04970839965799012
-0.0020284790209790207,0.05070016114960296
-0.0020279790209790207,0.04673311518315534
-0.0020274790209790206,0.05202250980508526
-0.002026979020979021,0.050038986821862266
-0.002026479020979021,0.04640252801928213
-0.002025979020979021,0.04970839965799012
-0.0020254790209790208,0.04508017936379849
-0.0020249790209790207,0.05070016114960296
-0.0020244790209790206,0.04937781249411857
-0.002023979020979021,0.047724876674766076
-0.002023479020979021,0.05136133547734291
-0.002022979020979021,0.05036957398573216
-0.002022479020979021,0.04508017936379849
-0.0020219790209790207,0.048055463838636125
-0.0020214790209790207,0.04574135369153934
-0.0020209790209790206,0.044088417872187896
-0.002020479020979021,0.04805546383863432
-0.002019979020979021,0.04640252801928213
-0.002019479020979021,0.04937781249411932
-0.0020189790209790208,0.048386051002506925
-0.0020184790209790207,0.04508017936379849
-0.0020179790209790206,0.05003898682185926
-0.002017479020979021,0.04541076652767139
-0.002016979020979021,0.044088417872186696
-0.002016479020979021,0.048386051002506925
-0.002015979020979021,0.04574135369154009
-0.0020154790209790207,0.04904722533024852
-0.0020149790209790207,0.04904722533024687
-0.0020144790209790206,0.045410766527670794
-0.002013979020979021,0.04871663816637622
-0.002013479020979021,0.048716638166377724
-0.002012979020979021,0.04243548205283165
-0.0020124790209790208,0.047724876674765326
-0.0020119790209790207,0.04441900503605689
-0.0020114790209790206,0.04508017936379939
-0.002010979020979021,0.047063702347022826
-0.002010479020979021,0.0437578307083168
-0.002009979020979021,0.04673311518315293
-0.002009479020979021,0.04541076652766929
-0.0020089790209790208,0.041443720561219255
-0.0020084790209790207,0.046402528019280326
-0.0020079790209790206,0.042435482052831805
-0.002007479020979021,0.04276606921670274
-0.002006979020979021,0.04673311518315293
-0.002006479020979021,0.041113133397348456
-0.002005979020979021,0.04673311518315293
-0.0020054790209790207,0.04574135369154009
-0.0020049790209790207,0.04111313339734996
-0.002004479020979021,0.044419005036055385
-0.002003979020979021,0.04441900503605689
-0.002003479020979021,0.04078254623347766
-0.002002979020979021,0.04508017936379849
-0.0020024790209790208,0.03912961041412366
-0.0020019790209790207,0.03879902325025528
-0.0020014790209790206,0.04508017936379533
-0.002000979020979021,0.03813784892251398
-0.002000479020979021,0.043096656380573695
-0.001999979020979021,0.04210489488896085
-0.001999479020979021,0.03846843608638162
-0.0019989790209790207,0.04474959219992769
-0.0019984790209790207,0.03813784892251097
-0.001997979020979021,0.038468436086381466
-0.001997479020979021,0.04408841787218354
-0.001996979020979021,0.03813784892251082
-0.001996479020979021,0.043096656380573695
-0.0019959790209790208,0.041774307725090054
-0.0019954790209790207,0.03648491310315938
-0.0019949790209790206,0.04210489488896115
-0.001994479020979021,0.0427660692167026
-0.001993979020979021,0.03780726175864002
-0.001993479020979021,0.04078254623347766
-0.001992979020979021,0.036154325939286025
-0.0019924790209790207,0.03516256444767363
-0.0019919790209790207,0.040782546233476005
-0.001991479020979021,0.037146087430900074
-0.001990979020979021,0.040121371905734705
-0.001990479020979021,0.04045195906960686
-0.001989979020979021,0.03384021579218999
-0.0019894790209790208,0.03912961041412366
-0.0019889790209790207,0.03516256444767408
-0.0019884790209790206,0.036154325939286774
-0.001987979020979021,0.03780726175863927
-0.001987479020979021,0.03417080295606244
-0.001986979020979021,0.03846843608638162
-0.001986479020979021,0.03780726175864002
-0.0019859790209790207,0.034501390119931585
-0.0019854790209790207,0.038468436086380564
-0.0019849790209790206,0.03615432593928452
-0.001984479020979021,0.032848454300579095
-0.001983979020979021,0.03747667459476922
-0.001983479020979021,0.03317904146444839
-0.0019829790209790208,0.03284845430057759
-0.0019824790209790207,0.03747667459476922
-0.0019819790209790206,0.032517867136708595
-0.001981479020979021,0.03648491310315502
-0.001980979020979021,0.036484913103156824
-0.001980479020979021,0.03152610564509439
-0.001979979020979021,0.036484913103156824
-0.0019794790209790207,0.029873169825739954
-0.0019789790209790207,0.02954258266187126
-0.0019784790209790206,0.03417080295605883
-0.001977979020979021,0.029873169825741907
-0.001977479020979021,0.03218727997283599
-0.001976979020979021,0.03218727997283599
-0.0019764790209790208,0.027228472514773117
-0.0019759790209790207,0.03218727997283599
-0.0019754790209790206,0.030864931317349794
-0.001974979020979021,0.025244949531550875
-0.001974479020979021,0.0295425826618672
-0.001973979020979021,0.024914362367677523
-0.001973479020979021,0.02392260087606468
-0.0019729790209790207,0.028220234006385958
-0.0019724790209790207,0.024253188039936976
-0.0019719790209790206,0.02656729818703152
-0.001971479020979021,0.02656729818703152
-0.001970979020979021,0.021939077892839887
-0.001970479020979021,0.024583775203806724
-0.0019699790209790208,0.02094731640122749
-0.0019694790209790207,0.02061672923735669
-0.0019689790209790206,0.02458377520380477
-0.001968479020979021,0.020286142073487844
-0.001967979020979021,0.02326142654832173
-0.001967479020979021,0.022930839384452284
-0.001966979020979021,0.018302619090260652
-0.0019664790209790207,0.022269665056710686
-0.0019659790209790207,0.02160849072896653
-0.0019654790209790206,0.01598850894316687
-0.001964979020979021,0.020947316401225234
-0.001964479020979021,0.017310857598648255
-0.001963979020979021,0.015988508943164614
-0.0019634790209790208,0.022930839384452284
-0.0019629790209790207,0.01896379341800225
-0.0019624790209790207,0.018633206254131753
-0.001961979020979021,0.019294380581872748
-0.001961479020979021,0.016319096107036767
-0.001960979020979021,0.01929438058187305
-0.001960479020979021,0.014666160287681418
-0.0019599790209790208,0.01400498595993982
-0.0019594790209790207,0.018302619090258848
-0.0019589790209790206,0.014335573123812123
-0.001958479020979021,0.017641444762517552
-0.001957979020979021,0.018302619090260652
-0.001957479020979021,0.013343811632198221
-0.001956979020979021,0.016980270434777456
-0.0019564790209790207,0.016980270434777456
-0.0019559790209790207,0.010699114321233038
-0.001955479020979021,0.014335573123808966
-0.001954979020979021,0.011360288648974336
-0.001954479020979021,0.011029701485102184
-0.001953979020979021,0.014335573123810619
-0.0019534790209790208,0.009707352829618987
-0.0019529790209790211,0.01400498595993982
-0.001952479020979021,0.014996747451552217
-0.001951979020979021,0.010037939993489786
-0.001951479020979021,0.012682637304456179
-0.001950979020979021,0.010368527157360585
-0.001950479020979021,0.008054417010264547
-0.001949979020979021,0.011360288648972983
-0.001949479020979021,0.006401481190910552
-0.001948979020979021,0.010368527157360585
-0.001948479020979021,0.011029701485102184
-0.0019479790209790211,0.006070894027039753
-0.001947479020979021,0.010037939993489786
-0.001946979020979021,0.008385004174135346
-0.0019464790209790211,0.004417958207685313
-0.001945979020979021,0.009046178501876945
-0.001945479020979021,0.004417958207685313
-0.001944979020979021,0.004087371043814514
-0.001944479020979021,0.007393242682522949
-0.001943979020979021,0.0037567838799437148
-0.001943479020979021,0.008054417010264547
-0.001942979020979021,0.008054417010264547
-0.001942479020979021,0.004087371043814514
-0.001941979020979021,0.007723829846393748
-0.0019414790209790211,0.009707352829618987
-0.001940979020979021,0.0014426737328476769
-0.001940479020979021,0.007723829846393748
-0.0019399790209790211,0.0030956095522021165
-0.001939479020979021,0.0054097196992981544
-0.001938979020979021,0.006070894027039753
-0.001938479020979021,-0.0005408492503771178
-0.001937979020979021,0.004748545371556112
-0.001937479020979021,0.004748545371556112
-0.001936979020979021,0.0004509122412352795
-0.001936479020979021,0.004748545371556112
-0.001935979020979021,-0.0021937850697315575
-0.001935479020979021,-0.0021937850697315575
-0.0019349790209790211,0.0034261967160729156
-0.001934479020979021,-0.0015326107419895152
-0.001933979020979021,0.0027650223883313174
-0.0019334790209790211,0.00177326089671892
-0.001932979020979021,-0.0021937850697315575
-0.001932479020979021,0.0014426737328476769
-0.001931979020979021,0.0011120865689768777
-0.001931479020979021,-0.004507895216827151
-0.001930979020979021,0.0007814994051060786
-0.001930479020979021,-0.003846720889085553
-0.001929979020979021,-0.003516133725214754
-0.001929479020979021,0.0007814994051060786
-0.001928979020979021,-0.004177308052956352
-0.0019284790209790211,-0.000871436414247917
-0.001927979020979021,-0.0028549593974731557
-0.001927479020979021,-0.006160831036181591
-0.001926979020979021,-0.0021937850697315575
-0.001926479020979021,-0.00649141820005239
-0.001925979020979021,-0.007152592527793988
-0.001925479020979021,-0.0021937850697315575
-0.001924979020979021,-0.008144354019406386
-0.001924479020979021,-0.003516133725214754
-0.001923979020979021,-0.004507895216827151
-0.0019234790209790211,-0.006160831036181591
-0.001922979020979021,-0.0051690695445687496
-0.001922479020979021,-0.0018631979058603143
-0.0019219790209790211,-0.008144354019406386
-0.001921479020979021,-0.005830243872310792
-0.001920979020979021,-0.009136115511018783
-0.001920479020979021,-0.007152592527793988
-0.001919979020979021,-0.0048384823806979504
-0.001919479020979021,-0.009466702674889582
-0.001918979020979021,-0.005830243872310792
-0.001918479020979021,-0.0074831796916647875
-0.001917979020979021,-0.01211139998585642
-0.001917479020979021,-0.00649141820005239
-0.0019169790209790211,-0.010789051330373223
-0.001916479020979021,-0.010127877002631624
-0.001915979020979021,-0.008474941183277185
-0.0019154790209790211,-0.01211139998585642
-0.001914979020979021,-0.007152592527793988
-0.001914479020979021,-0.007152592527793988
-0.001913979020979021,-0.01343374864134006
-0.001913479020979021,-0.008474941183277185
-0.001912979020979021,-0.008805528347147984
-0.001912479020979021,-0.01343374864134006
-0.001911979020979021,-0.008474941183277185
-0.001911479020979021,-0.01343374864134006
-0.001910979020979021,-0.014094922969081658
-0.0019104790209790211,-0.009466702674889582
-0.001909979020979021,-0.013103161477468817
-0.001909479020979021,-0.010458464166502424
-0.0019089790209790211,-0.01211139998585642
-0.001908479020979021,-0.015747858788435654
-0.001907979020979021,-0.011450225658114821
-0.001907479020979021,-0.015747858788435654
-0.001906979020979021,-0.015417271624564854
-0.001906479020979021,-0.01178081282198562
-0.001905979020979021,-0.015747858788435654
-0.001905479020979021,-0.013103161477468817
-0.001904979020979021,-0.011450225658114821
-0.001904479020979021,-0.01673962028004805
-0.0019039790209790211,-0.011450225658114821
-0.001903479020979021,-0.009797289838760825
-0.001902979020979021,-0.01839255609940249
-0.001902479020979021,-0.012772574313598017
-0.001901979020979021,-0.01872314326327329
-0.001901479020979021,-0.016409033116177252
-0.001900979020979021,-0.012441987149727218
-0.001900479020979021,-0.017731381771660892
-0.001899979020979021,-0.015086684460694055
-0.001899479020979021,-0.014756097296823256
-0.0018989790209790211,-0.019384317591014888
-0.001898479020979021,-0.014756097296823256
-0.001897979020979021,-0.019714904754885687
-0.0018974790209790211,-0.01872314326327329
-0.001896979020979021,-0.014756097296823256
-0.001896479020979021,-0.021037253410369328
-0.001895979020979021,-0.01673962028004805
-0.001895479020979021,-0.016409033116177252
-0.001894979020979021,-0.020045491918756486
-0.001894479020979021,-0.01673962028004805
-0.001893979020979021,-0.012441987149727218
-0.001893479020979021,-0.02070666624649853
-0.001892979020979021,-0.01839255609940249
-0.0018924790209790211,-0.021367840574240127
-0.001891979020979021,-0.019384317591014888
-0.001891479020979021,-0.01872314326327329
-0.0018909790209790211,-0.021367840574240127
-0.001890479020979021,-0.017731381771660892
-0.001889979020979021,-0.01806196893553169
-0.001889479020979021,-0.022029014901981725
-0.001888979020979021,-0.020045491918756486
-0.001888479020979021,-0.023020776393594122
-0.001887979020979021,-0.022359602065852524
-0.001887479020979021,-0.01872314326327329
-0.001886979020979021,-0.021698427738110926
-0.001886479020979021,-0.01806196893553169
-0.0018859790209790211,-0.019714904754885687
-0.001885479020979021,-0.02368195072133572
-0.001884979020979021,-0.020045491918756486
-0.0018844790209790211,-0.021367840574240127
-0.001883979020979021,-0.02500429937681936
-0.001883479020979021,-0.01872314326327329
-0.001882979020979021,-0.021367840574240127
-0.001882479020979021,-0.017400794607790093
-0.001881979020979021,-0.017731381771660892
-0.001881479020979021,-0.019714904754885687
-0.0018809790209790211,-0.017731381771660892
-0.001880479020979021,-0.015747858788435654
-0.001879979020979021,-0.021367840574240127
-0.0018794790209790211,-0.017070207443919294
-0.001878979020979021,-0.021367840574240127
-0.001878479020979021,-0.021367840574240127
-0.001877979020979021,-0.016078445952306453
-0.001877479020979021,-0.02070666624649853
-0.001876979020979021,-0.01806196893553169
-0.001876479020979021,-0.017070207443919294
-0.001875979020979021,-0.021698427738110926
-0.001875479020979021,-0.01839255609940249
-0.001874979020979021,-0.02070666624649853
-0.0018744790209790211,-0.021367840574240127
-0.001873979020979021,-0.017731381771660892
-0.001873479020979021,-0.021698427738110926
-0.0018729790209790211,-0.019714904754885687
-0.001872479020979021,-0.017400794607790093
-0.001871979020979021,-0.021698427738110926
-0.001871479020979021,-0.014756097296823256
-0.001870979020979021,-0.014756097296823256
-0.001870479020979021,-0.020376079082627285
-0.001869979020979021,-0.016078445952306453
-0.001869479020979021,-0.022029014901981725
-0.001868979020979021,-0.021037253410369328
-0.001868479020979021,-0.01673962028004805
-0.0018679790209790211,-0.021698427738110926
-0.001867479020979021,-0.016409033116177252
-0.001866979020979021,-0.016078445952306453
-0.0018664790209790211,-0.021367840574240127
-0.001865979020979021,-0.01872314326327329
-0.001865479020979021,-0.02070666624649853
-0.001864979020979021,-0.021367840574240127
-0.001864479020979021,-0.017731381771660892
-0.001863979020979021,-0.022690189229723323
-0.001863479020979021,-0.01872314326327329
-0.001862979020979021,-0.01839255609940249
-0.001862479020979021,-0.022359602065852524
-0.001861979020979021,-0.016409033116177252
-0.0018614790209790211,-0.016409033116177252
-0.001860979020979021,-0.021367840574240127
-0.001860479020979021,-0.016078445952306453
-0.0018599790209790211,-0.021037253410369328
-0.001859479020979021,-0.021698427738110926
-0.001858979020979021,-0.016409033116177252
-0.001858479020979021,-0.022690189229723323
-0.001857979020979021,-0.01673962028004805
-0.001857479020979021,-0.016078445952306453
-0.001856979020979021,-0.021698427738110926
-0.0018564790209790211,-0.016409033116177252
-0.001855979020979021,-0.019714904754885687
-0.001855479020979021,-0.022359602065852524
-0.0018549790209790211,-0.017731381771660892
-0.001854479020979021,-0.022359602065852524
-0.001853979020979021,-0.02401253788520652
-0.001853479020979021,-0.019384317591014888
-0.001852979020979021,-0.022690189229723323
-0.001852479020979021,-0.017731381771660892
-0.001851979020979021,-0.017731381771660892
-0.001851479020979021,-0.022690189229723323
-0.001850979020979021,-0.015747858788435654
-0.001850479020979021,-0.021698427738110926
-0.0018499790209790211,-0.023020776393594122
-0.001849479020979021,-0.016409033116177252
-0.001848979020979021,-0.021037253410369328
-0.0018484790209790211,-0.015747858788435654
-0.001847979020979021,-0.016078445952306453
-0.001847479020979021,-0.022029014901981725
-0.001846979020979021,-0.01806196893553169
-0.001846479020979021,-0.015747858788435654
-0.001845979020979021,-0.021037253410369328
-0.001845479020979021,-0.015417271624564854
-0.001844979020979021,-0.020376079082627285
-0.001844479020979021,-0.01872314326327329
-0.001843979020979021,-0.01673962028004805
-0.0018434790209790211,-0.019714904754885687
-0.001842979020979021,-0.017070207443919294
-0.001842479020979021,-0.015086684460694055
-0.0018419790209790211,-0.021037253410369328
-0.001841479020979021,-0.01806196893553169
-0.001840979020979021,-0.021037253410369328
-0.001840479020979021,-0.021367840574240127
-0.001839979020979021,-0.017070207443919294
-0.001839479020979021,-0.020045491918756486
-0.001838979020979021,-0.015086684460694055
-0.001838479020979021,-0.014756097296823256
-0.001837979020979021,-0.02070666624649853
-0.001837479020979021,-0.015747858788435654
-0.0018369790209790211,-0.01211139998585642
-0.001836479020979021,-0.020045491918756486
-0.001835979020979021,-0.017731381771660892
-0.001835479020979021,-0.021037253410369328
-0.001834979020979021,-0.017731381771660892
-0.001834479020979021,-0.016078445952306453
-0.001833979020979021,-0.020045491918756486
-0.001833479020979021,-0.015747858788435654
-0.001832979020979021,-0.015747858788435654
-0.001832479020979021,-0.01872314326327329
-0.0018319790209790211,-0.016078445952306453
-0.001831479020979021,-0.020045491918756486
-0.001830979020979021,-0.021367840574240127
-0.0018304790209790211,-0.015747858788435654
-0.001829979020979021,-0.020045491918756486
-0.001829479020979021,-0.016409033116177252
-0.001828979020979021,-0.015747858788435654
-0.001828479020979021,-0.019714904754885687
-0.001827979020979021,-0.015086684460694055
-0.001827479020979021,-0.017731381771660892
-0.001826979020979021,-0.01905373042714409
-0.001826479020979021,-0.014094922969081658
-0.001825979020979021,-0.020045491918756486
-0.0018254790209790211,-0.021037253410369328
-0.001824979020979021,-0.015086684460694055
-0.001824479020979021,-0.019714904754885687
-0.0018239790209790211,-0.016409033116177252
-0.001823479020979021,-0.013103161477468817
-0.001822979020979021,-0.017731381771660892
