hardware/ESP32_IMU_setup_NEW/støj_esp32_prototype_og_smd_pcb/støjmålinger/støj_buck_1ms-div.csv

#Digilent WaveForms Oscilloscope Acquisition
#Device Name: Discovery2
#Serial Number: SN:210321B02ACE
#Date Time: 2026-04-22 11:13:34.164
#Sample rate: 800000Hz
#Samples: 8192
#Trigger: Source: Channel 1 Type: Edge Condition: Rising Level: 0 V Hyst.: Auto HoldOff: 100 ns
#Channel 1: Range: 200 mV/div Offset: 0 V Attenuation: 1 X Zero: 3.15540585 V

Time (s),Channel 1 (V)
-0.0051224166666666675,0.0007814994051060786
-0.005121166666666667,0.0011120865689768777
-0.005119916666666667,0.004417958207682758
-0.005118666666666667,-0.001202023578118716
-0.005117416666666667,-0.015417271624564854
-0.005116166666666667,0.0011120865689768777
-0.005114916666666667,0.0014426737328476769
-0.005113666666666667,0.001112086568977028
-0.005112416666666667,-0.001202023578118716
-0.005111166666666667,0.004087371043815717
-0.005109916666666667,0.006732068354781351
-0.005108666666666667,0.003756783879942512
-0.005107416666666667,0.0011120865689768777
-0.005106166666666667,-0.000871436414247917
-0.005104916666666667,0.004417958207685313
-0.005103666666666667,-0.00021026208650631872
-0.005102416666666667,-0.013103161477462953
-0.005101166666666667,0.0014426737328476769
-0.005099916666666667,0.002765022388332069
-0.005098666666666667,0.004417958207685313
-0.005097416666666667,0.00045091224123648216
-0.005096166666666667,0.0030956095522021165
-0.005094916666666667,-0.0021937850697315575
-0.005093666666666667,-0.0005408492503778694
-0.005092416666666667,0.0030956095522021165
-0.0050911666666666675,0.00012032507736583348
-0.005089916666666667,0.0037567838799437148
-0.005088666666666667,0.019294380581867037
-0.005087416666666667,0.006070894027039753
-0.005086166666666667,0.0030956095522021165
-0.005084916666666667,0.0007814994051060786
-0.005083666666666667,0.004087371043814514
-0.005082416666666667,-0.00021026208650436456
-0.005081166666666667,0.0037567838799437148
-0.0050799166666666675,0.004087371043814364
-0.005078666666666667,0.0027650223883313174
-0.005077416666666667,0.004087371043813011
-0.005076166666666667,0.0007814994051060786
-0.005074916666666667,0.004748545371556112
-0.005073666666666667,-0.012441987149727218
-0.005072416666666667,-0.0028549593974731557
-0.005071166666666667,0.001773260896716815
-0.005069916666666667,-0.0005408492503771178
-0.005068666666666667,0.0014426737328461735
-0.005067416666666667,-0.0018631979058603143
-0.005066166666666667,-0.017070207443912078
-0.005064916666666667,-0.001202023578118716
-0.005063666666666667,0.0004509122412352795
-0.005062416666666667,0.0011120865689768777
-0.005061166666666667,-0.004507895216827151
-0.005059916666666667,0.00045091224123302437
-0.005058666666666667,-0.012441987149727218
-0.005057416666666667,0.000781499405104425
-0.005056166666666667,-0.0028549593974731557
-0.005054916666666667,-0.0015326107419890642
-0.005053666666666667,-0.0005408492503771178
-0.005052416666666667,-0.005499656708439549
-0.005051166666666667,0.010699114321224019
-0.005049916666666667,-0.003185546561343955
-0.0050486666666666674,-0.00450789521682655
-0.005047416666666667,-0.00021026208650631872
-0.005046166666666667,-0.004177308052954999
-0.005044916666666667,-0.001202023578118716
-0.005043666666666667,-0.0005408492503771178
-0.005042416666666667,0.0030956095522021165
-0.005041166666666667,-0.0028549593974731557
-0.005039916666666667,-0.0031855465613438044
-0.005038666666666667,-0.0018631979058603143
-0.0050374166666666675,-0.006160831036179637
-0.005036166666666667,0.010037939993489786
-0.005034916666666667,-0.004507895216827301
-0.005033666666666667,-0.0048384823806979504
-0.005032416666666667,-0.0018631979058603143
-0.005031166666666667,-0.004507895216827151
-0.005029916666666667,-0.0018631979058603143
-0.005028666666666667,-0.006160831036179637
-0.005027416666666667,0.00012032507736448039
-0.005026166666666667,-0.001863197905861968
-0.005024916666666667,-0.005499656708439549
-0.005023666666666667,-0.0012020235781184153
-0.005022416666666667,-0.0005408492503771178
-0.005021166666666667,0.004087371043814514
-0.005019916666666667,-0.003846720889085553
-0.005018666666666667,-0.0048384823806979504
-0.005017416666666667,0.0004509122412328743
-0.005016166666666667,-0.006160831036181591
-0.005014916666666667,-0.000871436414251525
-0.005013666666666667,-0.008805528347147984
-0.005012416666666667,-0.004507895216831211
-0.005011166666666667,-0.01343374864134006
-0.005009916666666667,-0.0048384823806979504
-0.005008666666666667,0.010037939993489786
-0.005007416666666667,-0.0074831796916647875
-0.0050061666666666674,-0.020376079082621422
-0.005004916666666667,-0.0018631979058603143
-0.005003666666666667,0.015657921779286297
-0.005002416666666667,-0.000871436414247917
-0.005001166666666667,-0.03062428116262339
-0.004999916666666667,-0.000871436414247917
-0.004998666666666667,0.008715591338006146
-0.004997416666666667,-0.0064914182000454755
-0.004996166666666667,-0.023020776393594122
-0.0049949166666666675,-0.0061608310361892585
-0.004993666666666667,0.03384021579218999
-0.004992416666666667,-0.006822005363927549
-0.004991166666666667,-0.016409033116177252
-0.004989916666666667,-0.003516133725214754
-0.004988666666666667,0.01400498595993982
-0.004987416666666667,-0.00021026208650631872
-0.004986166666666667,-0.027318409523902628
-0.004984916666666667,0.0011120865689768777
-0.004983666666666667,0.02061672923734782
-0.004982416666666667,0.0011120865689768777
-0.004981166666666667,-0.0230207763935848
-0.004979916666666667,-0.0025243722336023566
-0.004978666666666667,0.01863320625413145
-0.004977416666666667,0.02590612385928992
-0.004976166666666667,-0.029632519671010993
-0.004974916666666667,-0.0015326107420022932
-0.004973666666666667,0.017972031926389853
-0.004972416666666667,0.004087371043801585
-0.004971166666666667,-0.02434312504907732
-0.004969916666666667,0.002765022388338233
-0.004968666666666667,0.017972031926389853
-0.004967416666666667,0.002103848060589719
-0.004966166666666667,-0.021367840574240127
-0.004964916666666667,-0.0005408492503771178
-0.0049636666666666674,0.02028614207347642
-0.004962416666666667,0.006070894027039753
-0.004961166666666667,-0.026987822360030927
-0.004959916666666667,0.002103848060589719
-0.004958666666666667,0.01962496774574385
-0.004957416666666667,0.0054097196992981544
-0.004956166666666667,-0.02335136355746492
-0.004954916666666667,-0.01244198714973218
-0.004953666666666667,0.02028614207348589
-0.0049524166666666675,0.004748545371563178
-0.004951166666666667,-0.01673962028004805
-0.004949916666666667,0.00012032507737455275
-0.004948666666666667,0.022269665056710686
-0.004947416666666667,-0.007813766855535587
-0.004946166666666667,-0.021367840574240127
-0.004944916666666667,0.004748545371556112
-0.004943666666666667,0.019294380581866437
-0.004942416666666667,0.006732068354781351
-0.0049411666666666675,-0.019384317591003012
-0.004939916666666667,0.02392260087606468
-0.004938666666666667,0.02127790356509062
-0.004937416666666667,0.004417958207685313
-0.004936166666666667,-0.014756097296823256
-0.004934916666666667,0.0030956095522021165
-0.004933666666666667,0.021608490728969088
-0.004932416666666667,0.002434435224469237
-0.004931166666666667,-0.013764335805210859
-0.004929916666666667,0.00805441701026996
-0.004928666666666667,0.019955554909614648
-0.004927416666666667,0.00871559133799457
-0.004926166666666667,-0.01673962028004805
-0.004924916666666667,-0.00649141820005239
-0.004923666666666667,0.01929438058187305
-0.004922416666666667,0.0057403068631689536
-0.0049211666666666674,-0.007813766855529423
-0.004919916666666667,0.005079132535426911
-0.004918666666666667,0.02722847251476079
-0.004917416666666667,0.00012032507736448039
-0.004916166666666667,-0.015417271624554632
-0.004914916666666667,0.00706265551865215
-0.004913666666666667,-0.0051690695445687496
-0.004912416666666667,0.009376765665741573
-0.004911166666666667,-0.010127877002631624
-0.0049099166666666675,0.0004509122412304691
-0.004908666666666667,0.023261426548323083
-0.004907416666666667,0.006401481190904087
-0.004906166666666667,-0.007813766855535587
-0.004904916666666667,0.005079132535426911
-0.004903666666666667,0.02557553669541912
-0.004902416666666667,0.010368527157360585
-0.004901166666666667,-0.009136115511009912
-0.004899916666666667,0.0057403068631689536
-0.0048986666666666675,0.022269665056703167
-0.004897416666666667,0.008054417010264547
-0.004896166666666667,-0.005499656708432483
-0.004894916666666667,0.010037939993489786
-0.004893666666666667,0.034501390119931585
-0.004892416666666667,0.00706265551865215
-0.004891166666666667,-0.008805528347147984
-0.004889916666666667,0.0040873710438086505
-0.004888666666666667,0.02392260087606468
-0.004887416666666667,0.009376765665741423
-0.004886166666666667,-0.005499656708439549
-0.004884916666666667,0.008054417010274168
-0.004883666666666667,0.029211995497998355
-0.004882416666666667,0.009046178501876945
-0.004881166666666667,-0.0015326107419895152
-0.004879916666666667,0.01202146297671458
-0.0048786666666666674,-0.006160831036173323
-0.004877416666666667,0.006070894027039753
-0.004876166666666667,-0.007483179691659526
-0.004874916666666667,0.004087371043814514
-0.004873666666666667,0.0249143623676682
-0.004872416666666667,0.004417958207685313
-0.004871166666666667,-0.010789051330373223
-0.004869916666666667,0.006401481190902735
-0.004868666666666667,0.014996747451552217
-0.0048674166666666675,0.009707352829621391
-0.004866166666666667,-0.014094922969081658
-0.004864916666666667,0.0030956095522084305
-0.004863666666666667,0.016980270434777456
-0.004862416666666667,0.004417958207685313
-0.004861166666666667,-0.0028549593974731557
-0.004859916666666667,0.0027650223883313174
-0.004858666666666667,0.015327334615417304
-0.004857416666666667,0.009046178501876945
-0.0048561666666666675,-0.008805528347139865
-0.004854916666666667,0.006070894027039753
-0.004853666666666667,-0.010458464166494005
-0.004852416666666667,0.008054417010264547
-0.004851166666666667,0.0004509122412352795
-0.004849916666666667,0.006070894027039753
-0.004848666666666667,0.017972031926389853
-0.004847416666666667,0.004748545371562125
-0.004846166666666667,-0.0018631979058603143
-0.004844916666666667,0.02557553669541416
-0.004843666666666667,0.014666160287681418
-0.004842416666666667,0.004748545371553106
-0.004841166666666667,-0.0018631979058603143
-0.004839916666666667,0.006732068354781351
-0.004838666666666667,0.013013224468327422
-0.004837416666666667,0.006401481190910552
-0.004836166666666667,-0.003846720889080892
-0.004834916666666667,0.004748545371556112
-0.004833666666666667,0.01764144476251379
-0.004832416666666667,0.006070894027039753
-0.004831166666666667,0.0004509122412414432
-0.004829916666666667,0.01400498595993982
-0.004828666666666667,0.029211995497998355
-0.004827416666666667,0.005409719699308979
-0.004826166666666667,-0.008474941183277185
-0.0048249166666666675,0.008054417010257029
-0.004823666666666667,0.009046178501876945
-0.004822416666666667,0.017310857598640136
-0.004821166666666667,-0.0005408492503771178
-0.004819916666666667,0.004087371043814514
-0.004818666666666667,0.010037939993489786
-0.004817416666666667,0.00177326089671892
-0.004816166666666667,0.0007814994051065297
-0.004814916666666667,0.007393242682522949
-0.0048136666666666675,-0.01574785878842513
-0.004812416666666667,0.005079132535426911
-0.004811166666666667,-0.0028549593974693975
-0.004809916666666667,0.0054097196992981544
-0.004808666666666667,0.01896379341800225
-0.004807416666666667,-0.0048384823806979504
-0.004806166666666667,-0.0051690695445687496
-0.004804916666666667,0.00507913253542225
-0.004803666666666667,0.004417958207685313
-0.004802416666666667,0.002765022388332069
-0.004801166666666667,0.004417958207685313
-0.004799916666666667,0.002434435224459015
-0.004798666666666667,-0.000871436414247917
-0.004797416666666667,0.00177326089671892
-0.004796166666666667,-0.0005408492503771178
-0.004794916666666667,0.0034261967160729156
-0.004793666666666667,0.013343811632193711
-0.004792416666666667,-0.004177308052956352
-0.004791166666666667,0.0021038480605886666
-0.004789916666666667,-0.00021026208650631872
-0.004788666666666667,-0.0005408492503784708
-0.004787416666666667,-0.003516133725214754
-0.004786166666666667,0.002103848060589719
-0.004784916666666667,-0.0021937850697296033
-0.004783666666666667,-0.0025243722336023566
-0.0047824166666666675,-0.00021026208650737127
-0.004781166666666667,-0.0015326107419895152
-0.004779916666666667,0.0011120865689708643
-0.004778666666666667,-0.01211139998585642
-0.004777416666666667,0.0014426737328476769
-0.004776166666666667,-0.000871436414247917
-0.004774916666666667,-0.003185546561343955
-0.004773666666666667,-0.0005408492503783204
-0.004772416666666667,-0.003846720889085553
-0.0047711666666666675,-0.000540849250378621
-0.004769916666666667,-0.0048384823806979504
-0.004768666666666667,-0.0012020235781190168
-0.004767416666666667,-0.0018631979058603143
-0.004766166666666667,-0.0025243722336023566
-0.004764916666666667,-0.0021937850697315575
-0.004763666666666667,-0.009797289838760825
-0.004762416666666667,-0.005499656708441503
-0.004761166666666667,-0.0018631979058603143
-0.004759916666666667,-0.0031855465613432033
-0.004758666666666667,-0.0015326107419895152
-0.004757416666666667,-0.005830243872308687
-0.004756166666666667,-0.001202023578118716
-0.004754916666666667,-0.00021026208650631872
-0.004753666666666667,-0.003516133725214754
-0.004752416666666667,-0.0025243722336023566
-0.004751166666666667,-0.004177308052955601
-0.004749916666666667,-0.0021937850697315575
-0.004748666666666667,-0.006160831036182343
-0.004747416666666667,-0.007813766855535587
-0.004746166666666667,-0.0015326107419908683
-0.004744916666666667,-0.004507895216827151
-0.004743666666666667,-0.004507895216827151
-0.004742416666666667,-0.005169069544568449
-0.004741166666666667,-0.0015326107419895152
-0.0047399166666666675,-0.005499656708437745
-0.004738666666666667,-0.0048384823806979504
-0.004737416666666667,-0.0025243722336037097
-0.004736166666666667,-0.005499656708439549
-0.004734916666666667,0.00012032507736448039
-0.004733666666666667,-0.01178081282198562
-0.004732416666666667,-0.008144354019406386
-0.004731166666666667,-0.004177308052958156
-0.004729916666666667,-0.005499656708439549
-0.0047286666666666675,-0.0028549593974743583
-0.004727416666666667,-0.006160831036181591
-0.004726166666666667,0.009046178501871983
-0.004724916666666667,-0.0018631979058603143
-0.004723666666666667,-0.0025243722336023566
-0.004722416666666667,-0.0025243722336023566
-0.004721166666666667,-0.005499656708439549
-0.004719916666666667,-0.0028549593974743583
-0.004718666666666667,-0.012441987149727218
-0.004717416666666667,-0.004507895216825798
-0.004716166666666667,-0.0015326107419895152
-0.004714916666666667,-0.005830243872308988
-0.004713666666666667,-0.0018631979058603143
-0.004712416666666667,-0.0074831796916647875
-0.004711166666666667,0.004748545371556112
-0.004709916666666667,-0.004507895216827151
-0.004708666666666667,-0.005169069544568449
-0.004707416666666667,-0.001202023578118716
-0.004706166666666667,-0.004507895216825497
-0.004704916666666667,-0.000871436414247917
-0.004703666666666667,-0.009136115511016077
-0.004702416666666667,-0.003185546561343955
-0.004701166666666667,-0.004507895216827151
-0.004699916666666667,-0.005499656708439098
-0.004698666666666667,-0.0015326107419895152
-0.0046974166666666674,-0.004507895216825798
-0.004696166666666667,-0.014756097296823256
-0.004694916666666667,-0.0031855465613441054
-0.004693666666666667,-0.003516133725214754
-0.004692416666666667,-0.000871436414247917
-0.004691166666666667,-0.006160831036181591
-0.004689916666666667,0.0011120865689768777
-0.004688666666666667,-0.0031855465613420007
-0.004687416666666667,-0.0015326107419895152
-0.0046861666666666675,-0.002193785069731257
-0.004684916666666667,-0.004177308052956352
-0.004683666666666667,-0.0008714364142492699
-0.004682416666666667,-0.003846720889085553
-0.004681166666666667,0.006070894027039753
-0.004679916666666667,-0.004507895216827151
-0.004678666666666667,-0.00021026208650631872
-0.004677416666666667,-0.0008714364142476163
-0.004676166666666667,-0.005499656708439549
-0.004674916666666667,-0.0008714364142498713
-0.004673666666666667,-0.0051690695445687496
-0.004672416666666667,-0.0015326107419895152
-0.004671166666666667,-0.0015326107419895152
-0.004669916666666667,-0.003846720889085553
-0.004668666666666667,-0.0018631979058603143
-0.004667416666666667,-0.009136115511018783
-0.004666166666666667,0.0037567838799378514
-0.004664916666666667,-0.000871436414247917
-0.004663666666666667,-0.0008714364142471653
-0.004662416666666667,0.0007814994051060786
-0.004661166666666667,-0.004507895216816929
-0.004659916666666667,0.017972031926389853
-0.004658666666666667,-0.0051690695445687496
-0.004657416666666667,-0.003846720889085553
-0.004656166666666667,-0.00021026208650631872
-0.0046549166666666674,-0.0038467208890838995
-0.004653666666666667,0.00012032507736448039
-0.004652416666666667,-0.01211139998585251
-0.004651166666666667,-0.003516133725214754
-0.004649916666666667,0.0011120865689768777
-0.004648666666666667,-0.0018631979058603143
-0.004647416666666667,0.002103848060589719
-0.004646166666666667,-0.003846720889082847
-0.004644916666666667,0.012682637304456179
-0.0046436666666666675,0.00012032507737019284
-0.004642416666666667,0.0004509122412352795
-0.004641166666666667,-0.001202023578119167
-0.004639916666666667,-0.0021937850697315575
-0.004638666666666667,0.0011120865689768777
-0.004637416666666667,-0.005830243872310792
-0.004636166666666667,0.0004509122412352795
-0.004634916666666667,0.00012032507736463072
-0.004633666666666667,-0.001202023578118716
-0.004632416666666667,0.0017732608967168154
-0.004631166666666667,-0.0028549593974731557
-0.004629916666666667,0.009707352829614177
-0.004628666666666667,-0.000871436414247917
-0.004627416666666667,-0.000871436414247917
-0.004626166666666667,0.00177326089671892
-0.004624916666666667,-0.0025243722336023566
-0.004623666666666667,0.0034261967160702095
-0.004622416666666667,-0.003846720889085553
-0.004621166666666667,-0.0021937850697297534
-0.004619916666666667,0.00177326089671892
-0.004618666666666667,-0.0008714364142462633
-0.004617416666666667,0.0027650223883313174
-0.004616166666666667,-0.015417271624564854
-0.004614916666666667,0.00706265551865215
-0.004613666666666667,0.0004509122412352795
-0.0046124166666666674,0.0004509122412352795
-0.004611166666666667,0.00177326089671892
-0.004609916666666667,-0.0008714364142476163
-0.004608666666666667,-0.00021026208650631872
-0.004607416666666667,0.0011120865689768777
-0.004606166666666667,-0.0018631979058603143
-0.004604916666666667,0.00177326089671892
-0.004603666666666667,-0.001202023578117363
-0.004602416666666667,0.0030956095522021165
-0.0046011666666666675,-0.014094922969073841
-0.004599916666666667,0.0011120865689768777
-0.004598666666666667,0.0017732608967183188
-0.004597416666666667,0.0004509122412352795
-0.004596166666666667,0.0027650223883313174
-0.004594916666666667,-0.00021026208650631872
-0.004593666666666667,-0.0005408492503771178
-0.004592416666666667,0.004087371043812409
-0.004591166666666667,0.0030956095522021165
-0.0045899166666666675,0.00210384806059017
-0.004588666666666667,-0.000871436414247917
-0.004587416666666667,0.001442673732848579
-0.004586166666666667,0.0034261967160729156
-0.004584916666666667,-0.0005408492503771178
-0.004583666666666667,0.002103848060589719
-0.004582416666666667,-0.00021026208650631872
-0.004581166666666667,0.003426196716071262
-0.004579916666666667,0.0007814994051060786
-0.004578666666666667,0.0054097196992962
-0.004577416666666667,0.0011120865689768777
-0.004576166666666667,0.00144267373284903
-0.004574916666666667,0.004417958207685313
-0.004573666666666667,-0.0025243722336023566
-0.004572416666666667,0.004087371043814514
-0.004571166666666667,-0.003516133725214754
-0.0045699166666666674,-0.0012020235781197686
-0.004568666666666667,0.0011120865689768777
-0.004567416666666667,-0.0031855465613412487
-0.004566166666666667,0.0027650223883313174
