hardware/ESP32_IMU_setup_NEW/støj_esp32_prototype_og_smd_pcb/støjmålinger/støj_esp32_ble_1ms-div10.csv

#Digilent WaveForms Oscilloscope Acquisition
#Device Name: Discovery2
#Serial Number: SN:210321B02ACE
#Date Time: 2026-04-22 13:13:08.238
#Sample rate: 800000Hz
#Samples: 8192
#Trigger: Source: Channel 2 Type: Edge Condition: Rising Level: -47 mV Hyst.: Auto HoldOff: 100 ns
#Channel 2: Range: 100 mV/div Offset: 0 V Attenuation: 1 X Zero: 3.15730006 V

Time (s),Channel 2 (V)
-0.00511875,-0.0008989125940859211
-0.0051175,-0.0005639340365308776
-0.005116249999999999,-0.0008989125940859211
-0.005115,-0.0008989125940859211
-0.005113749999999999,-0.00022895547897627821
-0.0051125,-0.0012338911516405204
-0.0051112499999999995,-0.0005639340365308776
-0.00511,-0.0005639340365308776
-0.00510875,-0.0008989125940859211
-0.005107499999999999,-0.0005639340365310299
-0.00510625,-0.0008989125940859211
-0.005104999999999999,-0.00022895547897658288
-0.00510375,-0.0008989125940859211
-0.005102499999999999,-0.0005639340365308776
-0.00510125,-0.0008989125940859211
-0.0050999999999999995,-0.0005639340365308776
-0.00509875,-0.0005639340365308776
-0.0050975,-0.0005639340365308776
-0.005096249999999999,0.00010602307857771184
-0.005095,-0.0012338911516405204
-0.005093749999999999,-0.0005639340365310299
-0.0050925,-0.0008989125940859211
-0.005091249999999999,-0.0012338911516405204
-0.00509,-0.00022895547897673531
-0.0050887499999999995,-0.0015688697091951198
-0.0050875,-0.0008989125940862257
-0.00508625,-0.0012338911516405204
-0.005084999999999999,-0.001233891151640368
-0.00508375,-0.0008989125940859211
-0.005082499999999999,-0.0008989125940859211
-0.00508125,-0.00022895547897627821
-0.0050799999999999994,-0.0012338911516405204
-0.00507875,0.00010602307857771184
-0.0050774999999999995,-0.0008989125940859211
-0.00507625,-0.0008989125940859211
-0.005075,-0.0005639340365308776
-0.005073749999999999,-0.0012338911516400633
-0.0050725,-0.00022895547897627821
-0.005071249999999999,-0.0008989125940859211
-0.00507,-0.0005639340365308776
-0.0050687499999999995,-0.0005639340365308776
-0.0050675,-0.0012338911516402158
-0.00506625,-0.0005639340365308776
-0.005064999999999999,-0.0015688697091948151
-0.00506375,-0.0008989125940859211
-0.005062499999999999,-0.0008989125940860734
-0.00506125,-0.0012338911516405204
-0.005059999999999999,-0.0008989125940859211
-0.00505875,-0.0012338911516405204
-0.0050574999999999995,-0.0005639340365308776
-0.00505625,-0.0008989125940857687
-0.005055,-0.0005639340365308776
-0.005053749999999999,-0.0005639340365310299
-0.0050525,-0.0008989125940859211
-0.005051249999999999,-0.00022895547897643055
-0.00505,-0.0005639340365308776
-0.005048749999999999,-0.00022895547897627821
-0.0050475,-0.0008989125940856164
-0.0050462499999999995,-0.0008989125940859211
-0.005045,-0.00022895547897658288
-0.00504375,-0.0012338911516405204
-0.005042499999999999,-0.0002289554789767352
-0.00504125,-0.0012338911516405204
-0.005039999999999999,-0.0005639340365308776
-0.00503875,-0.0008989125940859211
-0.0050374999999999994,-0.0012338911516405204
-0.00503625,-0.0005639340365311823
-0.0050349999999999995,-0.0015688697091951198
-0.00503375,-0.0005639340365313347
-0.0050325,-0.0008989125940859211
-0.005031249999999999,-0.0005639340365307253
-0.00503,-0.00022895547897627821
-0.005028749999999999,-0.0012338911516405204
-0.0050275,-0.0005639340365308776
-0.0050262499999999995,-0.0019038482667497192
-0.005025,-0.0008989125940863782
-0.00502375,-0.0012338911516405204
-0.005022499999999999,-0.0008989125940856164
-0.00502125,-0.00022895547897627821
-0.005019999999999999,-0.0015688697091945105
-0.00501875,-0.00022895547897627821
-0.005017499999999999,-0.0012338911516405204
-0.00501625,-0.0012338911516405204
-0.0050149999999999995,-0.0012338911516405204
-0.00501375,-0.0015688697091949676
-0.0050125,-0.0005639340365308776
-0.005011249999999999,-0.0015688697091949674
-0.00501,-0.0012338911516405204
-0.005008749999999999,-0.0012338911516405204
-0.0050075,-0.0012338911516405204
-0.005006249999999999,-0.0012338911516405204
-0.005005,-0.0019038482667497192
-0.0050037499999999995,-0.0005639340365308776
-0.0050025,-0.0019038482667491099
-0.00500125,-0.0012338911516405204
-0.004999999999999999,-0.0008989125940860734
-0.00499875,-0.0012338911516405204
-0.004997499999999999,-0.0005639340365308776
-0.00499625,-0.0015688697091951198
-0.0049949999999999994,-0.00022895547897627821
-0.00499375,-0.0008989125940856164
-0.0049924999999999995,-0.0008989125940859211
-0.00499125,-0.0005639340365310299
-0.00499,-0.0012338911516405204
-0.004988749999999999,-0.0005639340365313346
-0.0049875,-0.0015688697091951198
-0.004986249999999999,-0.0008989125940859211
-0.004985,-0.0008989125940859211
-0.0049837499999999995,-0.0008989125940859211
-0.0049825,-0.00022895547897658288
-0.00498125,-0.0012338911516405204
-0.004979999999999999,-0.0005639340365311823
-0.00497875,-0.0012338911516405204
-0.004977499999999999,-0.0005639340365310299
-0.00497625,-0.0008989125940859211
-0.004974999999999999,-0.0012338911516405204
-0.00497375,0.00010602307857832116
-0.0049724999999999995,-0.0015688697091951198
-0.00497125,-0.0008989125940862257
-0.00497,-0.0005639340365308776
-0.004968749999999999,-0.0008989125940857687
-0.0049675,-0.0005639340365308776
-0.004966249999999999,-0.0008989125940854641
-0.004965,0.00010602307857832116
-0.004963749999999999,-0.0012338911516405204
-0.0049625,-0.0005639340365308776
-0.0049612499999999995,-0.00022895547897627821
-0.00496,-0.0005639340365307253
-0.00495875,-0.00022895547897627821
-0.004957499999999999,-0.0012338911516400633
-0.00495625,-0.00022895547897627821
-0.004954999999999999,-0.0005639340365308776
-0.00495375,-0.00022895547897627821
-0.0049524999999999994,-0.00022895547897627821
-0.00495125,-0.0008989125940856164
-0.0049499999999999995,0.00010602307857832116
-0.00494875,-0.000898912594085464
-0.0049475,-0.00022895547897627821
-0.004946249999999999,-0.0005639340365308776
-0.004945,-0.0005639340365308776
-0.004943749999999999,-0.00022895547897627821
-0.0049425,-0.002573805381859362
-0.0049412499999999995,-0.0022388268243047627
-0.00494,-0.00257380538185921
-0.0049387499999999996,-0.002573805381859362
-0.0049375,-0.002908783939413809
-0.00493625,-0.0032437624969685608
-0.004934999999999999,-0.0029087839394144185
-0.00493375,-0.003913719612078204
-0.004932499999999999,-0.0032437624969685608
-0.00493125,-0.004248698169632803
-0.0049299999999999995,-0.004583676727187402
-0.00492875,-0.004248698169632956
-0.0049275,-0.004918655284742002
-0.004926249999999999,-0.004248698169632956
-0.004925,-0.004583676727187402
-0.004923749999999999,-0.004918655284742002
-0.0049225,-0.004918655284742002
-0.004921249999999999,-0.005253633842297045
-0.00492,-0.005253633842297045
-0.0049187499999999995,-0.006258569514960843
-0.0049175,-0.005253633842297502
-0.00491625,-0.005923590957406244
-0.004914999999999999,-0.005923590957406091
-0.00491375,-0.005588612399851645
-0.004912499999999999,-0.00659354807251543
-0.00491125,-0.005588612399851645
-0.0049099999999999994,-0.006258569514960843
-0.00490875,-0.005588612399851949
-0.0049074999999999995,-0.005923590957406244
-0.00490625,-0.006593548072515582
-0.004905,-0.006258569514960843
-0.004903749999999999,-0.0069285266300698764
-0.0049025,-0.005588612399851645
-0.004901249999999999,-0.006593548072515887
-0.0049,-0.006258569514960843
-0.0048987499999999995,-0.005588612399851645
-0.0048975,-0.005923590957406091
-0.0048962499999999996,-0.005253633842297045
-0.004895,-0.006593548072515278
-0.00489375,-0.006258569514960843
-0.004892499999999999,-0.006928526630070486
-0.00489125,-0.006928526630070486
-0.004889999999999999,-0.006258569514960843
-0.00488875,-0.007263505187625086
-0.0048874999999999995,-0.006928526630070486
-0.00488625,-0.007263505187624933
-0.004885,-0.006593548072515887
-0.004883749999999999,-0.006258569514961148
-0.0048825,-0.006928526630070486
-0.004881249999999999,-0.0059235909574070055
-0.00488,-0.007598483745179685
-0.004878749999999999,-0.006593548072515887
-0.0048775,-0.007263505187625086
-0.0048762499999999995,-0.007598483745179685
-0.004875,-0.006928526630070791
-0.00487375,-0.006928526630070486
-0.004872499999999999,-0.005923590957406548
-0.00487125,-0.006593548072515887
-0.004869999999999999,-0.0065935480725160395
-0.00486875,-0.006928526630070486
-0.004867499999999999,-0.006928526630070486
-0.00486625,-0.0065935480725160395
-0.0048649999999999995,-0.006928526630070486
-0.00486375,-0.0065935480725160395
-0.0048625,-0.006928526630070486
-0.004861249999999999,-0.006928526630070182
-0.00486,-0.006258569514960843
-0.004858749999999999,-0.006258569514960843
-0.0048575,-0.004248698169632803
-0.0048562499999999995,-0.004583676727187402
-0.004855,-0.004248698169632956
-0.0048537499999999996,-0.003913719612078204
-0.0048525,-0.0032437624969688652
-0.00485125,-0.0022388268243047627
-0.004849999999999999,-0.0029087839394135043
-0.00484875,-0.0019038482667497192
-0.004847499999999999,-0.0022388268243047627
-0.00484625,-0.0015688697091951198
-0.0048449999999999995,-0.0015688697091951198
-0.00484375,-0.001903848266749567
-0.0048425,-0.0008989125940859211
-0.004841249999999999,-0.0015688697091948151
-0.00484,-0.0008989125940859211
-0.004838749999999999,-0.0012338911516406729
-0.0048375,-0.0015688697091951198
-0.004836249999999999,-0.0008989125940859211
-0.004835,-0.0008989125940859211
-0.0048337499999999995,0.00044100163613292054
-0.0048325,-0.00022895547897597355
-0.00483125,0.0007759801936875199
-0.004829999999999999,0.00044100163613307287
-0.00482875,0.0007759801936875199
-0.004827499999999999,0.001445937308796858
-0.00482625,0.0007759801936875199
-0.004824999999999999,0.0014459373087971628
-0.00482375,0.0011109587512427156
-0.0048224999999999995,0.0014459373087971628
-0.00482125,0.0014459373087971628
-0.00482,0.0011109587512425634
-0.004818749999999999,0.0021158944239059044
-0.0048175,0.0011109587512425634
-0.004816249999999999,0.002450872981461405
-0.004815,0.0021158944239063615
-0.0048137499999999995,0.0017809158663517621
-0.0048125,0.0024508729814611005
-0.0048112499999999996,0.0021158944239063615
-0.00481,0.0027858515390157
-0.00480875,0.0021158944239063615
-0.004807499999999999,0.002450872981461557
-0.00480625,0.0027858515390160044
-0.004804999999999999,0.002450872981461405
-0.00480375,0.0037907872116802466
-0.0048024999999999995,0.0027858515390160044
-0.00480125,0.004125765769234237
-0.0048,0.003455808654125203
-0.004798749999999999,0.0037907872116802466
-0.0047975,0.0037907872116802466
-0.004796249999999999,0.003120830096571213
-0.004795,0.004460744326789445
-0.004793749999999999,0.0031208300965706037
-0.0047925,0.0037907872116802466
-0.0047912499999999995,0.004460744326789445
-0.00479,0.004125765769234999
-0.00478875,0.004125765769234846
-0.004787499999999999,0.003455808654125508
-0.00478625,0.004125765769234846
-0.004784999999999999,0.0041257657692345415
-0.00478375,0.003455808654125203
-0.004782499999999999,0.004125765769234846
-0.00478125,0.003790787211680399
-0.0047799999999999995,0.005130701441898644
-0.00477875,0.004125765769235303
-0.0047775,0.004460744326789445
-0.004776249999999999,0.00479572288434374
-0.004775,0.004125765769234846
-0.004773749999999999,0.005130701441898644
-0.0047725,0.004460744326789445
-0.0047712499999999994,0.0054656799994536875
-0.00477,0.005130701441898797
-0.0047687499999999996,0.004460744326789445
-0.0047675,0.00513070144189834
-0.00476625,0.004460744326789445
-0.004764999999999999,0.005465679999453383
-0.00476375,0.004795722884344045
-0.004762499999999999,0.004460744326789445
-0.00476125,0.004795722884344045
-0.0047599999999999995,0.004795722884344045
-0.00475875,0.005130701441898491
-0.0047575,0.004125765769234846
-0.004756249999999999,0.005130701441898491
-0.004755,0.004795722884344045
-0.004753749999999999,0.004795722884344197
-0.0047525,0.005130701441898644
-0.004751249999999999,0.004460744326789445
-0.00475,0.0054656799994536875
-0.0047487499999999995,0.004795722884344045
-0.0047475,0.005130701441898491
-0.00474625,0.004795722884344045
-0.004744999999999999,0.0037907872116807037
-0.00474375,0.004795722884344045
-0.004742499999999999,0.00412576576923515
-0.00474125,0.004795722884344045
-0.004739999999999999,0.004125765769234846
-0.00473875,0.004460744326789293
-0.0047374999999999995,0.004795722884344045
-0.00473625,0.004460744326789598
-0.004735,0.005130701441898644
-0.004733749999999999,0.003790787211680856
-0.0047325,0.005130701441898644
-0.004731249999999999,0.005130701441898644
-0.00473,0.004795722884344045
-0.0047287499999999994,0.0054656799994536875
-0.0047275,0.004125765769235455
-0.0047262499999999995,0.005130701441898644
-0.004725,0.00446074432678975
-0.00472375,0.004125765769234846
-0.004722499999999999,0.004460744326789141
-0.00472125,0.0037907872116802466
-0.004719999999999999,0.004460744326789445
-0.00471875,0.004125765769234846
-0.0047174999999999995,0.004795722884344045
-0.00471625,0.004460744326789598
-0.004715,0.004125765769234846
-0.004713749999999999,0.004460744326788988
-0.0047125,0.003455808654125203
-0.004711249999999999,0.004460744326789141
-0.00471,0.0037907872116802466
-0.004708749999999999,0.004460744326789445
-0.0047075,0.004125765769234846
-0.0047062499999999995,0.003455808654125203
-0.004705,0.0041257657692345415
-0.00470375,0.0037907872116802466
-0.004702499999999999,0.004460744326788988
-0.00470125,0.003455808654125203
-0.004699999999999999,0.0034558086541253553
-0.00469875,0.0037907872116802466
-0.004697499999999999,0.003455808654125203
-0.00469625,0.004460744326788988
-0.0046949999999999995,0.0031208300965706037
-0.00469375,0.0027858515390161566
-0.0046925,0.0027858515390160044
-0.004691249999999999,0.003120830096570756
-0.00469,0.003455808654125203
-0.004688749999999999,0.0021158944239063615
-0.0046875,0.0031208300965706037
-0.0046862499999999994,0.002450872981461405
-0.004685,0.002450872981461405
-0.0046837499999999995,0.002450872981461405
-0.0046825,0.0021158944239065137
-0.00468125,0.0031208300965706037
-0.004679999999999999,0.0017809158663520668
-0.00467875,0.002450872981461405
-0.004677499999999999,0.0017809158663517621
-0.00467625,0.0017809158663517621
-0.0046749999999999995,0.0021158944239063615
-0.00467375,0.0014459373087974674
-0.0046725,0.0027858515390160044
-0.004671249999999999,0.0017809158663514575
-0.00467,0.0011109587512425634
-0.004668749999999999,0.0004410016361323112
-0.0046675,-0.0008989125940859211
-0.004666249999999999,-0.0005639340365308776
-0.004665,-0.0019038482667497192
-0.0046637499999999995,-0.0012338911516405204
-0.0046625,-0.0019038482667494145
-0.00466125,-0.0019038482667497192
-0.004659999999999999,-0.0019038482667501763
-0.00465875,-0.0029087839394139614
-0.004657499999999999,-0.0025738053818595143
-0.00465625,-0.0029087839394139614
-0.004654999999999999,-0.0032437624969685608
-0.00465375,-0.0032437624969685608
-0.0046524999999999995,-0.003913719612078204
-0.00465125,-0.003913719612078204
-0.00465,-0.004248698169632803
-0.004648749999999999,-0.0035787410545240613
-0.0046475,-0.004583676727187402
-0.004646249999999999,-0.003913719612078204
-0.004645,-0.004248698169632803
-0.0046437499999999994,-0.004583676727187402
-0.0046425,-0.00324376249696917
-0.0046412499999999995,-0.004583676727187402
-0.00464,-0.004248698169632956
-0.00463875,-0.004918655284742002
-0.004637499999999999,-0.0052536338422968926
-0.00463625,-0.004918655284742002
-0.004634999999999999,-0.006258569514960843
-0.00463375,-0.004918655284742002
-0.0046324999999999995,-0.005588612399851645
-0.00463125,-0.005588612399851645
-0.00463,-0.005253633842297045
-0.004628749999999999,-0.005923590957405787
-0.0046275,-0.004918655284742002
-0.004626249999999999,-0.0059235909574059395
-0.004625,-0.005253633842297045
-0.004623749999999999,-0.006258569514960843
-0.0046225,-0.006593548072515887
-0.0046212499999999995,-0.005923590957406244
-0.00462,-0.006593548072515582
-0.00461875,-0.006258569514960843
-0.004617499999999999,-0.006593548072515887
-0.00461625,-0.006593548072515887
-0.004614999999999999,-0.0065935480725160395
-0.00461375,-0.006928526630070486
-0.004612499999999999,-0.006258569514960843
-0.00461125,-0.007598483745179685
-0.0046099999999999995,-0.006258569514960843
-0.00460875,-0.006928526630070182
-0.0046075,-0.007263505187625086
-0.004606249999999999,-0.006928526630070791
-0.004605,-0.007598483745179685
-0.004603749999999999,-0.006593548072515887
-0.0046025,-0.007263505187625086
-0.0046012499999999994,-0.006593548072515887
-0.0046,-0.0069285266300703335
-0.0045987499999999995,-0.007598483745179685
-0.0045975,-0.006593548072516344
-0.00459625,-0.007598483745179685
-0.004594999999999999,-0.006928526630070791
-0.00459375,-0.007598483745179685
-0.004592499999999999,-0.007598483745179685
-0.00459125,-0.006928526630070486
-0.0045899999999999995,-0.007263505187625086
-0.00458875,-0.006593548072516191
-0.0045874999999999996,-0.007263505187625086
-0.00458625,-0.006928526630070639
-0.004585,-0.007263505187625086
-0.004583749999999999,-0.007263505187624933
-0.0045825,-0.006928526630070486
-0.004581249999999999,-0.007598483745179685
-0.00458,-0.006593548072515887
-0.0045787499999999995,-0.007263505187625086
-0.0045775,-0.007263505187625086
-0.00457625,-0.006928526630070486
-0.004574999999999999,-0.0072635051876246285
-0.00457375,-0.006258569514960843
-0.004572499999999999,-0.006928526630070029
-0.00457125,-0.005923590957406244
-0.004569999999999999,-0.006593548072515887
-0.00456875,-0.006928526630070486
-0.0045674999999999995,-0.006593548072515887
-0.00456625,-0.0069285266300703335
-0.004565,-0.006593548072515887
-0.004563749999999999,-0.007263505187624781
-0.0045625,-0.006593548072515887
-0.004561249999999999,-0.006258569514960843
-0.00456,-0.006258569514960843
-0.0045587499999999994,-0.006258569514960843
-0.0045575,-0.006593548072515734
-0.0045562499999999995,-0.005923590957406244
-0.004555,-0.006258569514960691
-0.00455375,-0.006593548072515887
-0.004552499999999999,-0.006258569514960996
-0.00455125,-0.006593548072515887
-0.004549999999999999,-0.004918655284742002
-0.00454875,-0.006593548072515887
-0.0045474999999999995,-0.005588612399851645
-0.00454625,-0.005588612399851645
-0.0045449999999999996,-0.005253633842297045
-0.00454375,-0.004918655284742154
-0.0045425,-0.005923590957406244
-0.004541249999999999,-0.005253633842297045
-0.00454,-0.005253633842297045
-0.004538749999999999,-0.005253633842297045
-0.0045375,-0.004918655284742002
-0.0045362499999999995,-0.005253633842297045
-0.004535,-0.00424869816963326
-0.00453375,-0.005923590957406244
-0.004532499999999999,-0.004583676727187555
-0.00453125,-0.004918655284742002
-0.004529999999999999,-0.004918655284741697
-0.00452875,-0.004248698169632803
-0.004527499999999999,-0.004918655284742002
-0.00452625,-0.004583676727187402
-0.0045249999999999995,-0.004918655284742002
-0.00452375,-0.004583676727187555
-0.0045225,-0.004248698169632803
-0.004521249999999999,-0.004918655284741545
-0.00452,-0.003913719612078204
-0.004518749999999999,-0.00424869816963265
-0.0045175,-0.003913719612078204
-0.004516249999999999,-0.004248698169632803
-0.004515,-0.003913719612078356
-0.0045137499999999995,-0.0035787410545236042
-0.0045125,-0.003913719612078051
-0.00451125,-0.0029087839394139614
-0.004509999999999999,-0.003913719612078051
-0.00450875,-0.0035787410545236042
-0.004507499999999999,-0.0032437624969685608
-0.00450625,-0.0035787410545236042
-0.0045049999999999995,-0.0029087839394139614
-0.00450375,-0.0039137196120777465
-0.0045024999999999996,-0.002573805381859362
-0.00450125,-0.0032437624969682563
-0.0045,-0.002573805381859362
-0.004498749999999999,-0.0029087839394142663
-0.0044975,-0.0035787410545236042
-0.004496249999999999,-0.0022388268243047627
-0.004495,-0.0029087839394139614
-0.0044937499999999995,-0.0019038482667497192
-0.0044925,-0.0025738053818590576
-0.00449125,-0.0032437624969685608
-0.004489999999999999,-0.002238826824304915
-0.00448875,-0.002573805381859362
-0.004487499999999999,-0.0012338911516409775
-0.00448625,-0.0022388268243047627
-0.004484999999999999,-0.0019038482667497192
-0.00448375,-0.0015688697091951198
-0.0044824999999999995,-0.0019038482667497192
-0.00448125,-0.001233891151640825
-0.00448,-0.0022388268243047627
